<?xml version="1.0" encoding="utf-8"?>
<!-- Generator: Adobe Illustrator 16.0.0, SVG Export Plug-In . SVG Version: 6.00 Build 0)  -->
<!DOCTYPE svg PUBLIC "-//W3C//DTD SVG 1.1//EN" "http://www.w3.org/Graphics/SVG/1.1/DTD/svg11.dtd">
<svg version="1.1" id="Capa_1" xmlns="http://www.w3.org/2000/svg" xmlns:xlink="http://www.w3.org/1999/xlink" x="0px" y="0px"
	 width="1080px" height="1080px" viewBox="0 0 1080 1080" enable-background="new 0 0 1080 1080" xml:space="preserve">
<g id="Capa_2" display="none">
	<polygon display="inline" fill="#F8941E" points="567.119,752.301 566.86,757.18 565.579,761.801 563.78,766.171 561.46,770.28 
		558.38,773.87 554.78,776.961 550.67,779.52 546.31,781.32 541.68,782.35 536.8,782.61 532.17,782.35 527.55,781.32 523.18,779.52 
		519.07,776.961 515.47,773.87 512.39,770.28 509.82,766.171 508.02,761.801 506.99,757.18 506.48,752.301 506.99,747.671 
		508.02,743.051 509.82,738.68 512.39,734.57 515.47,730.98 519.07,727.89 523.18,725.33 527.55,723.53 532.17,722.5 536.8,721.98 
		541.68,722.5 546.31,723.53 550.67,725.33 554.78,727.89 558.38,730.98 561.46,734.57 563.78,738.68 565.579,743.051 
		566.86,747.671 	"/>
	<path display="inline" fill="#F8941E" d="M886.75,520.591l-1.021-16.688l-2.062-16.7l-2.569-16.439l-3.34-16.181l-4.107-16.18
		l-4.62-15.932l-5.65-15.92l-6.17-15.421l-6.938-15.159l-7.448-14.9l-8.229-14.38l-8.979-14.12l-9.263-13.62l-10.277-13.36
		l-10.53-12.84l-11.3-12.33L772.422,268.6l-12.341-11.04l-12.59-10.8l-13.359-10.011l-13.62-9.51l-14.13-8.979l-14.641-8.221
		l-14.649-7.46l-15.16-6.93l-15.67-6.17l-15.681-5.65l-15.93-4.62L598.47,175.1l-16.188-3.34l-16.45-2.57l-16.699-2.061
		l-16.438-1.02l-16.7-0.26l-16.7,0.26l-16.71,1.02l-16.439,2.061l-16.438,2.57l-16.45,3.34l-16.188,4.109l-15.933,4.62l-15.67,5.65
		l-15.42,6.17l-15.16,6.93l-14.897,7.46l-14.392,8.221l-14.131,8.979l-13.619,9.51l-13.36,10.011l-12.85,10.8L259.3,268.6
		l-11.56,11.82l-11.31,12.33l-10.79,12.84l-10.02,13.36l-9.511,13.62l-8.729,14.12l-8.22,14.38l-7.71,14.9l-6.94,15.159l-6.17,15.42
		l-5.39,15.921l-4.881,15.932l-4.119,16.18l-3.341,16.181l-2.56,16.439l-1.8,16.7l-1.03,16.688l-0.52,16.699l0.52,16.438
		l1.03,16.699l1.8,16.689l2.56,16.438l3.341,16.189l4.119,16.188l4.881,15.922l5.39,15.93l6.17,15.41l6.94,15.147l7.71,14.899
		l8.22,14.391l8.729,14.13l9.511,13.87l10.02,13.103l10.79,12.84l11.31,12.33l11.561,11.818l12.33,11.302l12.85,10.527l13.36,10.021
		l13.619,9.511l14.131,8.989l14.392,8.21l14.898,7.45l15.159,6.938l15.42,6.16l15.671,5.659l15.93,4.881l16.19,3.851l16.449,3.342
		l16.438,2.817l16.439,1.801l16.71,1.029l16.7,0.511l16.699-0.511l16.439-1.029l16.699-1.801l16.45-2.817l16.188-3.342l16.182-3.851
		l15.931-4.881l15.681-5.659l15.67-6.16l15.16-6.938l14.649-7.45l14.641-8.21l14.13-8.989l13.62-9.511l13.359-10.021l12.59-10.527
		l12.341-11.302l11.819-11.818l11.3-12.33l10.53-12.84l10.277-13.103l9.262-13.87l8.979-14.13l8.229-14.391l7.448-14.899
		l6.939-15.147l6.17-15.41l5.648-15.93l4.62-15.922l4.109-16.188l3.34-16.189l2.569-16.438l2.062-16.689l1.021-16.698l0.26-16.439
		L886.75,520.591z M842.3,553.22l-1.021,15.933l-2.063,15.92L836.65,601l-3.603,15.66l-4.37,15.42l-4.87,15.41L817.9,662.39
		l-6.433,14.643l-7.188,14.391l-7.973,13.869l-8.479,13.62l-9.25,13.101l-10.01,12.58l-10.54,12.33l-11.05,11.563l-11.562,11.038
		l-12.08,10.539l-12.591,9.762l-13.109,9.238l-13.607,8.739l-14.143,7.96l-14.12,7.189l-14.647,6.431l-15.159,5.909l-15.16,4.881
		l-15.42,4.369l-15.67,3.591l-15.931,2.569l-15.933,2.05l-15.938,1.03l-15.92,0.511l-16.189-0.511l-15.93-1.03l-15.931-2.05
		l-15.671-2.569l-15.681-3.591l-15.67-4.369l-15.16-4.881l-14.898-5.909l-14.649-6.431l-14.391-7.189l-13.88-7.96l-13.61-8.739
		l-13.108-9.238l-12.591-9.762l-12.33-10.539l-11.56-11.039l-11.051-11.563l-10.529-12.33l-9.771-12.58l-9.25-13.101l-8.479-13.619
		l-7.96-13.87l-7.2-14.391l-6.68-14.643l-5.65-14.897l-5.14-15.41l-4.11-15.42l-3.6-15.659l-2.82-15.931l-1.8-15.92l-1.29-15.933
		l-0.25-15.93l0.25-16.181l1.29-15.932l1.8-15.92l2.82-15.93l3.6-15.671l4.11-15.409l5.14-15.149l5.65-15.159l6.68-14.642
		l7.2-14.391l7.96-13.87l8.479-13.62l9.25-13.1l9.771-12.58l10.529-12.33l11.051-11.56l11.56-11.05l12.33-10.53l12.591-9.76
		l13.108-9.25l13.61-8.729l13.88-7.71l14.391-7.45l14.649-6.42l14.898-5.649l15.16-5.141l15.67-4.359l15.681-3.341l15.671-2.829
		l15.931-2.061l15.93-1.02l16.189-0.511l15.92,0.511l15.938,1.02l15.933,2.061l15.931,2.829l15.67,3.341l15.42,4.359l15.16,5.141
		l15.159,5.649l14.648,6.42l14.119,7.45l14.143,7.71l13.607,8.729l13.11,9.25l12.59,9.76l12.08,10.53l11.562,11.05l11.051,11.56
		l10.54,12.33l10.01,12.58l9.25,13.1l8.479,13.62l7.972,13.87l7.188,14.391l6.433,14.642l5.908,15.159l4.869,15.149l4.37,15.409
		l3.603,15.671l2.567,15.93l2.063,15.92l1.021,15.932l0.521,16.181L842.3,553.22z"/>
	<polygon display="inline" fill="#F8941E" points="567.119,752.301 566.86,757.18 565.579,761.801 563.78,766.171 561.46,770.28 
		558.38,773.87 554.78,776.961 550.67,779.52 546.31,781.32 541.68,782.35 536.8,782.61 532.17,782.35 527.55,781.32 523.18,779.52 
		519.07,776.961 515.47,773.87 512.39,770.28 509.82,766.171 508.02,761.801 506.99,757.18 506.48,752.301 506.99,747.671 
		508.02,743.051 509.82,738.68 512.39,734.57 515.47,730.98 519.07,727.89 523.18,725.33 527.55,723.53 532.17,722.5 536.8,721.98 
		541.68,722.5 546.31,723.53 550.67,725.33 554.78,727.89 558.38,730.98 561.46,734.57 563.78,738.68 565.579,743.051 
		566.86,747.671 	"/>
	<polygon display="inline" fill="#F8941E" points="567.119,752.301 566.86,757.18 565.579,761.801 563.78,766.171 561.46,770.28 
		558.38,773.87 554.78,776.961 550.67,779.52 546.31,781.32 541.68,782.35 536.8,782.61 532.17,782.35 527.55,781.32 523.18,779.52 
		519.07,776.961 515.47,773.87 512.39,770.28 509.82,766.171 508.02,761.801 506.99,757.18 506.48,752.301 506.99,747.671 
		508.02,743.051 509.82,738.68 512.39,734.57 515.47,730.98 519.07,727.89 523.18,725.33 527.55,723.53 532.17,722.5 536.8,721.98 
		541.68,722.5 546.31,723.53 550.67,725.33 554.78,727.89 558.38,730.98 561.46,734.57 563.78,738.68 565.579,743.051 
		566.86,747.671 	"/>
	<polygon display="inline" fill="#F8941E" points="766.25,569.15 765.22,559.64 763.68,550.4 761.11,541.14 757.77,532.16 
		753.92,523.68 749.289,515.461 744.15,507.49 738.24,500.04 731.56,493.11 724.619,486.94 716.909,481.04 708.949,476.15 
		700.73,471.53 691.99,467.94 682.99,464.85 673.75,462.801 663.22,461.25 652.68,460.75 642.15,460.75 631.61,461.25 
		621.329,462.801 610.8,464.85 600.78,467.43 590.76,470.76 580.99,474.881 550.409,490.03 520.1,505.69 490.039,522.14 
		460.49,539.091 430.94,556.56 424.51,560.16 417.579,562.98 412.709,564.43 410.64,565.04 403.44,566.58 395.99,567.35 
		388.539,567.091 381.09,566.32 373.9,564.78 366.959,562.47 360.28,559.381 353.85,555.53 347.69,551.171 342.289,546.28 
		337.409,540.89 333.039,534.72 329.19,528.56 326.1,521.62 323.789,514.69 321.99,507.49 321.84,506.02 321.22,500.04 
		320.97,492.591 321.74,485.4 323.02,477.95 325.34,471.02 330.22,459.97 335.869,449.19 342.039,438.65 348.97,428.64 
		356.43,419.13 364.39,410.14 372.869,401.4 381.86,393.19 391.11,385.48 401.13,378.55 411.15,371.87 421.94,365.96 432.23,361.07 
		443.01,356.71 454.06,353.12 465.369,350.29 476.67,347.97 488.24,346.43 499.8,345.67 511.36,345.67 522.92,346.17 
		527.039,346.17 531.15,345.41 535.26,343.87 538.86,341.56 541.94,338.73 544.51,335.65 546.56,331.79 548.11,327.94 
		548.61,323.83 548.61,319.72 547.85,315.61 546.56,311.5 544.51,307.9 541.68,304.56 538.6,301.99 535,299.69 531.15,298.39 
		527.039,297.37 512.39,296.34 497.74,295.83 483.1,296.34 468.449,297.37 457.15,299.17 446.1,301.48 435.05,304.56 424.26,308.42 
		413.98,313.04 403.699,318.44 394.199,324.34 381.86,331.54 370.039,339.24 358.74,347.72 347.69,356.71 337.409,366.22 
		327.65,376.49 318.14,387.02 309.659,398.32 301.44,409.88 293.99,421.95 287.31,434.291 281.4,447.131 276,460.23 271.38,473.591 
		269.84,482.841 269.06,492.08 268.81,501.33 269.58,510.58 270.86,519.57 272.92,528.56 275.49,537.551 279.08,546.03 
		282.94,554.51 287.82,562.47 292.96,569.921 298.869,577.11 305.289,583.79 312.23,589.95 319.68,595.61 327.39,600.49 
		335.61,604.85 344.09,608.7 352.829,611.79 361.56,614.1 370.81,615.9 380.06,616.921 389.31,617.19 398.56,616.66 407.56,615.39 
		416.8,613.591 425.539,611.01 434.28,607.671 442.5,603.56 450.72,599.2 458.43,593.81 486.949,577.11 516.25,560.921 
		545.789,545.26 575.6,530.62 605.909,516.48 644.46,506.211 651.65,506.73 658.59,507.75 665.52,509.81 672.21,512.12 
		678.89,515.461 684.789,519.31 690.71,523.421 695.84,528.56 700.47,533.961 704.84,539.61 708.44,545.77 711.26,552.45 
		713.84,559.131 715.369,566.32 716.4,573.26 716.659,581.99 716.4,590.461 715.11,598.95 713.32,607.421 710.75,615.64 
		707.659,623.6 703.81,631.31 699.19,638.5 733.869,678.58 740.039,669.841 745.699,660.85 750.579,651.35 754.68,641.591 
		758.539,631.82 761.369,621.551 763.68,611.27 765.48,600.74 766.25,590.211 766.77,579.671 	"/>
	<polygon display="inline" fill="#F8941E" points="468.449,297.37 394.199,324.34 403.699,318.44 413.98,313.04 424.26,308.42 
		435.05,304.56 446.1,301.48 457.15,299.17 	"/>
	<polygon display="inline" fill="#F8941E" points="527.039,297.37 468.449,297.37 483.1,296.34 497.74,295.83 512.39,296.34 	"/>
	<polygon display="inline" fill="#F8941E" points="548.61,319.72 548.61,323.83 548.11,327.94 546.56,331.79 544.51,335.65 
		541.94,338.73 538.86,341.56 535.26,343.87 531.15,345.41 527.039,346.17 522.92,346.17 527.039,297.37 531.15,298.39 535,299.69 
		538.6,301.99 541.68,304.56 544.51,307.9 546.56,311.5 547.85,315.61 	"/>
</g>
<g>
	<g id="XMLID_1_">
		<g>
			<path fill="#787878" d="M1034.81,362.08v390.3l-0.93,9.09l-3.62,9.09l-6.35,7.25l-7.26,6.351l-9.08,3.63l-9.09,0.92v0.89H819.61
				l37.22,96.24H636.17l36.33-96.24H494.53v-0.89l-9.09-0.92l-9.08-3.63l-7.26-6.351l-6.35-7.25l-3.64-9.09l-0.91-9.09h-0.9V659.8
				h16.34v92.58l1.82,8.2l4.53,6.33l6.36,4.54l8.18,1.819H998.48l8.17-1.819l6.35-4.54l4.55-6.33l1.811-8.2v-390.3l-1.811-8.17
				l-4.55-6.36l-6.35-4.54l-8.17-1.82H494.53l-8.18,1.82l-6.36,4.54l-4.53,6.36l-1.82,8.17v206.95H457.3V362.08h0.9l0.91-9.09
				l3.64-9.07l6.35-7.27l7.26-6.35l9.08-3.63l9.09-0.92H998.48l9.09,0.92l9.08,3.63l7.26,6.35l6.35,7.27l3.62,9.07L1034.81,362.08z
				 M834.11,870.4L803.25,789.6H689.76L658.87,870.4H834.11z"/>
			<polygon fill="#787878" points="997.58,362.97 997.58,727.88 494.53,727.88 494.53,659.8 510.86,659.8 510.86,712.46 
				982.14,712.46 982.14,378.41 510.86,378.41 510.86,569.03 494.53,569.03 494.53,362.97 			"/>
			<path fill="#F8941E" d="M833.21,435.59v222.4H659.79V442.87l30.86-31.78l21.8,24.5l26.319-27.24l27.261,29.06l35.399-36.3
				L833.21,435.59z M817.78,641.65V441.06L801.43,423.8l-35.399,37.22l-27.261-29.97l-26.319,27.24l-22.69-23.59l-14.55,14.53
				v192.42H817.78z"/>
			<rect x="717.91" y="606.24" fill="#F8941E" width="57.21" height="15.439"/>
			<rect x="717.91" y="577.19" fill="#F8941E" width="57.21" height="15.449"/>
			<path fill="#F8941E" d="M771.47,533.64v4.52l-0.92,4.54l-1.79,3.63l-2.729,3.65l-0.92,0.89l-2.71,2.74l-3.65,1.81l-4.54,1.811
				h-4.52h-0.91v5.46h-5.44v-4.54l-4.57-0.92l-4.52-1.811l-2.73-0.92l-2.729-2.71l-3.63-2.73l-0.891-1.81l-1.84-3.62l-1.81-4.55
				v-4.54l9.09-1.81l0.91,5.43l1.8,3.649l1.83,1.82l2.73,3.62l3.63,1.81l2.729,0.921v-30.86l-3.649-0.92l-4.551-1.81l-3.62-1.82
				l-3.619-2.73l-2.74-3.62l-0.891-0.92l-1.84-3.63v-4.54l-0.89-1.81l0.89-4.55l0.92-4.51l1.811-3.65l3.63-2.71v-0.92l3.63-2.73
				l3.65-0.89l4.54-1.82h2.729V471h5.44v4.54l5.43,0.9l3.63,1.81l3.65,1.84h0.91l2.71,3.62l2.739,3.62l1.801,3.63v3.65l-9.971,1.82
				l-0.93-4.55l-1.81-3.62v-0.93l-3.62-2.72l-4.54-0.9v27.24l6.35,1.81l2.71,0.9h0.91l4.55,2.73l2.73,2.73l2.729,3.62l1.79,2.73
				l0.92,4.52V533.64z M762.4,534.54l-0.91-4.55l-1.811-3.62l-2.739-2.73l-4.54-1.81l-3.62-0.9v29.05l4.54-1.811l3.62-1.84
				l1.81-1.811l1.82-3.619l0.92-3.63L762.4,534.54z M743.34,510.03v-26.32l-4.57,0.9l-3.63,2.72v0.93l-2.72,3.62l-0.9,4.55l0.9,4.52
				l1.83,3.65l2.73,2.7l4.52,1.82L743.34,510.03z"/>
			<polygon fill="#F8941E" points="542.64,574.48 581.7,614.41 542.64,653.46 528.12,638.95 542.64,624.42 338.34,624.42 
				338.34,603.54 542.64,603.54 528.12,589.01 			"/>
			<polygon fill="#787878" points="391.91,325.75 430.05,381.15 312.01,461.91 311.66,461.7 391.47,325.49 			"/>
			<path fill="#F8941E" d="M405.54,692.5v101.65h-0.92l-1.81,8.17l-4.54,7.27l-7.26,4.54l-8.17,1.82v0.89H216.67v-0.89l-8.17-1.82
				l-7.28-4.54l-4.53-7.27l-1.82-8.17h-0.91V692.5h0.91l1.82-8.17l4.53-7.28l7.28-4.54l8.17-1.81v-0.9h166.17v0.9l8.17,1.81
				l7.26,4.54l4.54,7.28l1.81,8.17H405.54z M396.45,794.15v-68.08h-193.4v68.08h0.9l1.82,6.35l4.54,4.55l6.36,1.811v0.909h166.17
				v-0.909l6.35-1.811l4.54-4.55l1.82-6.35H396.45z M396.45,710.65V692.5h-0.9l-1.82-6.36l-4.54-4.54l-6.35-1.81v-0.92H216.67v0.92
				l-6.36,1.81l-4.54,4.54l-1.82,6.36h-0.9v18.15H396.45z"/>
			<polygon fill="#F8941E" points="404.62,303.06 391.47,325.49 311.66,461.7 299.3,482.79 299.3,467.38 298.39,467.38 
				295.66,457.39 367.41,335.76 367.41,334.84 360.13,329.4 354.69,321.23 351.96,311.23 352.87,302.17 356.5,293.07 355.6,292.18 
				288.4,252.23 287.49,252.23 282.04,259.51 273.87,264.94 263.88,267.68 254.8,266.76 245.72,263.14 244.81,264.03 177.62,378.41 
				177.43,379.27 161.27,375.68 254.8,215.02 314.41,250.05 357.24,275.22 			"/>
			<rect x="304.75" y="759.66" fill="#F8941E" width="68.09" height="14.53"/>
			<polygon fill="#787878" points="331.99,237.71 357.41,274.93 357.24,275.22 314.41,250.05 314.73,249.5 			"/>
			<path fill="#F8941E" d="M300.21,347.55v3.63l-0.91,4.54l-0.91,3.62l-9.08-3.62l0.9-4.54v-4.55l-0.9-4.51l-3.63-2.74l-13.62,23.59
				l4.53,3.65l1.83,3.63h0.9l1.82,3.62l1.81,4.54l0.9,3.63l-0.9,3.63l-0.91,4.54l-1.81,3.62l-2.73,3.65l-2.72,3.63l-3.64,1.81
				l-4.53,1.81l-4.54,0.92h-4.55l-3.62-0.92l-4.54-1.81h-0.91l-2.73,4.54l-4.53-2.73l2.71-4.55l-3.62-3.62l-3.64-2.73l-0.91-2.71
				l-1.8-3.62l-1.83-4.54v-1.81l0.9-4.55l0.93-3.62l1.8-4.55l9.08,3.62L243,376.6l-0.91,4.55v2.7l1.81,4.54l1.82,2.73l1.82,1.82
				l15.43-26.32l-2.72-2.73l-2.73-3.63l-2.72-3.65l-1.81-3.62v-4.55v-0.89v-4.54l1.81-4.54l0.91-0.9l2.72-4.55l2.73-2.72l3.63-1.82
				l4.54-1.81h0.91h3.63h4.55l4.53,1.81l2.73,0.92l1.81-3.65l5.45,2.73l-2.73,3.63l3.64,3.65l2.72,2.71l1.82,3.65l0.91,0.89
				L300.21,347.55z M267.51,359.34l13.63-22.69l-4.55-1.81l-3.62,0.92h-1.83l-3.63,1.81l-2.72,3.62l-1.82,4.55v4.54l0.91,3.63
				l2.73,3.62L267.51,359.34z M273.87,381.15l-1.81-3.65l-2.73-3.63l-1.82-2.73l-14.52,25.42l3.63,0.92h4.54l1.81-0.92l3.64-1.81
				l3.63-3.63l0.9-1.8l1.83-3.65L273.87,381.15z"/>
			<polygon fill="#F8941E" points="292.04,608.97 292.04,629.85 269.33,637.1 245.72,640.75 221.21,642.57 196.69,640.75 
				173.08,637.1 150.37,629.85 149.47,629.85 149.47,608.97 150.37,608.97 173.08,616.25 196.69,619.88 221.21,621.68 
				245.72,619.88 269.33,616.25 			"/>
			<polygon fill="#F8941E" points="292.04,569.03 292.04,589.9 269.33,597.18 245.72,600.81 221.21,602.62 196.69,600.81 
				173.08,597.18 150.37,589.9 149.47,589.9 149.47,569.03 150.37,569.03 173.08,576.3 196.69,579.93 221.21,581.74 245.72,579.93 
				269.33,576.3 			"/>
			<polygon fill="#F8941E" points="292.04,529.1 292.04,549.98 269.33,557.23 245.72,560.86 221.21,562.69 196.69,560.86 
				173.08,557.23 150.37,549.98 149.47,549.98 149.47,529.1 150.37,529.1 173.08,536.35 196.69,540 221.21,541.81 245.72,540 
				269.33,536.35 			"/>
			<polygon fill="#F8941E" points="292.04,489.15 292.04,510.03 269.33,517.31 245.72,520.93 221.21,522.74 196.69,520.93 
				173.08,517.31 150.37,510.03 149.47,510.03 149.47,489.15 150.37,489.15 173.08,496.43 196.69,500.05 221.21,501.86 
				245.72,500.05 269.33,496.43 			"/>
			<polygon fill="#F8941E" points="291.13,461.02 292.04,464.64 291.13,468.27 287.49,471 282.04,473.73 274.78,476.44 
				265.71,479.17 254.8,480.98 243,481.9 230.29,482.79 218.48,482.79 205.77,481.9 193.05,480.98 182.15,480.09 172.17,477.36 
				164.01,475.54 157.65,472.81 153.1,469.19 150.37,466.46 150.37,462.83 153.1,460.1 157.65,456.48 164.01,453.75 172.17,451.93 
				182.15,449.23 193.05,448.31 205.77,447.39 218.48,446.49 230.29,446.49 243,447.39 254.8,448.31 265.71,450.12 274.78,452.85 
				282.04,455.55 287.49,458.29 			"/>
			<polygon fill="#F8941E" points="193.96,439.22 193.96,440.14 173.08,443.76 153.1,450.12 145.39,456.13 144.94,455.55 
				121.32,456.48 97.71,454.66 74.1,451.03 51.4,443.76 51.4,423.8 51.67,422.97 74.1,430.16 97.71,433.78 122.23,435.59 
				146.75,433.78 170.36,430.16 193.05,422.88 193.96,423.8 			"/>
			<polygon fill="#F8941E" points="192.15,394.75 193.05,398.38 192.15,402 188.51,404.73 183.08,407.46 175.8,410.19 166.73,412.9 
				155.83,414.71 144.02,415.63 131.31,416.52 119.52,416.52 106.8,415.63 94.09,414.71 83.18,413.82 73.2,411.09 65.03,409.28 
				58.67,406.54 54.13,402.92 51.4,400.18 51.4,396.56 54.13,393.83 58.67,390.21 65.03,387.5 73.2,385.67 83.18,382.96 
				94.09,382.04 106.8,381.15 119.52,380.22 131.31,380.22 144.02,381.15 155.83,382.04 166.73,383.85 175.8,386.58 183.08,389.32 
				188.51,392.02 			"/>
			<polygon fill="#F8941E" points="142.2,595.37 142.2,616.25 118.59,617.14 95.9,615.33 73.2,610.79 51.4,604.43 51.4,583.55 
				51.64,582.72 73.2,589.01 95.9,593.55 118.59,595.37 142.2,594.45 			"/>
			<polygon fill="#F8941E" points="142.2,555.42 142.2,576.3 118.59,577.19 95.9,575.38 73.2,570.86 51.4,564.51 51.4,543.63 
				51.65,542.77 73.2,549.06 95.9,553.61 118.59,555.42 142.2,554.5 			"/>
			<polygon fill="#F8941E" points="142.2,515.47 142.2,535.46 118.59,536.35 95.9,534.54 73.2,529.99 51.4,523.64 51.4,503.67 
				51.64,502.85 73.2,509.12 95.9,513.66 118.59,515.47 142.2,514.57 			"/>
			<polygon fill="#F8941E" points="142.2,475.54 142.2,495.51 118.59,496.43 95.9,494.61 73.2,490.07 51.4,483.71 51.4,463.72 
				51.64,462.9 73.2,469.19 95.9,473.73 118.59,475.54 142.2,474.62 			"/>
		</g>
		<g>
		</g>
	</g>
</g>
</svg>
