<?xml version="1.0" encoding="utf-8"?>
<!-- Generator: Adobe Illustrator 16.0.0, SVG Export Plug-In . SVG Version: 6.00 Build 0)  -->
<!DOCTYPE svg PUBLIC "-//W3C//DTD SVG 1.1//EN" "http://www.w3.org/Graphics/SVG/1.1/DTD/svg11.dtd">
<svg version="1.1" id="Capa_1" xmlns="http://www.w3.org/2000/svg" xmlns:xlink="http://www.w3.org/1999/xlink" x="0px" y="0px"
	 width="446.854px" height="446.854px" viewBox="0 0 446.854 446.854" enable-background="new 0 0 446.854 446.854"
	 xml:space="preserve">
<g>
	<g id="XMLID_1_">
		<g>
			<path fill="#848484" d="M374.146,89.837l0.91,6.65l-0.91,6.42l-2.52,5.96l-3.9,5.27l-5.26,3.9l-6.19,2.52l-6.409,0.69
				l-6.421-0.92l-5.949-2.52l-47.19,46.99l2.521,5.96l0.92,6.41l-0.92,6.66l-2.521,5.95l-3.89,5.27l-5.271,3.91l-5.96,2.51
				l-6.41,0.92l-6.64-0.92l-5.96-2.51l-5.27-3.91l-3.891-5.27l-2.29-6.19h-7.1l0.68-12.6h6.42l2.29-5.96l4.12-5.27l5.04-4.13
				l6.18-2.52l6.65-0.69l6.41,0.92l5.96,2.52l47.18-46.99l-2.51-5.96l-0.92-6.42l0.92-6.65l2.51-5.96l3.9-5.27l5.04-3.9l6.18-2.52
				l6.42-0.92l6.41,0.92l6.18,2.52l5.04,3.9l4.13,5.27L374.146,89.837z M362.467,96.257l-0.92-4.82l-2.75-3.89l-3.89-2.75
				l-4.811-0.92l-4.81,0.92l-3.9,2.75l-2.75,3.89l-0.91,4.82l0.91,4.81l2.75,4.13l3.9,2.52l4.81,0.92l4.811-0.92l3.89-2.52
				l2.75-4.13L362.467,96.257z M281.146,177.397l-0.92-4.81l-2.75-4.12l-3.89-2.52l-4.811-0.92l-4.81,0.92l-3.89,2.52l-2.75,4.12
				l-0.92,4.81l0.92,4.82l2.75,3.9l3.89,2.75l4.81,0.91l4.811-0.91l3.89-2.75l2.75-3.9L281.146,177.397z"/>
			<path fill="#848484" d="M220.906,170.987l-0.92,12.6h-15.58l-2.52,6.19l-3.89,5.27l-5.27,3.91l-5.96,2.51l-6.64,0.92l-6.41-0.92
				l-6.19-2.51l-24.74,24.52l-10.99-6.65l27.03-26.82l-2.75-6.18l-0.69-6.43l0.69-6.41l2.52-6.19l4.12-5.04l5.04-4.13l6.19-2.52
				l6.41-0.69l6.41,0.92l6.19,2.52l5.04,3.9l3.89,5.27l2.52,5.96H220.906z M192.726,177.397l-0.92-4.81l-2.74-4.12l-4.13-2.52
				l-4.58-0.92l-4.81,0.92l-4.12,2.52l-2.75,4.12l-0.92,4.81l0.92,4.82l2.75,3.9l4.12,2.75l4.81,0.91l4.58-0.91l4.13-2.75l2.74-3.9
				L192.726,177.397z"/>
			<path fill="#848484" d="M129.737,236.547l-8.02,7.79l2.52,5.96l0.92,6.649l-0.69,6.421l-2.52,5.96l-4.12,5.27l-5.04,4.12
				l-6.19,2.3l-6.41,0.91l-6.42-0.91l-5.95-2.53l-5.27-3.89l-3.89-5.27l-2.52-5.96l-0.92-6.65l0.92-6.42l2.52-5.96l4.12-5.271
				l5.27-3.899l5.96-2.521l6.41-0.689l6.64,0.92l5.95,2.52l6.19-6.189L129.737,236.547z M112.786,256.946l-1.15-4.819l-2.52-3.891
				l-4.12-2.76l-4.81-0.91l-4.81,0.91l-3.89,2.76l-2.75,3.891l-0.92,4.819l0.92,4.811l2.75,4.13l3.89,2.521l4.81,0.92l4.81-0.92
				l4.12-2.521l2.52-4.13L112.786,256.946z"/>
			<path fill="#F8941E" d="M404.606,373.846v12.38H49.567v-12.38h21.53v-75.64h57.04v75.64h27.94V257.407h57.04v116.439h27.71
				v-157.24h57.27v157.24h27.71v-198.05h57.271v198.05H404.606z M370.476,373.846v-185.44h-32.06v185.44H370.476z M285.497,373.846
				v-144.64h-32.07v144.64H285.497z M200.516,373.846v-103.83h-32.07v103.83H200.516z M115.757,373.846v-63.04h-32.06v63.04H115.757
				z"/>
			<path fill="#F8941E" d="M235.106,162.277l0.91,11l-0.91,11l-2.52,10.77l-4.36,10.09l-5.72,9.4l-7.1,8.48l-8.48,7.11l-9.39,5.729
				l-10.08,4.351l-10.76,2.52l-11,0.92l-10.99-0.92l-10.77-2.52l-10.08-4.351l-9.39-5.729l-8.47-7.11l-7.1-8.48l-5.73-9.4
				l-4.36-10.09l-2.52-10.77l-0.91-11l0.91-11l2.52-10.78l4.36-10.08l5.73-9.4l7.1-8.48l8.47-7.11l9.39-5.73l10.08-4.36l10.77-2.52
				l10.99-0.91l11,0.91l10.76,2.52l10.08,4.36l9.39,5.73l8.48,7.11l7.1,8.48l5.72,9.4l4.36,10.08L235.106,162.277z M223.427,173.277
				l-0.23-2.5l-0.69-7.59l-2.52-9.62l-4.35-9.17l-5.73-8.26l-7.1-7.1l-8.25-5.73l-9.16-4.36l-9.62-2.52l-10.08-0.92l-10.08,0.92
				l-9.62,2.52l-9.16,4.36l-8.25,5.73l-7.1,7.1l-5.73,8.26l-4.35,9.17l-2.51,9.62l-0.92,10.09l0.92,10.09l2.51,9.62l4.35,9.17
				l5.73,8.25l7.1,7.11l8.25,5.73l4.94,2.35l4.22,2.01l9.62,2.521l10.08,0.92l10.08-0.92l9.62-2.521l9.16-4.36l8.25-5.73l7.1-7.11
				l5.73-8.25l4.35-9.17l2.52-9.62L223.427,173.277z"/>
		</g>
		<g>
		</g>
	</g>
</g>
</svg>
