<?xml version="1.0" encoding="utf-8"?>
<!-- Generator: Adobe Illustrator 16.0.0, SVG Export Plug-In . SVG Version: 6.00 Build 0)  -->
<!DOCTYPE svg PUBLIC "-//W3C//DTD SVG 1.1//EN" "http://www.w3.org/Graphics/SVG/1.1/DTD/svg11.dtd">
<svg version="1.1" id="Capa_1" xmlns="http://www.w3.org/2000/svg" xmlns:xlink="http://www.w3.org/1999/xlink" x="0px" y="0px"
	 width="446.854px" height="446.854px" viewBox="0 0 446.854 446.854" enable-background="new 0 0 446.854 446.854"
	 xml:space="preserve">
<g>
	<g id="XMLID_1_">
		<g>
			<path fill="#F8941E" d="M181.206,252.816v8.521l-0.22,2.109l-0.46,2.12l-0.75,1.98l-0.96,1.93l-1.21,1.771l-1.4,1.62l-1.59,1.43
				l-1.77,1.21l-1.89,1l-1.99,0.77l-2.08,0.5h-34.69h-34.69l-2.08-0.5l-2.02-0.77l-1.89-1l-1.77-1.21l-1.59-1.43l-1.39-1.62
				l-1.22-1.771l-0.96-1.93l-0.74-1.98l-0.47-2.12l-0.22-2.109v-8.521l0.13-2.859l0.34-2.82l0.59-2.8l0.78-2.74l6.21-17.52
				l13.57-2.18l1.64-0.41l1.56-0.65l1.46-0.87l1.27-1.12l1.12-1.3l0.87-1.43l0.65-1.59l0.37-1.64l0.16-1.68l-0.16-1.71l-0.93-5.91
				l3.79-0.99l3.85-0.81l3.91-0.59l3.92-0.37l3.94-0.16l3.91,0.16l3.92,0.37l3.91,0.59l3.85,0.81l3.79,0.99l-0.93,5.91l-0.13,1.71
				l0.13,1.68l0.37,1.64l0.65,1.59l0.9,1.43l1.09,1.3l1.27,1.12l1.46,0.87l1.56,0.65l1.64,0.41l13.58,2.18l6.21,17.52l0.8,2.74
				l0.56,2.8l0.34,2.82L181.206,252.816z M152.047,242.467l-0.13-2.2l-0.37-2.21l-0.59-2.14l-0.87-2.09l-1.09-1.92l-1.27-1.841
				l-1.49-1.68l-1.65-1.45l-1.83-1.31l-1.96-1.09l-2.05-0.84l-2.14-0.62l-2.2-0.37l-2.21-0.13l-2.23,0.13l-2.21,0.37l-2.14,0.62
				l-2.05,0.84l-1.96,1.09l-1.8,1.31l-1.68,1.45l-1.49,1.68l-1.27,1.841l-1.09,1.92l-0.84,2.09l-0.62,2.14l-0.37,2.21l-0.12,2.2
				l0.12,2.24l0.37,2.21l0.62,2.14l0.84,2.05l1.09,1.96l1.27,1.841l1.49,1.64l1.68,1.5l1.8,1.3l1.96,1.061l2.05,0.869l2.14,0.62
				l2.21,0.37l2.23,0.12l2.21-0.12l2.2-0.37l2.14-0.62l2.05-0.869l1.96-1.061l1.83-1.3l1.65-1.5l1.49-1.64l1.27-1.841l1.09-1.96
				l0.87-2.05l0.59-2.14l0.37-2.21L152.047,242.467z"/>
			<polygon fill="#F8941E" points="82.476,218.257 81.516,218.297 80.587,218.076 79.746,217.636 79.027,216.987 78.536,216.177 
				78.257,215.246 75.826,201.226 75.706,199.956 75.797,198.677 76.107,197.406 76.636,196.226 77.317,195.136 78.186,194.206 
				79.217,193.397 83.286,190.877 87.476,188.576 91.797,186.496 96.206,184.667 100.706,183.047 105.306,181.677 109.967,180.567 
				114.647,179.686 119.406,179.036 124.186,178.667 128.967,178.547 132.197,178.547 135.427,178.547 140.206,178.667 
				144.967,179.036 149.717,179.686 154.406,180.567 159.067,181.677 163.656,183.047 168.156,184.667 172.576,186.496 
				176.886,188.576 181.076,190.877 185.147,193.397 186.177,194.206 187.047,195.136 187.726,196.226 188.257,197.406 
				188.567,198.677 188.656,199.956 188.536,201.226 186.116,215.246 185.837,216.177 185.337,216.987 184.616,217.636 
				183.786,218.076 182.846,218.297 181.917,218.257 160.737,214.877 159.806,214.596 158.996,214.067 158.317,213.377 
				157.886,212.536 157.667,211.576 157.667,210.616 159.096,201.817 159.096,200.766 158.846,199.737 158.286,198.837 
				157.507,198.116 156.547,197.656 151.797,196.226 146.976,195.107 142.076,194.266 137.136,193.737 132.197,193.527 
				127.226,193.737 122.286,194.266 117.417,195.107 112.567,196.226 107.817,197.656 106.857,198.116 106.076,198.837 
				105.547,199.737 105.277,200.766 105.277,201.817 106.697,210.616 106.737,211.576 106.487,212.536 106.047,213.377 
				105.366,214.067 104.556,214.596 103.627,214.877 			"/>
			<path fill="#848484" d="M412.976,131.487v212.55l-0.149,2.449l-0.37,2.431l-0.62,2.39l-0.91,2.3l-1.11,2.181l-1.34,2.08
				l-1.55,1.899l-1.74,1.74l-1.899,1.55l-2.051,1.34l-2.199,1.12l-2.301,0.9l-2.359,0.62l-2.42,0.37l-2.45,0.159H57.346l-2.45-0.159
				l-2.42-0.37l-2.36-0.62l-2.3-0.9l-2.2-1.12l-2.05-1.34l-1.93-1.55l-1.74-1.74l-1.52-1.899l-1.34-2.08l-1.11-2.181l-0.9-2.3
				l-0.63-2.39l-0.4-2.431l-0.12-2.449v-212.55l0.12-2.45l0.4-2.43l0.63-2.39l0.9-2.3l1.11-2.18l1.34-2.08l1.52-1.89l1.74-1.74
				l1.93-1.56l2.05-1.34l2.2-1.11l2.3-0.91l2.36-0.62l2.42-0.4l2.45-0.13h332.16l2.45,0.13l2.42,0.4l2.359,0.62l2.301,0.91
				l2.199,1.11l2.051,1.34l1.899,1.56l1.74,1.74l1.55,1.89l1.34,2.08l1.11,2.18l0.91,2.3l0.62,2.39l0.37,2.43L412.976,131.487z
				 M398.726,344.037v-137.99h-203.79l0.62-3.61l0.21-1.89l-0.03-1.93l-0.31-1.89l-0.53-1.87l-0.74-1.77l-0.99-1.65l-1.22-1.49
				l-1.36-1.37l-1.52-1.15l-4.41-2.7l-4.51-2.49l-4.66-2.23l-4.75-1.99l-4.87-1.74l-4.94-1.5l-5.03-1.21l-5.06-0.93l-5.13-0.68
				l-5.12-0.41l-5.16-0.12h-3.23h-3.23l-5.15,0.12l-5.16,0.41l-5.12,0.68l-5.07,0.93l-5.03,1.21l-4.94,1.5l-4.84,1.74l-4.78,1.99
				l-4.63,2.23l-4.53,2.49l-4.41,2.7l-1.53,1.15l-1.36,1.37l-1.21,1.49l-0.97,1.65l-0.77,1.77l-0.53,1.87l-0.28,1.89l-0.06,1.93
				l0.22,1.89l0.62,3.61h-21.31v137.99l0.13,1.43l0.34,1.43l0.53,1.33l0.77,1.25l0.93,1.08l1.12,0.97l1.21,0.75l1.34,0.561
				l1.43,0.34l1.42,0.12h332.16l1.42-0.12l1.4-0.34l1.369-0.561l1.211-0.75l1.119-0.97l0.931-1.08l0.779-1.25l0.521-1.33l0.34-1.43
				L398.726,344.037z M398.726,156.386v-24.9l-0.13-1.46l-0.34-1.4l-0.521-1.33l-0.779-1.25l-0.931-1.08l-1.119-0.97l-1.211-0.74
				l-1.369-0.56l-1.4-0.35l-1.42-0.12H57.346l-1.42,0.12l-1.43,0.35l-1.34,0.56l-1.21,0.74l-1.12,0.97l-0.93,1.08l-0.77,1.25
				l-0.53,1.33l-0.34,1.4l-0.13,1.46v24.9H398.726z"/>
		</g>
		<g>
			
				<line fill="none" stroke="#848484" stroke-width="0" stroke-linecap="square" stroke-miterlimit="10" x1="48.127" y1="156.386" x2="398.726" y2="156.386"/>
			<polyline fill="none" stroke="#F8941E" stroke-width="0" stroke-linecap="square" stroke-miterlimit="10" points="
				107.817,197.656 106.857,198.116 106.076,198.837 105.547,199.737 105.277,200.766 105.277,201.817 			"/>
			
				<line fill="none" stroke="#F8941E" stroke-width="0" stroke-linecap="square" stroke-miterlimit="10" x1="105.277" y1="201.817" x2="106.697" y2="210.616"/>
			<polyline fill="none" stroke="#F8941E" stroke-width="0" stroke-linecap="square" stroke-miterlimit="10" points="
				103.627,214.877 104.556,214.596 105.366,214.067 106.047,213.377 106.487,212.536 106.737,211.576 106.697,210.616 			"/>
			
				<line fill="none" stroke="#F8941E" stroke-width="0" stroke-linecap="square" stroke-miterlimit="10" x1="103.627" y1="214.877" x2="82.476" y2="218.257"/>
			<polyline fill="none" stroke="#F8941E" stroke-width="0" stroke-linecap="square" stroke-miterlimit="10" points="
				78.257,215.246 78.536,216.177 79.027,216.987 79.746,217.636 80.587,218.076 81.516,218.297 82.476,218.257 			"/>
			
				<line fill="none" stroke="#F8941E" stroke-width="0" stroke-linecap="square" stroke-miterlimit="10" x1="78.257" y1="215.246" x2="75.826" y2="201.226"/>
			<polyline fill="none" stroke="#F8941E" stroke-width="0" stroke-linecap="square" stroke-miterlimit="10" points="
				79.217,193.397 78.186,194.206 77.317,195.136 76.636,196.226 76.107,197.406 75.797,198.677 75.706,199.956 75.826,201.226 			
				"/>
			<polyline fill="none" stroke="#F8941E" stroke-width="0" stroke-linecap="square" stroke-miterlimit="10" points="
				128.967,178.547 124.186,178.667 119.406,179.036 114.647,179.686 109.967,180.567 105.306,181.677 100.706,183.047 
				96.206,184.667 91.797,186.496 87.476,188.576 83.286,190.877 79.217,193.397 			"/>
			<polyline fill="none" stroke="#F8941E" stroke-width="0" stroke-linecap="square" stroke-miterlimit="10" points="
				128.967,178.547 132.197,178.547 135.427,178.547 			"/>
			<polyline fill="none" stroke="#F8941E" stroke-width="0" stroke-linecap="square" stroke-miterlimit="10" points="
				185.147,193.397 181.076,190.877 176.886,188.576 172.576,186.496 168.156,184.667 163.656,183.047 159.067,181.677 
				154.406,180.567 149.717,179.686 144.967,179.036 140.206,178.667 135.427,178.547 			"/>
			<polyline fill="none" stroke="#F8941E" stroke-width="0" stroke-linecap="square" stroke-miterlimit="10" points="
				188.536,201.226 188.656,199.956 188.567,198.677 188.257,197.406 187.726,196.226 187.047,195.136 186.177,194.206 
				185.147,193.397 			"/>
			
				<line fill="none" stroke="#F8941E" stroke-width="0" stroke-linecap="square" stroke-miterlimit="10" x1="188.536" y1="201.226" x2="186.116" y2="215.246"/>
			<polyline fill="none" stroke="#F8941E" stroke-width="0" stroke-linecap="square" stroke-miterlimit="10" points="
				181.917,218.257 182.846,218.297 183.786,218.076 184.616,217.636 185.337,216.987 185.837,216.177 186.116,215.246 			"/>
			
				<line fill="none" stroke="#F8941E" stroke-width="0" stroke-linecap="square" stroke-miterlimit="10" x1="181.917" y1="218.257" x2="160.737" y2="214.877"/>
			<polyline fill="none" stroke="#F8941E" stroke-width="0" stroke-linecap="square" stroke-miterlimit="10" points="
				157.667,210.616 157.667,211.576 157.886,212.536 158.317,213.377 158.996,214.067 159.806,214.596 160.737,214.877 			"/>
			
				<line fill="none" stroke="#F8941E" stroke-width="0" stroke-linecap="square" stroke-miterlimit="10" x1="157.667" y1="210.616" x2="159.096" y2="201.817"/>
			<polyline fill="none" stroke="#F8941E" stroke-width="0" stroke-linecap="square" stroke-miterlimit="10" points="
				159.096,201.817 159.096,200.766 158.846,199.737 158.286,198.837 157.507,198.116 156.547,197.656 			"/>
			<polyline fill="none" stroke="#F8941E" stroke-width="0" stroke-linecap="square" stroke-miterlimit="10" points="
				156.547,197.656 151.797,196.226 146.976,195.107 142.076,194.266 137.136,193.737 132.197,193.527 			"/>
			<polyline fill="none" stroke="#F8941E" stroke-width="0" stroke-linecap="square" stroke-miterlimit="10" points="
				132.197,193.527 127.226,193.737 122.286,194.266 117.417,195.107 112.567,196.226 107.817,197.656 			"/>
			<polyline fill="none" stroke="#848484" stroke-width="0" stroke-linecap="square" stroke-miterlimit="10" points="
				48.127,206.047 69.436,206.047 68.817,202.436 			"/>
			<polyline fill="none" stroke="#848484" stroke-width="0" stroke-linecap="square" stroke-miterlimit="10" points="
				75.306,187.427 73.777,188.576 72.417,189.947 71.206,191.436 70.237,193.087 69.467,194.857 68.936,196.726 68.656,198.616 
				68.596,200.547 68.817,202.436 			"/>
			<polyline fill="none" stroke="#848484" stroke-width="0" stroke-linecap="square" stroke-miterlimit="10" points="
				128.967,171.427 123.817,171.547 118.656,171.956 113.536,172.636 108.467,173.567 103.436,174.777 98.496,176.277 
				93.656,178.016 88.877,180.007 84.246,182.237 79.717,184.726 75.306,187.427 			"/>
			<polyline fill="none" stroke="#848484" stroke-width="0" stroke-linecap="square" stroke-miterlimit="10" points="
				128.967,171.427 132.197,171.427 135.427,171.427 			"/>
			<polyline fill="none" stroke="#848484" stroke-width="0" stroke-linecap="square" stroke-miterlimit="10" points="
				189.067,187.427 184.656,184.726 180.147,182.237 175.487,180.007 170.737,178.016 165.866,176.277 160.927,174.777 
				155.897,173.567 150.837,172.636 145.706,171.956 140.587,171.547 135.427,171.427 			"/>
			<polyline fill="none" stroke="#848484" stroke-width="0" stroke-linecap="square" stroke-miterlimit="10" points="
				195.556,202.436 195.766,200.547 195.737,198.616 195.427,196.726 194.897,194.857 194.156,193.087 193.167,191.436 
				191.947,189.947 190.587,188.576 189.067,187.427 			"/>
			<polyline fill="none" stroke="#848484" stroke-width="0" stroke-linecap="square" stroke-miterlimit="10" points="
				195.556,202.436 194.936,206.047 398.726,206.047 			"/>
			<polyline fill="none" stroke="#F8941E" stroke-width="0" stroke-linecap="square" stroke-miterlimit="10" points="
				150.647,209.496 150.516,211.206 150.647,212.886 151.016,214.527 151.667,216.116 152.567,217.547 153.656,218.846 
				154.927,219.967 156.386,220.837 157.947,221.487 159.587,221.897 			"/>
			
				<line fill="none" stroke="#F8941E" stroke-width="0" stroke-linecap="square" stroke-miterlimit="10" x1="150.647" y1="209.496" x2="151.576" y2="203.587"/>
			<polyline fill="none" stroke="#F8941E" stroke-width="0" stroke-linecap="square" stroke-miterlimit="10" points="
				151.576,203.587 147.786,202.596 143.936,201.786 140.027,201.197 136.107,200.826 132.197,200.667 			"/>
			<polyline fill="none" stroke="#F8941E" stroke-width="0" stroke-linecap="square" stroke-miterlimit="10" points="
				132.197,200.667 128.257,200.826 124.337,201.197 120.427,201.786 116.576,202.596 112.786,203.587 			"/>
			
				<line fill="none" stroke="#F8941E" stroke-width="0" stroke-linecap="square" stroke-miterlimit="10" x1="112.786" y1="203.587" x2="113.717" y2="209.496"/>
			<polyline fill="none" stroke="#F8941E" stroke-width="0" stroke-linecap="square" stroke-miterlimit="10" points="
				104.777,221.897 106.417,221.487 107.976,220.837 109.436,219.967 110.706,218.846 111.826,217.547 112.697,216.116 
				113.346,214.527 113.717,212.886 113.877,211.206 113.717,209.496 			"/>
			<polyline fill="none" stroke="#F8941E" stroke-width="0" stroke-linecap="square" stroke-miterlimit="10" points="
				104.777,221.897 91.206,224.077 84.996,241.596 			"/>
			<polyline fill="none" stroke="#F8941E" stroke-width="0" stroke-linecap="square" stroke-miterlimit="10" points="
				84.996,241.596 84.217,244.337 83.627,247.136 83.286,249.957 83.156,252.816 			"/>
			
				<line fill="none" stroke="#F8941E" stroke-width="0" stroke-linecap="square" stroke-miterlimit="10" x1="83.156" y1="252.816" x2="83.156" y2="261.337"/>
			<polyline fill="none" stroke="#F8941E" stroke-width="0" stroke-linecap="square" stroke-miterlimit="10" points="
				83.156,261.337 83.377,263.446 83.846,265.566 84.587,267.547 85.547,269.476 86.766,271.247 88.156,272.867 89.746,274.297 
				91.516,275.507 93.406,276.507 95.427,277.276 97.507,277.776 			"/>
			<polyline fill="none" stroke="#F8941E" stroke-width="0" stroke-linecap="square" stroke-miterlimit="10" points="
				97.507,277.776 132.197,277.776 166.886,277.776 			"/>
			<polyline fill="none" stroke="#F8941E" stroke-width="0" stroke-linecap="square" stroke-miterlimit="10" points="
				166.886,277.776 168.967,277.276 170.956,276.507 172.846,275.507 174.616,274.297 176.206,272.867 177.607,271.247 
				178.817,269.476 179.777,267.547 180.527,265.566 180.987,263.446 181.206,261.337 			"/>
			
				<line fill="none" stroke="#F8941E" stroke-width="0" stroke-linecap="square" stroke-miterlimit="10" x1="181.206" y1="261.337" x2="181.206" y2="252.816"/>
			<polyline fill="none" stroke="#F8941E" stroke-width="0" stroke-linecap="square" stroke-miterlimit="10" points="
				181.206,252.816 181.076,249.957 180.737,247.136 180.177,244.337 179.377,241.596 			"/>
			<polyline fill="none" stroke="#F8941E" stroke-width="0" stroke-linecap="square" stroke-miterlimit="10" points="
				179.377,241.596 173.167,224.077 159.587,221.897 			"/>
			
				<line fill="none" stroke="#848484" stroke-width="0" stroke-linecap="square" stroke-miterlimit="10" x1="398.726" y1="206.047" x2="398.726" y2="344.037"/>
			<polyline fill="none" stroke="#848484" stroke-width="0" stroke-linecap="square" stroke-miterlimit="10" points="
				389.507,353.297 390.927,353.177 392.327,352.837 393.696,352.276 394.907,351.526 396.026,350.556 396.957,349.476 
				397.736,348.226 398.257,346.896 398.596,345.467 398.726,344.037 			"/>
			
				<line fill="none" stroke="#848484" stroke-width="0" stroke-linecap="square" stroke-miterlimit="10" x1="389.507" y1="353.297" x2="57.346" y2="353.297"/>
			<polyline fill="none" stroke="#848484" stroke-width="0" stroke-linecap="square" stroke-miterlimit="10" points="
				48.127,344.037 48.257,345.467 48.596,346.896 49.127,348.226 49.897,349.476 50.826,350.556 51.947,351.526 53.156,352.276 
				54.496,352.837 55.927,353.177 57.346,353.297 			"/>
			
				<line fill="none" stroke="#848484" stroke-width="0" stroke-linecap="square" stroke-miterlimit="10" x1="48.127" y1="344.037" x2="48.127" y2="206.047"/>
			
				<line fill="none" stroke="#848484" stroke-width="0" stroke-linecap="square" stroke-miterlimit="10" x1="57.346" y1="107.956" x2="389.507" y2="107.956"/>
			<polyline fill="none" stroke="#848484" stroke-width="0" stroke-linecap="square" stroke-miterlimit="10" points="
				412.976,131.487 412.827,129.036 412.457,126.607 411.837,124.217 410.927,121.917 409.816,119.737 408.476,117.656 
				406.927,115.766 405.186,114.027 403.287,112.467 401.236,111.127 399.037,110.016 396.736,109.107 394.377,108.487 
				391.957,108.087 389.507,107.956 			"/>
			
				<line fill="none" stroke="#848484" stroke-width="0" stroke-linecap="square" stroke-miterlimit="10" x1="412.976" y1="131.487" x2="412.976" y2="344.037"/>
			<polyline fill="none" stroke="#848484" stroke-width="0" stroke-linecap="square" stroke-miterlimit="10" points="
				389.507,367.566 391.957,367.407 394.377,367.037 396.736,366.417 399.037,365.516 401.236,364.396 403.287,363.056 
				405.186,361.507 406.927,359.766 408.476,357.867 409.816,355.787 410.927,353.606 411.837,351.306 412.457,348.917 
				412.827,346.486 412.976,344.037 			"/>
			
				<line fill="none" stroke="#848484" stroke-width="0" stroke-linecap="square" stroke-miterlimit="10" x1="389.507" y1="367.566" x2="57.346" y2="367.566"/>
			<polyline fill="none" stroke="#848484" stroke-width="0" stroke-linecap="square" stroke-miterlimit="10" points="
				33.877,344.037 33.996,346.486 34.397,348.917 35.027,351.306 35.927,353.606 37.036,355.787 38.377,357.867 39.897,359.766 
				41.636,361.507 43.567,363.056 45.616,364.396 47.817,365.516 50.116,366.417 52.476,367.037 54.897,367.407 57.346,367.566 			
				"/>
			
				<line fill="none" stroke="#848484" stroke-width="0" stroke-linecap="square" stroke-miterlimit="10" x1="33.877" y1="344.037" x2="33.877" y2="131.487"/>
			<polyline fill="none" stroke="#848484" stroke-width="0" stroke-linecap="square" stroke-miterlimit="10" points="
				57.346,107.956 54.897,108.087 52.476,108.487 50.116,109.107 47.817,110.016 45.616,111.127 43.567,112.467 41.636,114.027 
				39.897,115.766 38.377,117.656 37.036,119.737 35.927,121.917 35.027,124.217 34.397,126.607 33.996,129.036 33.877,131.487 			
				"/>
			
				<line fill="none" stroke="#848484" stroke-width="0" stroke-linecap="square" stroke-miterlimit="10" x1="48.127" y1="156.386" x2="48.127" y2="131.487"/>
			<polyline fill="none" stroke="#848484" stroke-width="0" stroke-linecap="square" stroke-miterlimit="10" points="
				57.346,122.226 55.927,122.346 54.496,122.697 53.156,123.257 51.947,123.996 50.826,124.967 49.897,126.047 49.127,127.297 
				48.596,128.627 48.257,130.027 48.127,131.487 			"/>
			
				<line fill="none" stroke="#848484" stroke-width="0" stroke-linecap="square" stroke-miterlimit="10" x1="57.346" y1="122.226" x2="389.507" y2="122.226"/>
			<polyline fill="none" stroke="#848484" stroke-width="0" stroke-linecap="square" stroke-miterlimit="10" points="
				398.726,131.487 398.596,130.027 398.257,128.627 397.736,127.297 396.957,126.047 396.026,124.967 394.907,123.996 
				393.696,123.257 392.327,122.697 390.927,122.346 389.507,122.226 			"/>
			
				<line fill="none" stroke="#848484" stroke-width="0" stroke-linecap="square" stroke-miterlimit="10" x1="398.726" y1="131.487" x2="398.726" y2="156.386"/>
			<polygon fill="none" stroke="#F8941E" stroke-width="0" stroke-linecap="square" stroke-miterlimit="10" points="
				152.047,242.467 151.917,240.266 151.547,238.056 150.956,235.917 150.087,233.827 148.996,231.907 147.726,230.066 
				146.237,228.386 144.587,226.936 142.757,225.627 140.797,224.537 138.746,223.697 136.607,223.076 134.406,222.706 
				132.197,222.576 129.967,222.706 127.757,223.076 125.616,223.697 123.567,224.537 121.607,225.627 119.806,226.936 
				118.127,228.386 116.636,230.066 115.366,231.907 114.277,233.827 113.436,235.917 112.817,238.056 112.447,240.266 
				112.326,242.467 112.447,244.707 112.817,246.917 113.436,249.056 114.277,251.106 115.366,253.066 116.636,254.907 
				118.127,256.547 119.806,258.047 121.607,259.346 123.567,260.407 125.616,261.276 127.757,261.896 129.967,262.266 
				132.197,262.386 134.406,262.266 136.607,261.896 138.746,261.276 140.797,260.407 142.757,259.346 144.587,258.047 
				146.237,256.547 147.726,254.907 148.996,253.066 150.087,251.106 150.956,249.056 151.547,246.917 151.917,244.707 			"/>
		</g>
	</g>
</g>
</svg>
