<?xml version="1.0" encoding="utf-8"?>
<!-- Generator: Adobe Illustrator 16.0.0, SVG Export Plug-In . SVG Version: 6.00 Build 0)  -->
<!DOCTYPE svg PUBLIC "-//W3C//DTD SVG 1.1//EN" "http://www.w3.org/Graphics/SVG/1.1/DTD/svg11.dtd">
<svg version="1.1" id="Capa_1" xmlns="http://www.w3.org/2000/svg" xmlns:xlink="http://www.w3.org/1999/xlink" x="0px" y="0px"
	 width="446.854px" height="446.854px" viewBox="0 0 446.854 446.854" enable-background="new 0 0 446.854 446.854"
	 xml:space="preserve">
<g>
	<g id="XMLID_1_">
		<g>
			<polygon fill="#F8941E" points="163.317,234.297 163.897,234.507 164.386,234.886 164.746,235.367 164.936,235.967 
				164.906,236.566 164.717,237.127 164.357,237.636 149.036,252.617 147.967,253.867 147.087,255.266 146.447,256.766 
				146.047,258.377 145.927,260.016 146.047,261.657 146.447,263.236 147.087,264.757 147.967,266.167 149.036,267.417 
				159.397,277.556 160.686,278.606 162.116,279.467 163.677,280.096 165.326,280.486 167.007,280.606 168.686,280.486 
				170.306,280.096 171.866,279.467 173.306,278.606 174.587,277.526 189.897,262.547 190.386,262.196 190.996,262.016 
				191.616,261.986 192.197,262.167 192.717,262.526 193.076,262.997 193.297,263.566 193.817,266.606 194.027,269.717 
				194.027,272.787 193.717,275.856 193.167,278.936 192.377,281.917 191.337,284.846 190.027,287.646 188.496,290.367 
				186.757,292.927 184.766,295.346 182.596,297.617 180.277,299.677 177.737,301.547 175.076,303.226 172.266,304.686 
				169.366,305.877 166.366,306.867 163.286,307.577 160.167,308.056 157.016,308.297 153.837,308.266 150.686,307.967 
				148.337,307.787 145.987,307.816 143.627,308.117 141.337,308.627 139.076,309.337 136.936,310.327 134.886,311.486 
				132.996,312.856 131.226,314.386 51.737,392.236 50.357,393.396 48.826,394.407 47.177,395.186 45.436,395.787 43.667,396.106 
				41.826,396.226 39.996,396.106 38.197,395.787 36.456,395.217 34.806,394.407 33.277,393.427 31.897,392.236 30.706,390.886 
				29.667,389.396 28.877,387.787 28.266,386.087 27.927,384.356 27.806,382.566 27.897,380.776 28.266,379.016 28.846,377.316 
				29.667,375.707 30.677,374.207 31.897,372.867 111.386,295.047 112.976,293.316 114.386,291.467 115.576,289.467 
				116.556,287.346 117.286,285.167 117.806,282.927 118.116,280.636 118.147,278.306 117.927,276.007 117.927,275.946 
				117.627,272.877 117.596,269.776 117.837,266.757 117.987,265.776 118.326,263.657 118.686,262.167 119.056,260.707 
				119.556,259.186 120.067,257.717 120.746,256.136 121.286,254.917 122.087,253.417 122.786,252.136 123.357,251.257 
				124.467,249.577 125.947,247.646 126.397,247.066 128.507,244.797 130.826,242.677 132.737,241.177 133.266,240.766 
				134.197,240.157 135.927,239.037 138.677,237.547 141.587,236.266 144.547,235.247 147.607,234.446 150.717,233.907 
				153.866,233.636 157.047,233.606 160.197,233.816 			"/>
			<polygon fill="#848484" points="374.917,259.927 375.047,261.266 374.917,262.606 374.516,263.896 373.877,265.056 
				372.997,266.106 371.927,266.967 370.736,267.596 369.417,267.986 368.047,268.106 242.257,268.106 240.877,267.986 
				239.566,267.596 238.377,266.967 237.306,266.106 236.446,265.056 235.776,263.896 235.377,262.606 235.257,261.266 
				235.377,259.927 235.776,258.646 236.446,257.446 237.306,256.407 238.377,255.566 239.566,254.946 240.877,254.556 
				242.257,254.407 368.047,254.407 369.417,254.556 370.736,254.946 371.927,255.566 372.997,256.407 373.877,257.446 
				374.516,258.646 			"/>
			<polygon fill="#848484" points="374.917,232.537 375.047,233.877 374.917,235.186 374.516,236.476 373.877,237.667 
				372.997,238.707 371.927,239.547 370.736,240.207 369.417,240.587 368.047,240.707 242.257,240.707 240.877,240.587 
				239.566,240.207 238.377,239.547 237.306,238.707 236.446,237.667 235.776,236.476 235.377,235.186 235.257,233.877 
				235.377,232.537 235.776,231.247 236.446,230.056 237.306,229.016 238.377,228.177 239.566,227.547 240.877,227.136 
				242.257,227.016 368.047,227.016 369.417,227.136 370.736,227.547 371.927,228.177 372.997,229.016 373.877,230.056 
				374.516,231.247 			"/>
			<polygon fill="#848484" points="374.917,205.136 375.047,206.456 374.917,207.797 374.516,209.076 373.877,210.277 
				372.997,211.317 371.927,212.156 370.736,212.806 369.417,213.197 368.047,213.317 242.257,213.317 240.877,213.197 
				239.566,212.806 238.377,212.156 237.306,211.317 236.446,210.277 235.776,209.076 235.377,207.797 235.257,206.456 
				235.377,205.136 235.776,203.857 236.446,202.667 237.306,201.616 238.377,200.786 239.566,200.127 240.877,199.737 
				242.257,199.616 368.047,199.616 369.417,199.737 370.736,200.127 371.927,200.786 372.997,201.616 373.877,202.667 
				374.516,203.857 			"/>
			<path fill="#848484" d="M419.047,105.686v204.07l-0.12,2.36l-0.37,2.35l-0.64,2.27l-0.851,2.21l-1.1,2.12l-1.32,1.971
				l-1.529,1.85l-1.71,1.67l-1.891,1.46l-2.02,1.32l-2.141,1.07l-2.26,0.829l-2.35,0.601l-2.391,0.39l-2.41,0.12H122.817l13.97-13.7
				h259.16l1.44-0.12l1.37-0.33l1.31-0.529l1.23-0.721l1.07-0.89l0.939-1.08l0.74-1.189l0.55-1.28l0.33-1.35l0.09-1.4v-132.45
				H60.047v132.45l0.09,1.4l0.34,1.35l0.55,1.28l0.73,1.189l0.95,1.08l1.07,0.89l1.22,0.721l1.31,0.529l1.38,0.33l1.44,0.12h8.25
				l-13.42,13.13l-2.29-0.649l-2.23-0.87l-2.11-1.07l-1.99-1.29l-1.83-1.489l-1.68-1.671l-1.5-1.819l-1.28-1.971l-1.07-2.09
				l-0.86-2.21l-0.61-2.229l-0.37-2.33l-0.12-2.33v-204.07l0.12-2.36l0.37-2.32l0.64-2.27l0.86-2.21l1.1-2.12l1.31-1.97l1.53-1.85
				l1.71-1.67l1.9-1.49l2.01-1.28l2.14-1.08l2.26-0.83l2.36-0.63l2.38-0.36l2.42-0.12h326.819l2.41,0.12l2.391,0.36l2.35,0.63
				l2.26,0.83l2.141,1.08l2.02,1.28l1.891,1.49l1.71,1.67l1.529,1.85l1.32,1.97l1.1,2.12l0.851,2.21l0.64,2.27l0.37,2.32
				L419.047,105.686z M405.016,129.616v-23.93l-0.09-1.37l-0.33-1.37l-0.55-1.29l-0.74-1.19l-0.939-1.04l-1.07-0.9l-1.23-0.75
				l-1.31-0.53l-1.37-0.33l-1.44-0.09H69.127l-1.44,0.09l-1.38,0.33l-1.31,0.53l-1.22,0.75l-1.07,0.9l-0.95,1.04l-0.73,1.19
				l-0.55,1.29l-0.34,1.37l-0.09,1.37v23.93H405.016z"/>
		</g>
		<g>
		</g>
	</g>
</g>
</svg>
