<?xml version="1.0" encoding="utf-8"?>
<!-- Generator: Adobe Illustrator 16.0.0, SVG Export Plug-In . SVG Version: 6.00 Build 0)  -->
<!DOCTYPE svg PUBLIC "-//W3C//DTD SVG 1.1//EN" "http://www.w3.org/Graphics/SVG/1.1/DTD/svg11.dtd">
<svg version="1.1" id="Capa_1" xmlns="http://www.w3.org/2000/svg" xmlns:xlink="http://www.w3.org/1999/xlink" x="0px" y="0px"
	 width="446.854px" height="446.854px" viewBox="0 0 446.854 446.854" enable-background="new 0 0 446.854 446.854"
	 xml:space="preserve">
<g>
	<g id="XMLID_1_">
		<g>
			<polygon fill="#F8941E" points="309.707,232.436 326.707,249.486 277.016,299.386 275.417,300.726 273.577,301.776 
				271.596,302.497 269.547,302.867 267.446,302.867 265.386,302.497 263.417,301.776 261.606,300.726 259.976,299.386 
				258.627,297.787 257.587,295.976 256.867,294.007 256.486,291.907 256.486,289.806 256.867,287.747 257.587,285.776 
				258.627,283.967 259.976,282.327 			"/>
			<polygon fill="#F8941E" points="379.757,154.436 380.257,154.987 380.467,155.697 380.386,156.417 379.967,157.047 
				366.827,170.237 365.696,171.616 364.856,173.217 364.316,174.936 364.146,176.746 364.316,178.547 364.856,180.266 
				365.696,181.866 366.827,183.257 375.726,192.156 377.157,193.337 378.707,194.177 380.467,194.677 382.276,194.886 
				384.037,194.677 385.806,194.177 387.356,193.337 388.787,192.156 401.917,178.967 401.917,179.007 402.427,178.636 
				403.007,178.467 403.636,178.547 404.186,178.846 404.606,179.306 404.816,179.846 405.316,183.297 405.486,186.777 
				405.236,190.266 404.646,193.667 403.726,197.027 402.427,200.266 400.787,203.326 398.856,206.186 396.587,208.826 
				394.117,211.266 391.346,213.366 388.407,215.217 385.257,216.726 381.986,217.857 378.627,218.697 375.186,219.116 
				371.696,219.206 368.257,218.956 365.787,218.746 363.306,218.906 360.877,219.326 358.516,220.047 356.257,221.096 
				354.157,222.397 352.226,223.957 335.186,206.857 336.736,204.927 338.037,202.826 339.047,200.556 339.757,198.206 
				340.177,195.766 340.306,193.286 340.136,190.817 340.136,190.766 339.846,187.286 339.927,183.837 340.386,180.397 
				341.186,176.996 342.367,173.757 343.837,170.607 345.677,167.667 347.776,164.897 350.207,162.417 352.856,160.147 
				355.707,158.217 358.776,156.587 362.007,155.277 365.316,154.317 368.717,153.726 372.207,153.476 375.646,153.647 
				379.087,154.147 			"/>
			<polygon fill="#F8941E" points="260.016,178.967 273.157,192.156 274.577,193.337 276.177,194.177 277.896,194.677 
				279.696,194.886 281.467,194.677 283.226,194.177 284.816,193.337 286.207,192.156 295.106,183.257 296.236,181.866 
				297.077,180.266 297.617,178.547 297.787,176.746 297.617,174.936 297.077,173.217 296.236,171.616 295.106,170.237 
				281.967,157.047 281.547,156.417 281.467,155.697 281.677,154.987 282.177,154.436 282.846,154.147 286.287,153.647 
				289.726,153.476 293.217,153.726 296.617,154.317 299.967,155.277 303.157,156.587 306.226,158.217 309.117,160.147 
				311.766,162.417 314.157,164.897 316.257,167.667 318.106,170.607 319.577,173.757 320.747,176.996 321.547,180.397 
				322.007,183.837 322.087,187.286 321.797,190.766 321.797,190.817 321.627,193.417 321.797,196.016 322.257,198.576 
				323.096,201.056 324.276,203.406 325.696,205.596 327.417,207.567 401.957,282.327 403.306,283.967 404.356,285.776 
				405.066,287.747 405.446,289.806 405.446,291.907 405.066,294.007 404.356,295.976 403.306,297.787 401.957,299.386 
				400.327,300.726 398.516,301.776 396.547,302.497 394.486,302.867 392.386,302.867 390.337,302.497 388.367,301.776 
				386.556,300.726 384.917,299.386 310.377,224.577 308.407,222.857 306.266,221.427 303.917,220.257 301.436,219.417 
				298.877,218.906 296.276,218.746 293.677,218.956 290.236,219.206 286.747,219.116 283.306,218.697 279.957,217.857 
				276.677,216.726 273.526,215.217 270.596,213.366 267.867,211.266 265.346,208.826 263.127,206.186 261.146,203.326 
				259.516,200.266 258.257,197.027 257.287,193.667 256.696,190.266 256.446,186.777 256.617,183.297 257.117,179.846 
				257.327,179.306 257.747,178.846 258.297,178.547 258.927,178.467 259.516,178.636 260.016,179.007 			"/>
			<path fill="#848484" d="M240.587,138.817v178.8l-0.17,2.6l-0.5,2.52l-0.84,2.48l-1.141,2.31l-1.42,2.181l-1.72,1.93l-1.98,1.73
				l-2.14,1.47l-2.35,1.13l-2.431,0.84l-2.56,0.5l-2.56,0.17H42.226l-2.6-0.17l-2.52-0.5l-2.47-0.84l-2.31-1.13l-2.18-1.47
				l-1.93-1.73l-1.72-1.93l-1.43-2.181l-1.18-2.31l-0.84-2.48l-0.5-2.52l-0.17-2.6v-178.8l0.17-2.61l0.5-2.56l0.84-2.43l1.18-2.36
				l1.43-2.14l1.72-1.97l1.93-1.72l2.18-1.43l2.31-1.14l2.47-0.84l2.52-0.5l2.6-0.17h178.55l2.56,0.17l2.56,0.5l2.431,0.84
				l2.35,1.14l2.14,1.43l1.98,1.72l1.72,1.97l1.42,2.14l1.141,2.36l0.84,2.43l0.5,2.56L240.587,138.817z M228.537,317.617v-178.8
				l-0.12-1.56l-0.471-1.47l-0.71-1.34l-0.97-1.18l-1.17-0.96l-1.34-0.72l-1.47-0.46l-1.51-0.12H42.226l-1.51,0.12l-1.47,0.46
				l-1.34,0.72l-1.17,0.96l-1.01,1.18l-0.71,1.34l-0.42,1.47l-0.17,1.56v178.8l0.17,1.51l0.42,1.47l0.71,1.34l1.01,1.221l1.17,0.97
				l1.34,0.71l1.47,0.42l1.51,0.17h178.55l1.51-0.17l1.47-0.42l1.34-0.71l1.17-0.97l0.97-1.221l0.71-1.34l0.471-1.47
				L228.537,317.617z"/>
			<path fill="#848484" d="M203.186,248.816l0.13,2.811l-0.17,2.819l-0.5,2.771l-0.84,2.65l-1.14,2.56l-1.47,2.43l-19.18,29.66
				l-19.18-29.66l-1.42-2.43l-1.18-2.56l-0.84-2.65l-0.5-2.771l-0.17-2.819l0.17-2.811l0.5-2.729l0.8-2.69l1.13-2.56l1.47-2.44
				l1.68-2.18l1.97-2.021l2.23-1.76l2.39-1.47l2.52-1.14l2.68-0.881l2.73-0.5v-36.37h-31.01l-14.48,22.47l-14.53-22.47h-31.01v36.37
				l2.77,0.5l2.64,0.881l2.56,1.14l2.39,1.47l2.19,1.76l1.97,2.021l1.72,2.18l1.43,2.44l1.13,2.56l0.84,2.69l0.5,2.729l0.17,2.811
				l-0.21,2.819l-0.5,2.771l-0.84,2.65l-1.13,2.56l-1.47,2.43l-19.18,29.66l-19.14-29.66l-1.47-2.43l-1.13-2.56l-0.84-2.65
				l-0.55-2.771l-0.17-2.819l0.17-2.811l0.5-2.729l0.8-2.69l1.18-2.56l1.42-2.44l1.72-2.18l1.98-2.021l2.18-1.76l2.39-1.47
				l2.56-1.14l2.65-0.881l2.77-0.5v-42.379h33.15l-0.79-1.22l-1.47-2.43l-1.14-2.57l-0.84-2.68l-0.5-2.78l-0.17-2.81l0.17-2.81
				l0.5-2.78l0.84-2.69l1.14-2.56l1.47-2.43l1.72-2.19l2.01-2.01l2.18-1.72l2.44-1.48l2.56-1.17l2.68-0.84l2.77-0.5l2.82-0.17
				l2.81,0.17l2.77,0.5l2.68,0.84l2.56,1.17l2.4,1.48l2.22,1.72l1.97,2.01l1.77,2.19l1.42,2.43l1.18,2.56l0.84,2.69l0.5,2.78
				l0.17,2.81l-0.17,2.81l-0.5,2.78l-0.84,2.68l-1.18,2.57l-1.42,2.43l-0.8,1.22h33.16v42.379l2.72,0.5l2.69,0.881l2.56,1.14
				l2.39,1.47l2.18,1.76l1.98,2.021l1.72,2.18l1.43,2.44l1.13,2.56l0.84,2.69L203.186,248.816z M192.697,251.587l-0.17-2.021
				l-0.46-1.93l-0.76-1.8l-1.05-1.72l-1.3-1.521l-1.51-1.3l-1.68-1.01l-1.84-0.801l-1.93-0.46l-1.98-0.119l-1.97,0.119l-1.93,0.46
				l-1.85,0.801l-1.68,1.01l-1.51,1.3l-1.3,1.521l-1.05,1.72l-0.75,1.8l-0.46,1.93l-0.17,2.021l0.17,1.97l0.46,1.94l0.75,1.85
				l1.05,1.68l1.3,1.511l1.51,1.3l1.68,1.05l1.85,0.75l1.93,0.47l1.97,0.17l1.98-0.17l1.93-0.47l1.84-0.75l1.68-1.05l1.51-1.3
				l1.3-1.511l1.05-1.68l0.76-1.85l0.46-1.94L192.697,251.587z M144.177,171.576l-0.17-1.97l-0.46-1.94l-0.75-1.84l-1.05-1.69
				l-1.3-1.55l-1.52-1.26l-1.67-1.05l-1.85-0.75l-1.93-0.47l-1.97-0.17l-1.98,0.17l-1.93,0.47l-1.84,0.75l-1.73,1.05l-1.51,1.26
				l-1.26,1.55l-1.04,1.69l-0.76,1.84l-0.46,1.94l-0.17,1.97l0.17,1.97l0.46,1.94l0.76,1.84l1.04,1.73l1.26,1.51l1.51,1.26
				l1.73,1.05l1.84,0.75l1.93,0.47l1.98,0.16l1.97-0.16l1.93-0.47l1.85-0.75l1.67-1.05l1.52-1.26l1.3-1.51l1.05-1.73l0.75-1.84
				l0.46-1.94L144.177,171.576z M95.616,251.587l-0.17-2.021l-0.46-1.93l-0.75-1.8l-1.01-1.72l-1.3-1.521l-1.51-1.3l-1.72-1.01
				l-1.81-0.801l-1.93-0.46l-2.01-0.119l-1.98,0.119l-1.93,0.46l-1.84,0.801l-1.68,1.01l-1.51,1.3l-1.31,1.521l-1,1.72l-0.8,1.8
				l-0.46,1.93l-0.13,2.021l0.13,1.97l0.46,1.94l0.8,1.85l1,1.68l1.31,1.511l1.51,1.3l1.68,1.05l1.84,0.75l1.93,0.47l1.98,0.17
				l2.01-0.17l1.93-0.47l1.81-0.75l1.72-1.05l1.51-1.3l1.3-1.511l1.01-1.68l0.75-1.85l0.46-1.94L95.616,251.587z"/>
		</g>
		<g>
		</g>
	</g>
</g>
</svg>
