<?xml version="1.0" encoding="utf-8"?>
<!-- Generator: Adobe Illustrator 16.0.0, SVG Export Plug-In . SVG Version: 6.00 Build 0)  -->
<!DOCTYPE svg PUBLIC "-//W3C//DTD SVG 1.1//EN" "http://www.w3.org/Graphics/SVG/1.1/DTD/svg11.dtd">
<svg version="1.1" xmlns="http://www.w3.org/2000/svg" xmlns:xlink="http://www.w3.org/1999/xlink" x="0px" y="0px"
	 width="446.854px" height="446.854px" viewBox="933.707 0 446.854 446.854" enable-background="new 933.707 0 446.854 446.854"
	 xml:space="preserve">
<g id="Capa_1">
</g>
<g id="Capa_2">
</g>
<g id="Capa_3">
</g>
<g id="Capa_4" display="none">
	<g display="inline">
		<text transform="matrix(1.0004 0 0 1 1069.2542 400.9661)" fill="#F8941E" font-family="'Raleway-SemiBold'" font-size="43.1022">SHARED</text>
	</g>
</g>
<g id="Capa_5">
	<g>
		<g id="XMLID_1_">
			<g>
				<polygon fill="#F8941E" points="1252.742,263.397 1252.835,265.708 1252.693,268.02 1252.245,270.238 1251.513,272.454 
					1250.562,274.537 1249.343,276.488 1247.888,278.258 1246.261,279.885 1244.445,281.293 1242.503,282.472 1240.362,283.423 
					1238.193,284.1 1235.929,284.508 1233.617,284.653 1231.351,284.508 1229.077,284.1 1226.859,283.423 1224.777,282.472 
					1222.779,281.293 1220.972,279.885 1219.335,278.258 1217.927,276.488 1216.708,274.537 1215.757,272.454 1215.034,270.238 
					1214.577,268.02 1214.398,265.708 1214.482,263.397 1214.892,261.132 1215.531,258.906 1216.433,256.832 1217.566,254.833 
					1218.925,252.978 1220.515,251.294 1222.322,249.848 1224.234,248.63 1226.32,247.632 1228.497,246.859 1230.761,246.405 
					1230.761,226.472 1206.195,199.739 1206.195,185.468 1185.929,185.468 1185.929,225.833 1206.015,247.717 1206.015,287.134 
					1208.279,287.64 1210.458,288.363 1212.495,289.361 1214.445,290.626 1216.214,292.073 1217.794,293.757 1219.202,295.565 
					1220.335,297.563 1221.24,299.684 1221.876,301.91 1222.238,304.175 1222.371,306.439 1222.191,308.752 1221.741,311.017 
					1221.009,313.185 1220.058,315.269 1218.841,317.22 1217.433,319.035 1215.757,320.616 1213.941,322.072 1211.99,323.251 
					1209.868,324.156 1207.689,324.83 1205.425,325.24 1203.113,325.373 1200.849,325.24 1198.575,324.83 1196.359,324.156 
					1194.275,323.251 1192.323,322.072 1190.507,320.616 1188.833,319.035 1187.433,317.22 1186.208,315.269 1185.255,313.185 
					1184.532,311.017 1184.073,308.752 1183.894,306.439 1184.027,304.175 1184.388,301.91 1185.025,299.684 1185.929,297.563 
					1187.062,295.565 1188.472,293.757 1190.06,292.073 1191.831,290.626 1193.771,289.361 1195.816,288.363 1197.984,287.64 
					1200.259,287.134 1200.259,249.99 1180.136,228.107 1180.136,185.468 1159.736,185.468 1159.736,309.741 1161.952,310.245 
					1164.132,310.967 1166.216,311.968 1168.167,313.232 1169.937,314.688 1171.515,316.363 1172.878,318.171 1174.009,320.168 
					1174.921,322.3 1175.597,324.518 1175.958,326.781 1176.056,329.045 1175.874,331.358 1175.417,333.621 1174.743,335.801 
					1173.741,337.884 1172.564,339.824 1171.107,341.642 1169.48,343.271 1167.663,344.678 1165.675,345.857 1163.591,346.76 
					1161.411,347.448 1159.146,347.846 1156.835,347.989 1154.525,347.846 1152.259,347.448 1150.079,346.76 1147.995,345.857 
					1145.999,344.678 1144.191,343.271 1142.556,341.642 1141.107,339.824 1139.929,337.884 1138.928,335.801 1138.253,333.621 
					1137.796,331.358 1137.617,329.045 1137.712,326.781 1138.073,324.518 1138.749,322.3 1139.661,320.168 1140.792,318.171 
					1142.146,316.363 1143.734,314.688 1145.503,313.232 1147.454,311.968 1149.538,310.967 1151.718,310.245 1153.935,309.741 
					1153.935,185.468 1133.534,185.468 1133.534,228.107 1113.411,249.99 1113.411,287.134 1115.676,287.64 1117.855,288.363 
					1119.9,289.361 1121.839,290.626 1123.611,292.073 1125.198,293.757 1126.609,295.565 1127.741,297.563 1128.646,299.684 
					1129.282,301.91 1129.644,304.175 1129.777,306.439 1129.597,308.752 1129.138,311.017 1128.415,313.185 1127.462,315.269 
					1126.245,317.22 1124.837,319.035 1123.202,320.616 1121.347,322.072 1119.396,323.251 1117.312,324.156 1115.095,324.83 
					1112.822,325.24 1110.558,325.373 1108.245,325.24 1105.982,324.83 1103.802,324.156 1101.681,323.251 1099.73,322.072 
					1097.913,320.616 1096.238,319.035 1094.829,317.22 1093.613,315.269 1092.652,313.185 1091.929,311.017 1091.48,308.752 
					1091.3,306.439 1091.433,304.175 1091.794,301.91 1092.433,299.684 1093.335,297.563 1094.468,295.565 1095.876,293.757 
					1097.454,292.073 1099.226,290.626 1101.175,289.361 1103.212,288.363 1105.392,287.64 1107.656,287.134 1107.656,247.717 
					1127.741,225.833 1127.741,185.468 1107.476,185.468 1107.476,199.739 1082.909,226.472 1082.909,246.405 1085.183,246.859 
					1087.351,247.632 1089.437,248.63 1091.339,249.848 1093.156,251.294 1094.745,252.978 1096.105,254.833 1097.238,256.832 
					1098.14,258.906 1098.777,261.132 1099.178,263.397 1099.273,265.708 1099.093,268.02 1098.636,270.238 1097.913,272.454 
					1096.962,274.537 1095.734,276.488 1094.335,278.258 1092.698,279.885 1090.89,281.293 1088.894,282.472 1086.812,283.423 
					1084.593,284.1 1082.32,284.508 1080.053,284.653 1077.741,284.508 1075.478,284.1 1073.298,283.423 1071.177,282.472 
					1069.226,281.293 1067.409,279.885 1065.782,278.258 1064.327,276.488 1063.109,274.537 1062.157,272.454 1061.425,270.238 
					1060.978,268.02 1060.835,265.708 1060.931,263.397 1061.292,261.132 1061.929,258.906 1062.833,256.832 1064.013,254.833 
					1065.372,252.978 1066.954,251.294 1068.722,249.848 1070.673,248.63 1072.757,247.632 1074.888,246.859 1077.152,246.405 
					1077.152,224.254 1101.72,197.474 1101.72,185.468 1092.29,185.468 1091.48,185.468 1090.616,185.335 1089.845,185.201 
					1089.025,184.926 1088.255,184.658 1087.532,184.298 1086.812,183.84 1086.134,183.384 1085.497,182.842 1084.906,182.252 
					1084.364,181.624 1083.907,180.939 1083.46,180.216 1083.089,179.492 1082.822,178.721 1082.548,177.904 1082.413,177.133 
					1082.279,176.277 1082.279,175.458 1082.279,46.833 1082.279,46.016 1082.413,45.197 1082.548,44.388 1082.822,43.57 
					1083.089,42.8 1083.46,42.076 1083.907,41.353 1084.364,40.668 1084.906,40.031 1085.497,39.449 1086.134,38.947 
					1086.812,38.452 1087.532,38.042 1088.255,37.681 1089.025,37.366 1089.845,37.139 1090.616,36.957 1091.48,36.863 
					1092.29,36.815 1221.37,36.815 1222.191,36.863 1223.054,36.957 1223.825,37.139 1224.646,37.366 1225.415,37.681 
					1226.138,38.042 1226.859,38.452 1227.536,38.947 1228.173,39.449 1228.765,40.031 1229.308,40.668 1229.763,41.353 
					1230.21,42.076 1230.581,42.8 1230.849,43.57 1231.122,44.388 1231.257,45.197 1231.39,46.016 1231.39,46.833 1231.39,175.458 
					1231.39,176.277 1231.257,177.133 1231.122,177.904 1230.849,178.721 1230.581,179.492 1230.21,180.216 1229.763,180.939 
					1229.308,181.624 1228.765,182.252 1228.173,182.842 1227.536,183.384 1226.859,183.84 1226.138,184.298 1225.415,184.658 
					1224.646,184.926 1223.825,185.201 1223.054,185.335 1222.191,185.468 1221.37,185.468 1211.95,185.468 1211.95,197.474 
					1236.519,224.254 1236.519,246.405 1238.782,246.859 1240.962,247.632 1242.998,248.63 1244.948,249.848 1246.708,251.294 
					1248.298,252.978 1249.657,254.833 1250.837,256.832 1251.741,258.906 1252.378,261.132 				"/>
			</g>
		</g>
		<g>
			<g>
				<path fill="#F8941E" d="M1094.22,377.562c-0.287-0.316-0.705-0.653-1.25-1.014c-0.547-0.358-1.186-0.696-1.918-1.013
					c-0.734-0.315-1.539-0.574-2.416-0.775s-1.775-0.302-2.695-0.302c-2.041,0-3.543,0.373-4.506,1.12
					c-0.963,0.748-1.443,1.782-1.443,3.104c0,0.748,0.15,1.357,0.453,1.832c0.301,0.474,0.768,0.891,1.4,1.25
					s1.424,0.676,2.371,0.948c0.949,0.273,2.055,0.567,3.32,0.884c1.553,0.373,2.955,0.79,4.205,1.25s2.307,1.02,3.168,1.681
					c0.863,0.661,1.531,1.473,2.006,2.436s0.711,2.133,0.711,3.513c0,1.552-0.295,2.888-0.883,4.009
					c-0.59,1.12-1.395,2.033-2.416,2.736c-1.02,0.705-2.205,1.222-3.557,1.552s-2.803,0.496-4.355,0.496
					c-2.328,0-4.578-0.352-6.748-1.057c-2.17-0.703-4.133-1.73-5.885-3.081l2.199-4.139c0.373,0.374,0.912,0.791,1.615,1.25
					c0.705,0.46,1.523,0.884,2.459,1.271c0.934,0.389,1.947,0.719,3.039,0.992s2.229,0.409,3.406,0.409
					c1.898,0,3.363-0.33,4.398-0.991s1.553-1.638,1.553-2.932c0-0.775-0.193-1.422-0.582-1.939c-0.389-0.517-0.941-0.97-1.66-1.357
					s-1.596-0.739-2.631-1.056s-2.213-0.646-3.535-0.991c-1.523-0.402-2.854-0.826-3.988-1.272
					c-1.137-0.444-2.078-0.983-2.824-1.616c-0.748-0.632-1.316-1.371-1.703-2.22c-0.389-0.847-0.582-1.875-0.582-3.081
					c0-1.494,0.287-2.823,0.861-3.987c0.576-1.164,1.359-2.141,2.35-2.931c0.992-0.79,2.164-1.387,3.516-1.789
					c1.35-0.402,2.816-0.604,4.398-0.604c2.068,0,3.98,0.331,5.734,0.991c1.752,0.661,3.291,1.48,4.613,2.457L1094.22,377.562z"/>
				<path fill="#F8941E" d="M1127.595,370.364v30.603h-4.873v-13.491h-15.438v13.491h-4.828v-30.603h4.828v12.801h15.438v-12.801
					H1127.595z"/>
				<path fill="#F8941E" d="M1143.505,370.364h4.227l12.072,30.603h-5.088l-3.234-8.319h-11.814l-3.189,8.319h-5.133
					L1143.505,370.364z M1150.534,389.07l-4.916-13.146l-5.088,13.146H1150.534z"/>
				<path fill="#F8941E" d="M1163.599,400.966v-30.603h13.324c1.379,0,2.65,0.287,3.814,0.861c1.166,0.575,2.164,1.33,2.998,2.264
					s1.486,1.997,1.961,3.189s0.713,2.407,0.713,3.642c0,1.035-0.145,2.026-0.432,2.975s-0.689,1.825-1.207,2.629
					c-0.518,0.805-1.15,1.502-1.898,2.091s-1.566,1.027-2.457,1.314l7.201,11.638h-5.477l-6.641-10.646h-7.072v10.646H1163.599z
					 M1168.427,386.052h8.453c0.689,0,1.314-0.15,1.875-0.452s1.041-0.718,1.445-1.25c0.4-0.531,0.717-1.143,0.947-1.832
					s0.346-1.422,0.346-2.198c0-0.775-0.137-1.508-0.41-2.198c-0.273-0.689-0.633-1.293-1.078-1.81
					c-0.445-0.518-0.963-0.927-1.553-1.229c-0.588-0.302-1.199-0.453-1.832-0.453h-8.193V386.052z"/>
				<path fill="#F8941E" d="M1213.099,396.698v4.268h-20.998v-30.603h20.611v4.267h-15.783v8.707h13.67v4.009h-13.67v9.353H1213.099
					z"/>
				<path fill="#F8941E" d="M1218.101,400.966v-30.603h10.865c2.473,0,4.637,0.402,6.49,1.207c1.855,0.805,3.408,1.896,4.658,3.275
					s2.191,2.995,2.824,4.849c0.631,1.854,0.949,3.83,0.949,5.927c0,2.327-0.354,4.433-1.057,6.314
					c-0.705,1.883-1.703,3.491-2.998,4.827c-1.293,1.337-2.859,2.371-4.699,3.104c-1.842,0.733-3.896,1.1-6.168,1.1H1218.101z
					 M1238.972,385.621c0-1.608-0.223-3.089-0.668-4.439c-0.447-1.351-1.1-2.507-1.963-3.47c-0.863-0.962-1.912-1.717-3.148-2.263
					s-2.645-0.819-4.227-0.819h-6.035v22.068h6.035c1.611,0,3.041-0.28,4.291-0.84c1.25-0.561,2.301-1.337,3.148-2.328
					s1.488-2.162,1.92-3.513C1238.755,388.667,1238.972,387.202,1238.972,385.621z"/>
			</g>
		</g>
	</g>
</g>
</svg>
