<?xml version="1.0" encoding="utf-8"?>
<!-- Generator: Adobe Illustrator 16.0.0, SVG Export Plug-In . SVG Version: 6.00 Build 0)  -->
<!DOCTYPE svg PUBLIC "-//W3C//DTD SVG 1.1//EN" "http://www.w3.org/Graphics/SVG/1.1/DTD/svg11.dtd">
<svg version="1.1" id="Capa_1" xmlns="http://www.w3.org/2000/svg" xmlns:xlink="http://www.w3.org/1999/xlink" x="0px" y="0px"
	 width="1080px" height="1080px" viewBox="0 0 1080 1080" enable-background="new 0 0 1080 1080" xml:space="preserve">
<g id="Capa_2" display="none">
	<polygon display="inline" fill="#F8941E" points="567.119,752.301 566.86,757.18 565.579,761.801 563.78,766.171 561.46,770.28 
		558.38,773.87 554.78,776.961 550.67,779.52 546.31,781.32 541.68,782.35 536.8,782.61 532.17,782.35 527.55,781.32 523.18,779.52 
		519.07,776.961 515.47,773.87 512.39,770.28 509.82,766.171 508.02,761.801 506.99,757.18 506.48,752.301 506.99,747.671 
		508.02,743.051 509.82,738.68 512.39,734.57 515.47,730.98 519.07,727.89 523.18,725.33 527.55,723.53 532.17,722.5 536.8,721.98 
		541.68,722.5 546.31,723.53 550.67,725.33 554.78,727.89 558.38,730.98 561.46,734.57 563.78,738.68 565.579,743.051 
		566.86,747.671 	"/>
	<path display="inline" fill="#F8941E" d="M886.75,520.591l-1.021-16.689l-2.062-16.7l-2.569-16.439l-3.34-16.181l-4.108-16.18
		l-4.62-15.931l-5.65-15.92l-6.17-15.421l-6.939-15.159l-7.448-14.9l-8.229-14.38l-8.979-14.12l-9.262-13.62l-10.278-13.36
		l-10.53-12.84l-11.3-12.33L772.422,268.6l-12.341-11.04l-12.59-10.8l-13.359-10.011l-13.62-9.51l-14.13-8.979l-14.641-8.221
		l-14.649-7.46l-15.16-6.93l-15.67-6.17l-15.681-5.65l-15.93-4.62L598.47,175.1l-16.188-3.34l-16.45-2.57l-16.699-2.061
		l-16.439-1.02l-16.7-0.26l-16.7,0.26l-16.71,1.02l-16.439,2.061l-16.439,2.57l-16.45,3.34l-16.188,4.109l-15.932,4.62l-15.67,5.65
		l-15.42,6.17l-15.16,6.93l-14.898,7.46l-14.391,8.221l-14.131,8.979l-13.619,9.51l-13.36,10.011l-12.85,10.8L259.3,268.6
		l-11.56,11.82l-11.31,12.33l-10.79,12.84l-10.02,13.36l-9.511,13.62l-8.729,14.12l-8.22,14.38l-7.71,14.9l-6.94,15.159l-6.17,15.42
		l-5.39,15.921l-4.881,15.931l-4.119,16.18l-3.341,16.181l-2.56,16.439l-1.8,16.7l-1.03,16.689l-0.52,16.699l0.52,16.439
		l1.03,16.699l1.8,16.689l2.56,16.438l3.341,16.189l4.119,16.189l4.881,15.921l5.39,15.93l6.17,15.41l6.94,15.148l7.71,14.899
		l8.22,14.391l8.729,14.13l9.511,13.87l10.02,13.102l10.79,12.84l11.31,12.33l11.561,11.819l12.33,11.301l12.85,10.528l13.36,10.021
		l13.619,9.511l14.131,8.989l14.391,8.21l14.899,7.45l15.159,6.938l15.42,6.16l15.671,5.659l15.93,4.881l16.19,3.851l16.449,3.341
		l16.439,2.818l16.439,1.801l16.71,1.029l16.7,0.511l16.7-0.511l16.439-1.029l16.699-1.801l16.45-2.818l16.188-3.341l16.182-3.851
		l15.93-4.881l15.681-5.659l15.67-6.16l15.16-6.938l14.649-7.45l14.641-8.21l14.13-8.989l13.62-9.511l13.359-10.021l12.59-10.528
		l12.341-11.301l11.819-11.819l11.3-12.33l10.53-12.84l10.278-13.102l9.261-13.87l8.979-14.13l8.229-14.391l7.448-14.899
		l6.939-15.148l6.17-15.41l5.649-15.93l4.62-15.921l4.109-16.189l3.34-16.189l2.569-16.438l2.062-16.689l1.021-16.699l0.26-16.439
		L886.75,520.591z M842.3,553.22l-1.021,15.932l-2.062,15.92L836.65,601l-3.602,15.66l-4.37,15.42l-4.87,15.41L817.9,662.39
		l-6.432,14.642l-7.188,14.391l-7.972,13.869l-8.479,13.62l-9.25,13.101l-10.01,12.58l-10.54,12.33l-11.05,11.562l-11.561,11.038
		l-12.08,10.539l-12.591,9.762l-13.109,9.238l-13.608,8.74l-14.142,7.96l-14.12,7.189l-14.648,6.431l-15.159,5.909l-15.16,4.881
		l-15.42,4.369l-15.67,3.591l-15.931,2.569l-15.932,2.05l-15.938,1.03l-15.92,0.511l-16.189-0.511l-15.93-1.03l-15.931-2.05
		l-15.671-2.569l-15.68-3.591l-15.67-4.369l-15.16-4.881l-14.899-5.909l-14.649-6.431l-14.391-7.189l-13.88-7.96l-13.61-8.74
		l-13.109-9.238l-12.59-9.762l-12.33-10.539l-11.56-11.039l-11.051-11.562l-10.529-12.33l-9.771-12.58l-9.25-13.101l-8.479-13.619
		l-7.96-13.87l-7.2-14.391l-6.68-14.642l-5.65-14.898l-5.14-15.41l-4.11-15.42l-3.6-15.659l-2.82-15.931l-1.8-15.92l-1.29-15.932
		l-0.25-15.93l0.25-16.181l1.29-15.931l1.8-15.92l2.82-15.93l3.6-15.671l4.11-15.409l5.14-15.149l5.65-15.16l6.68-14.641l7.2-14.391
		l7.96-13.87l8.479-13.62l9.25-13.1l9.771-12.58l10.529-12.33l11.051-11.56l11.56-11.05l12.33-10.53l12.59-9.76l13.109-9.25
		l13.61-8.73l13.88-7.71l14.391-7.45l14.649-6.42l14.899-5.649l15.16-5.141l15.67-4.359l15.68-3.341l15.671-2.829l15.931-2.061
		l15.93-1.02l16.189-0.511l15.92,0.511l15.938,1.02l15.932,2.061l15.931,2.829l15.67,3.341l15.42,4.359l15.16,5.141l15.159,5.649
		l14.648,6.42l14.12,7.45l14.142,7.71l13.608,8.73l13.11,9.25l12.59,9.76l12.08,10.53l11.561,11.05l11.051,11.56l10.54,12.33
		l10.01,12.58l9.25,13.1l8.479,13.62l7.972,13.87l7.188,14.391l6.432,14.641l5.908,15.16l4.87,15.149l4.37,15.409l3.602,15.671
		l2.568,15.93l2.062,15.92l1.021,15.931l0.521,16.181L842.3,553.22z"/>
	<polygon display="inline" fill="#F8941E" points="567.119,752.301 566.86,757.18 565.579,761.801 563.78,766.171 561.46,770.28 
		558.38,773.87 554.78,776.961 550.67,779.52 546.31,781.32 541.68,782.35 536.8,782.61 532.17,782.35 527.55,781.32 523.18,779.52 
		519.07,776.961 515.47,773.87 512.39,770.28 509.82,766.171 508.02,761.801 506.99,757.18 506.48,752.301 506.99,747.671 
		508.02,743.051 509.82,738.68 512.39,734.57 515.47,730.98 519.07,727.89 523.18,725.33 527.55,723.53 532.17,722.5 536.8,721.98 
		541.68,722.5 546.31,723.53 550.67,725.33 554.78,727.89 558.38,730.98 561.46,734.57 563.78,738.68 565.579,743.051 
		566.86,747.671 	"/>
	<polygon display="inline" fill="#F8941E" points="567.119,752.301 566.86,757.18 565.579,761.801 563.78,766.171 561.46,770.28 
		558.38,773.87 554.78,776.961 550.67,779.52 546.31,781.32 541.68,782.35 536.8,782.61 532.17,782.35 527.55,781.32 523.18,779.52 
		519.07,776.961 515.47,773.87 512.39,770.28 509.82,766.171 508.02,761.801 506.99,757.18 506.48,752.301 506.99,747.671 
		508.02,743.051 509.82,738.68 512.39,734.57 515.47,730.98 519.07,727.89 523.18,725.33 527.55,723.53 532.17,722.5 536.8,721.98 
		541.68,722.5 546.31,723.53 550.67,725.33 554.78,727.89 558.38,730.98 561.46,734.57 563.78,738.68 565.579,743.051 
		566.86,747.671 	"/>
	<polygon display="inline" fill="#F8941E" points="766.25,569.15 765.22,559.64 763.68,550.4 761.11,541.14 757.77,532.16 
		753.92,523.68 749.289,515.461 744.15,507.49 738.24,500.04 731.56,493.11 724.619,486.94 716.909,481.04 708.949,476.15 
		700.73,471.53 691.99,467.94 682.99,464.85 673.75,462.801 663.22,461.25 652.68,460.75 642.15,460.75 631.61,461.25 
		621.329,462.801 610.8,464.85 600.78,467.43 590.76,470.76 580.99,474.881 550.409,490.03 520.1,505.69 490.039,522.14 
		460.49,539.091 430.94,556.56 424.51,560.16 417.579,562.98 412.709,564.43 410.64,565.04 403.44,566.58 395.99,567.35 
		388.539,567.091 381.09,566.32 373.9,564.78 366.959,562.47 360.28,559.381 353.85,555.53 347.69,551.171 342.289,546.28 
		337.409,540.89 333.039,534.72 329.19,528.56 326.1,521.62 323.789,514.69 321.99,507.49 321.84,506.02 321.22,500.04 
		320.97,492.591 321.74,485.4 323.02,477.95 325.34,471.02 330.22,459.97 335.869,449.19 342.039,438.65 348.97,428.64 
		356.43,419.13 364.39,410.14 372.869,401.4 381.86,393.19 391.11,385.48 401.13,378.55 411.15,371.87 421.94,365.96 432.23,361.07 
		443.01,356.71 454.06,353.12 465.369,350.29 476.67,347.97 488.24,346.43 499.8,345.67 511.36,345.67 522.92,346.17 
		527.039,346.17 531.15,345.41 535.26,343.87 538.86,341.56 541.94,338.73 544.51,335.65 546.56,331.79 548.11,327.94 
		548.61,323.83 548.61,319.72 547.85,315.61 546.56,311.5 544.51,307.9 541.68,304.56 538.6,301.99 535,299.69 531.15,298.39 
		527.039,297.37 512.39,296.34 497.74,295.83 483.1,296.34 468.449,297.37 457.15,299.17 446.1,301.48 435.05,304.56 424.26,308.42 
		413.98,313.04 403.699,318.44 394.199,324.34 381.86,331.54 370.039,339.24 358.74,347.72 347.69,356.71 337.409,366.22 
		327.65,376.49 318.14,387.02 309.659,398.32 301.44,409.88 293.99,421.95 287.31,434.291 281.4,447.131 276,460.23 271.38,473.591 
		269.84,482.841 269.06,492.08 268.81,501.33 269.58,510.58 270.86,519.57 272.92,528.56 275.49,537.551 279.08,546.03 
		282.94,554.51 287.82,562.47 292.96,569.921 298.869,577.11 305.289,583.79 312.23,589.95 319.68,595.61 327.39,600.49 
		335.61,604.85 344.09,608.7 352.829,611.79 361.56,614.1 370.81,615.9 380.06,616.921 389.31,617.19 398.56,616.66 407.56,615.39 
		416.8,613.591 425.539,611.01 434.28,607.671 442.5,603.56 450.72,599.2 458.43,593.81 486.949,577.11 516.25,560.921 
		545.789,545.26 575.6,530.62 605.909,516.48 644.46,506.211 651.65,506.73 658.59,507.75 665.52,509.81 672.21,512.12 
		678.89,515.461 684.789,519.31 690.71,523.421 695.84,528.56 700.47,533.961 704.84,539.61 708.44,545.77 711.26,552.45 
		713.84,559.131 715.369,566.32 716.4,573.26 716.659,581.99 716.4,590.461 715.11,598.95 713.32,607.421 710.75,615.64 
		707.659,623.6 703.81,631.31 699.19,638.5 733.869,678.58 740.039,669.841 745.699,660.85 750.579,651.35 754.68,641.591 
		758.539,631.82 761.369,621.551 763.68,611.27 765.48,600.74 766.25,590.211 766.77,579.671 	"/>
	<polygon display="inline" fill="#F8941E" points="468.449,297.37 394.199,324.34 403.699,318.44 413.98,313.04 424.26,308.42 
		435.05,304.56 446.1,301.48 457.15,299.17 	"/>
	<polygon display="inline" fill="#F8941E" points="527.039,297.37 468.449,297.37 483.1,296.34 497.74,295.83 512.39,296.34 	"/>
	<polygon display="inline" fill="#F8941E" points="548.61,319.72 548.61,323.83 548.11,327.94 546.56,331.79 544.51,335.65 
		541.94,338.73 538.86,341.56 535.26,343.87 531.15,345.41 527.039,346.17 522.92,346.17 527.039,297.37 531.15,298.39 535,299.69 
		538.6,301.99 541.68,304.56 544.51,307.9 546.56,311.5 547.85,315.61 	"/>
</g>
<g>
	<g id="XMLID_1_">
		<g>
			<polygon fill="#F8941E" points="828.93,371.06 828.93,413.24 824.49,412.14 817.84,408.8 813.37,405.46 810.06,399.93 
				808.93,392.15 808.93,391.06 810.06,384.37 814.5,378.81 815.62,376.59 821.15,373.25 			"/>
			<polygon fill="#F8941E" points="857.83,453.26 857.83,456.57 855.61,464.35 852.27,469.91 850.05,472.13 844.49,475.48 
				837.83,477.69 837.83,431.05 843.39,433.24 850.05,436.58 854.52,439.92 856.74,445.48 			"/>
			<polygon fill="#F8941E" points="956.94,573.82 927.85,582.15 896.73,589.93 864.52,594.36 832.27,595.46 800.06,594.36 
				767.82,589.93 736.7,582.15 707.61,573.82 763.38,558.81 764.16,556.91 782.25,564.34 802.28,569.93 822.27,573.24 
				842.27,573.24 862.3,569.93 882.29,564.34 900.41,556.91 901.19,558.81 			"/>
			<polygon fill="#F8941E" points="958.97,606.58 958.97,644.35 927.85,653.26 896.73,661.04 864.52,665.47 832.27,666.57 
				800.06,665.47 767.82,661.04 736.7,653.26 705.58,644.35 705.58,606.58 736.7,615.45 767.82,623.23 800.06,627.67 832.27,628.79 
				864.52,627.67 896.73,623.23 927.85,615.45 			"/>
			<polygon fill="#F8941E" points="958.97,677.69 958.97,715.46 927.85,724.37 896.73,732.12 864.52,736.59 832.27,737.68 
				800.06,736.59 767.82,732.12 736.7,724.37 705.58,715.46 705.58,677.69 736.7,686.56 767.82,694.34 800.06,698.78 832.27,699.9 
				864.52,698.78 896.73,694.34 927.85,686.56 			"/>
			<polygon fill="#F8941E" points="958.97,749.9 958.97,786.54 927.85,795.45 896.73,803.23 864.52,807.67 832.27,808.79 
				800.06,807.67 767.82,803.23 736.7,795.45 705.58,786.54 705.58,749.9 705.87,748.88 736.7,757.67 767.82,765.46 800.06,769.89 
				832.27,771.02 864.52,769.89 896.73,765.46 927.85,757.67 958.68,748.88 			"/>
			<polygon fill="#F8941E" points="958.97,821.01 958.97,857.66 927.85,866.56 896.73,874.34 864.52,878.78 832.27,879.9 
				800.06,878.78 767.82,874.34 736.7,866.56 705.58,857.66 705.58,821.01 705.87,819.99 736.7,828.79 767.82,836.57 800.06,841 
				832.27,842.1 864.52,841 896.73,836.57 927.85,828.79 958.68,819.99 			"/>
			<polygon fill="#F8941E" points="958.97,892.12 958.97,928.77 927.85,937.67 896.73,945.45 864.52,949.89 832.27,951.02 
				800.06,949.89 767.82,945.45 736.7,937.67 705.58,928.77 705.58,892.12 736.7,900.99 767.82,908.77 800.06,913.21 832.27,914.33 
				864.52,913.21 896.73,908.77 927.85,900.99 			"/>
			<polygon fill="#F8941E" points="620,892.12 620,928.77 588.88,937.67 557.76,945.45 525.52,949.89 493.31,951.02 461.06,949.89 
				428.85,945.45 397.73,937.67 366.61,928.77 366.61,892.12 397.73,900.99 428.85,908.77 461.06,913.21 493.31,914.33 
				525.52,913.21 557.76,908.77 588.88,900.99 			"/>
			<polygon fill="#F8941E" points="620,821.01 620,857.66 588.88,866.56 557.76,874.34 525.52,878.78 493.31,879.9 461.06,878.78 
				428.85,874.34 397.73,866.56 366.61,857.66 366.61,821.01 366.9,819.99 397.73,828.79 428.85,836.57 461.06,841 493.31,842.1 
				525.52,841 557.76,836.57 588.88,828.79 619.71,819.99 			"/>
			<polygon fill="#F8941E" points="620,749.9 620,786.54 588.88,795.45 557.76,803.23 525.52,807.67 493.31,808.79 461.06,807.67 
				428.85,803.23 397.73,795.45 366.61,786.54 366.61,749.9 366.9,748.88 397.73,757.67 428.85,765.46 461.06,769.89 493.31,771.02 
				525.52,769.89 557.76,765.46 588.88,757.67 619.71,748.88 			"/>
			<polygon fill="#F8941E" points="620,677.69 620,715.46 588.88,724.37 557.76,732.12 525.52,736.59 493.31,737.68 461.06,736.59 
				428.85,732.12 397.73,724.37 366.61,715.46 366.61,677.69 397.73,686.56 428.85,694.34 461.06,698.78 493.31,699.9 
				525.52,698.78 557.76,694.34 588.88,686.56 			"/>
			<polygon fill="#F8941E" points="617.97,644.93 588.88,653.26 557.76,661.04 525.52,665.47 493.31,666.57 461.06,665.47 
				428.85,661.04 397.73,653.26 368.64,644.93 424.38,629.92 425.17,628 443.28,635.45 463.28,641.04 483.31,644.35 503.3,644.35 
				523.3,641.04 543.33,635.45 561.41,628 562.2,629.92 			"/>
			<polygon fill="#F8941E" points="299.9,825.45 299.9,856.56 273.25,856.56 273.25,884.34 242.13,884.34 242.13,856.56 
				214.33,856.56 214.33,825.45 242.13,825.45 242.13,797.67 273.25,797.67 273.25,825.45 			"/>
			<polygon fill="#F8941E" points="341.05,603.24 172.12,771.02 146.56,744.37 314.37,576.58 			"/>
			<polygon fill="#F8941E" points="244.35,533.25 244.35,564.34 216.57,564.34 216.57,592.11 185.46,592.11 185.46,564.34 
				157.65,564.34 157.65,533.25 185.46,533.25 185.46,505.47 216.57,505.47 216.57,533.25 			"/>
			<path fill="#F8941E" d="M850.05,378.81l3.34,5.56l1.13,7.78l16.65-3.35l-1.09-4.43l-3.34-7.78l-3.351-5.53l-4.43-4.47l-1.13-1.12
				l-5.561-3.32l-6.659-2.21l-7.78-1.13v-7.78h-8.9v7.78h-4.439l-7.78,2.22l-6.65,2.25l-4.47,3.31l-1.09,1.13l-4.44,5.53l-3.34,5.56
				l-2.22,6.65l-1.13,7.78v3.34l2.22,6.69l2.22,6.66l1.131,1.12l4.43,5.53l5.56,4.44l5.57,3.34l7.77,2.22l6.66,2.22v48.89
				l-4.439-1.12l-6.65-3.31l-4.47-4.47l-2.22-3.31l-3.311-6.66l-1.13-8.9l-15.55,3.34l1.12,7.75l2.22,6.69l3.31,5.56l1.131,3.31
				l5.56,4.47l5.56,4.44l3.311,1.12l6.689,2.19l8.87,2.25v6.65h8.9v-7.78h1.13l6.65-1.12l6.659-2.19l6.69-3.34l4.43-4.44h1.13
				l4.431-5.56l2.22-6.66l2.22-6.68v-7.78v-6.66l-2.22-6.65l-2.22-5.59l-4.431-5.54l-5.56-3.34l-6.69-4.44l-5.529-2.21l-8.91-2.22
				v-44.43l5.56,2.19l5.57,4.43L850.05,378.81z M956.75,403.27l1.12,18.87l-1.12,18.87l-4.44,17.81l-6.689,17.75l-9.99,16.68
				l-11.1,14.44l-14.46,12.22l-14.44,11.12l-17.77,7.78l-17.811,5.53l-18.87,3.34H823.4l-18.9-3.34l-17.78-5.53l-16.68-7.78
				l-15.57-11.12l-14.43-12.22l-11.12-14.44l-10-16.68l-6.689-17.75l-4.44-17.81l-1.09-18.87l1.09-18.87l4.44-17.81l6.689-17.74
				l10-16.69l11.12-14.43l14.43-12.22l15.57-11.12l16.68-7.78l17.78-5.53l18.9-3.35h17.779l18.87,3.35l17.811,5.53l17.77,7.78
				l14.44,11.12l14.46,12.22l11.1,14.43l9.99,16.69l6.689,17.74L956.75,403.27z"/>
			<polygon fill="#F8941E" points="774.47,144.38 774.47,245.49 736.7,245.49 736.7,207.71 646.68,297.7 620,271.05 710.01,181.06 
				672.24,181.06 672.24,143.26 			"/>
			<polygon fill="#F8941E" points="491.09,341.03 489.96,342.16 464.4,344.38 439.94,352.16 417.96,362.63 417.73,362.15 
				416.6,352.16 418.85,342.16 423.29,333.25 429.94,326.6 438.85,321.04 448.84,318.82 458.84,318.82 467.75,322.13 475.53,327.72 
				476.62,327.72 			"/>
			<polygon fill="#F8941E" points="617.78,473.26 618.87,492.13 617.78,511.03 613.34,528.81 606.66,546.59 597.78,562.15 
				586.66,577.71 573.32,589.93 557.76,601.02 541.08,608.8 523.3,615.45 505.52,617.7 486.62,618.79 467.75,616.58 449.97,611.01 
				433.29,603.24 417.73,593.24 403.29,581.02 391.04,566.59 382.17,551.03 374.39,533.25 369.92,515.47 367.7,496.57 
				397.73,526.59 398.82,526.59 409.95,534.37 423.29,539.9 436.63,542.15 449.97,541.03 463.28,537.69 475.53,531.03 
				485.52,522.16 493.31,511.03 498.87,498.82 501.08,484.35 499.96,471.04 496.65,457.7 489.96,446.61 481.09,435.48 
				481.09,434.36 431.07,384.37 447.72,376.59 465.53,371.06 483.31,367.72 502.18,367.72 521.08,371.06 538.86,376.59 
				555.54,384.37 571.1,394.37 584.44,407.71 596.66,422.14 605.56,437.7 613.34,455.48 			"/>
			<polygon fill="#F8941E" points="494.94,308.29 494.4,308.82 483.31,301.04 471.06,295.48 458.84,292.17 445.5,292.17 
				432.16,295.48 421.07,301.04 409.95,308.82 401.04,318.82 394.39,329.91 391.04,342.16 389.95,355.5 392.17,368.81 
				395.51,381.03 403.29,392.15 463.28,453.26 463.28,454.36 469.97,462.14 474.4,471.04 475.53,481.04 474.4,491.04 469.97,499.91 
				463.28,507.69 454.41,513.25 444.41,516.56 434.41,516.56 425.51,513.25 416.6,507.69 415.51,507.69 346.58,438.83 
				271.03,438.83 271.03,241.05 376.15,183.53 376.61,184.37 392.17,177.72 408.82,173.28 425.51,172.16 442.19,174.38 
				458.84,178.81 473.31,186.59 487.74,196.62 498.87,208.84 499.42,208.39 615.56,351.03 614.44,352.16 617.78,362.15 
				616.66,373.25 612.22,382.15 604.44,388.8 603.31,389.93 587.76,375.49 569.98,363.28 551.11,353.25 530.66,346.8 531.08,345.47 
							"/>
			<rect x="185.46" y="241.05" fill="#F8941E" width="58.89" height="197.78"/>
		</g>
		<g>
		</g>
	</g>
</g>
</svg>
