<?xml version="1.0" encoding="utf-8"?>
<!-- Generator: Adobe Illustrator 16.0.0, SVG Export Plug-In . SVG Version: 6.00 Build 0)  -->
<!DOCTYPE svg PUBLIC "-//W3C//DTD SVG 1.1//EN" "http://www.w3.org/Graphics/SVG/1.1/DTD/svg11.dtd">
<svg version="1.1" id="Capa_1" xmlns="http://www.w3.org/2000/svg" xmlns:xlink="http://www.w3.org/1999/xlink" x="0px" y="0px"
	 width="1080px" height="1080px" viewBox="0 0 1080 1080" enable-background="new 0 0 1080 1080" xml:space="preserve">
<g id="Capa_2" display="none">
	<polygon display="inline" fill="#F8941E" points="567.119,752.301 566.86,757.18 565.579,761.801 563.78,766.171 561.46,770.28 
		558.38,773.87 554.78,776.961 550.67,779.52 546.31,781.32 541.68,782.35 536.8,782.61 532.17,782.35 527.55,781.32 523.18,779.52 
		519.07,776.961 515.47,773.87 512.39,770.28 509.82,766.171 508.02,761.801 506.99,757.18 506.48,752.301 506.99,747.671 
		508.02,743.051 509.82,738.68 512.39,734.57 515.47,730.98 519.07,727.89 523.18,725.33 527.55,723.53 532.17,722.5 536.8,721.98 
		541.68,722.5 546.31,723.53 550.67,725.33 554.78,727.89 558.38,730.98 561.46,734.57 563.78,738.68 565.579,743.051 
		566.86,747.671 	"/>
	<path display="inline" fill="#F8941E" d="M886.75,520.591l-1.021-16.69l-2.062-16.7l-2.569-16.439l-3.34-16.181l-4.109-16.18
		l-4.62-15.93l-5.65-15.92l-6.17-15.421l-6.939-15.159l-7.449-14.9l-8.229-14.38l-8.979-14.12l-9.261-13.62l-10.279-13.36
		l-10.53-12.84l-11.3-12.33L772.422,268.6l-12.341-11.04l-12.59-10.8l-13.359-10.011l-13.62-9.51l-14.13-8.979l-14.641-8.221
		l-14.649-7.46l-15.16-6.93l-15.67-6.17l-15.681-5.65l-15.93-4.62l-16.181-4.109l-16.189-3.34l-16.45-2.57l-16.699-2.061
		l-16.44-1.02l-16.7-0.26l-16.7,0.26l-16.71,1.02l-16.439,2.061l-16.44,2.57l-16.45,3.34l-16.189,4.109l-15.931,4.62l-15.67,5.65
		l-15.42,6.17l-15.16,6.93l-14.899,7.46l-14.39,8.221l-14.131,8.979l-13.619,9.51l-13.36,10.011l-12.85,10.8L259.3,268.6
		L247.74,280.42l-11.31,12.33l-10.79,12.84l-10.02,13.36l-9.511,13.62l-8.729,14.12l-8.22,14.38l-7.71,14.9l-6.94,15.159
		l-6.17,15.42l-5.39,15.921l-4.881,15.93l-4.119,16.18l-3.341,16.181l-2.56,16.439l-1.8,16.7l-1.03,16.69l-0.52,16.699l0.52,16.44
		l1.03,16.699l1.8,16.689l2.56,16.439l3.341,16.189l4.119,16.19l4.881,15.92l5.39,15.93l6.17,15.41l6.94,15.149l7.71,14.899
		l8.22,14.391l8.729,14.13l9.511,13.87l10.02,13.101l10.79,12.84l11.31,12.33l11.561,11.82l12.33,11.3l12.85,10.529l13.36,10.021
		l13.619,9.511l14.131,8.989l14.39,8.21l14.9,7.45l15.159,6.939l15.42,6.16l15.671,5.659l15.93,4.881l16.19,3.851l16.449,3.34
		l16.44,2.819l16.439,1.801l16.71,1.029l16.7,0.511l16.7-0.511l16.44-1.029l16.699-1.801l16.45-2.819l16.189-3.34l16.181-3.851
		l15.93-4.881l15.681-5.659l15.67-6.16l15.16-6.939l14.649-7.45l14.641-8.21l14.13-8.989l13.62-9.511l13.359-10.021l12.59-10.529
		l12.341-11.3l11.819-11.82l11.3-12.33l10.53-12.84l10.279-13.101l9.261-13.87l8.979-14.13l8.229-14.391l7.449-14.899l6.939-15.149
		l6.17-15.41l5.65-15.93l4.62-15.92l4.109-16.19l3.34-16.189l2.569-16.439l2.062-16.689l1.021-16.699l0.26-16.44L886.75,520.591z
		 M842.3,553.22l-1.021,15.931l-2.061,15.92L836.65,601l-3.601,15.66l-4.37,15.42l-4.87,15.41l-5.909,14.9l-6.431,14.641
		l-7.189,14.391l-7.971,13.869l-8.479,13.62l-9.25,13.101l-10.01,12.58l-10.54,12.33l-11.05,11.561l-11.56,11.038l-12.08,10.54
		l-12.591,9.761l-13.109,9.239l-13.609,8.74l-14.141,7.96l-14.12,7.189l-14.649,6.431l-15.159,5.909l-15.16,4.881l-15.42,4.369
		l-15.67,3.591l-15.931,2.569l-15.931,2.05l-15.939,1.03l-15.92,0.511l-16.189-0.511l-15.93-1.03l-15.931-2.05l-15.67-2.569
		l-15.68-3.591l-15.67-4.369l-15.16-4.881l-14.9-5.909l-14.649-6.431l-14.391-7.189l-13.88-7.96l-13.61-8.74l-13.109-9.239
		l-12.59-9.761l-12.33-10.54l-11.56-11.039l-11.051-11.561l-10.529-12.33l-9.771-12.58l-9.25-13.101l-8.479-13.619l-7.96-13.87
		l-7.2-14.391l-6.68-14.641l-5.65-14.899l-5.14-15.41l-4.11-15.42l-3.6-15.659l-2.82-15.931l-1.8-15.92l-1.29-15.931l-0.25-15.93
		l0.25-16.181l1.29-15.93l1.8-15.92l2.82-15.93l3.6-15.671l4.11-15.409l5.14-15.15l5.65-15.16l6.68-14.64l7.2-14.391l7.96-13.87
		l8.479-13.62l9.25-13.1l9.771-12.58l10.529-12.33l11.051-11.56l11.56-11.05l12.33-10.53l12.59-9.76l13.109-9.25l13.61-8.73
		l13.88-7.71l14.391-7.45l14.649-6.42l14.9-5.649l15.16-5.141l15.67-4.359l15.68-3.341l15.67-2.829l15.931-2.061l15.93-1.02
		l16.189-0.511l15.92,0.511l15.939,1.02l15.931,2.061l15.931,2.829l15.67,3.341l15.42,4.359l15.16,5.141l15.159,5.649l14.649,6.42
		l14.12,7.45l14.141,7.71l13.609,8.73l13.11,9.25l12.59,9.76l12.08,10.53l11.561,11.05l11.05,11.56l10.54,12.33l10.01,12.58
		l9.25,13.1l8.479,13.62l7.971,13.87l7.189,14.391l6.431,14.64l5.909,15.16l4.87,15.15l4.37,15.409l3.601,15.671l2.569,15.93
		l2.061,15.92l1.021,15.93l0.521,16.181L842.3,553.22z"/>
	<polygon display="inline" fill="#F8941E" points="567.119,752.301 566.86,757.18 565.579,761.801 563.78,766.171 561.46,770.28 
		558.38,773.87 554.78,776.961 550.67,779.52 546.31,781.32 541.68,782.35 536.8,782.61 532.17,782.35 527.55,781.32 523.18,779.52 
		519.07,776.961 515.47,773.87 512.39,770.28 509.82,766.171 508.02,761.801 506.99,757.18 506.48,752.301 506.99,747.671 
		508.02,743.051 509.82,738.68 512.39,734.57 515.47,730.98 519.07,727.89 523.18,725.33 527.55,723.53 532.17,722.5 536.8,721.98 
		541.68,722.5 546.31,723.53 550.67,725.33 554.78,727.89 558.38,730.98 561.46,734.57 563.78,738.68 565.579,743.051 
		566.86,747.671 	"/>
	<polygon display="inline" fill="#F8941E" points="567.119,752.301 566.86,757.18 565.579,761.801 563.78,766.171 561.46,770.28 
		558.38,773.87 554.78,776.961 550.67,779.52 546.31,781.32 541.68,782.35 536.8,782.61 532.17,782.35 527.55,781.32 523.18,779.52 
		519.07,776.961 515.47,773.87 512.39,770.28 509.82,766.171 508.02,761.801 506.99,757.18 506.48,752.301 506.99,747.671 
		508.02,743.051 509.82,738.68 512.39,734.57 515.47,730.98 519.07,727.89 523.18,725.33 527.55,723.53 532.17,722.5 536.8,721.98 
		541.68,722.5 546.31,723.53 550.67,725.33 554.78,727.89 558.38,730.98 561.46,734.57 563.78,738.68 565.579,743.051 
		566.86,747.671 	"/>
	<polygon display="inline" fill="#F8941E" points="766.25,569.15 765.22,559.64 763.68,550.4 761.11,541.14 757.77,532.16 
		753.92,523.68 749.289,515.461 744.15,507.49 738.24,500.04 731.56,493.11 724.619,486.94 716.909,481.04 708.949,476.15 
		700.73,471.53 691.99,467.94 682.99,464.85 673.75,462.801 663.22,461.25 652.68,460.75 642.15,460.75 631.61,461.25 
		621.329,462.801 610.8,464.85 600.78,467.43 590.76,470.76 580.99,474.881 550.409,490.03 520.1,505.69 490.039,522.14 
		460.49,539.091 430.94,556.56 424.51,560.16 417.579,562.98 412.709,564.43 410.64,565.04 403.44,566.58 395.99,567.35 
		388.539,567.091 381.09,566.32 373.9,564.78 366.959,562.47 360.28,559.381 353.85,555.53 347.69,551.171 342.289,546.28 
		337.409,540.89 333.039,534.72 329.19,528.56 326.1,521.62 323.789,514.69 321.99,507.49 321.84,506.02 321.22,500.04 
		320.97,492.591 321.74,485.4 323.02,477.95 325.34,471.02 330.22,459.97 335.869,449.19 342.039,438.65 348.97,428.64 
		356.43,419.13 364.39,410.14 372.869,401.4 381.86,393.19 391.11,385.48 401.13,378.55 411.15,371.87 421.94,365.96 432.23,361.07 
		443.01,356.71 454.06,353.12 465.369,350.29 476.67,347.97 488.24,346.43 499.8,345.67 511.36,345.67 522.92,346.17 
		527.039,346.17 531.15,345.41 535.26,343.87 538.86,341.56 541.94,338.73 544.51,335.65 546.56,331.79 548.11,327.94 
		548.61,323.83 548.61,319.72 547.85,315.61 546.56,311.5 544.51,307.9 541.68,304.56 538.6,301.99 535,299.69 531.15,298.39 
		527.039,297.37 512.39,296.34 497.74,295.83 483.1,296.34 468.449,297.37 457.15,299.17 446.1,301.48 435.05,304.56 424.26,308.42 
		413.98,313.04 403.699,318.44 394.199,324.34 381.86,331.54 370.039,339.24 358.74,347.72 347.69,356.71 337.409,366.22 
		327.65,376.49 318.14,387.02 309.659,398.32 301.44,409.88 293.99,421.95 287.31,434.291 281.4,447.131 276,460.23 271.38,473.591 
		269.84,482.841 269.06,492.08 268.81,501.33 269.58,510.58 270.86,519.57 272.92,528.56 275.49,537.551 279.08,546.03 
		282.94,554.51 287.82,562.47 292.96,569.921 298.869,577.11 305.289,583.79 312.23,589.95 319.68,595.61 327.39,600.49 
		335.61,604.85 344.09,608.7 352.829,611.79 361.56,614.1 370.81,615.9 380.06,616.921 389.31,617.19 398.56,616.66 407.56,615.39 
		416.8,613.591 425.539,611.01 434.28,607.671 442.5,603.56 450.72,599.2 458.43,593.81 486.949,577.11 516.25,560.921 
		545.789,545.26 575.6,530.62 605.909,516.48 644.46,506.211 651.65,506.73 658.59,507.75 665.52,509.81 672.21,512.12 
		678.89,515.461 684.789,519.31 690.71,523.421 695.84,528.56 700.47,533.961 704.84,539.61 708.44,545.77 711.26,552.45 
		713.84,559.131 715.369,566.32 716.4,573.26 716.659,581.99 716.4,590.461 715.11,598.95 713.32,607.421 710.75,615.64 
		707.659,623.6 703.81,631.31 699.19,638.5 733.869,678.58 740.039,669.841 745.699,660.85 750.579,651.35 754.68,641.591 
		758.539,631.82 761.369,621.551 763.68,611.27 765.48,600.74 766.25,590.211 766.77,579.671 	"/>
	<polygon display="inline" fill="#F8941E" points="468.449,297.37 394.199,324.34 403.699,318.44 413.98,313.04 424.26,308.42 
		435.05,304.56 446.1,301.48 457.15,299.17 	"/>
	<polygon display="inline" fill="#F8941E" points="527.039,297.37 468.449,297.37 483.1,296.34 497.74,295.83 512.39,296.34 	"/>
	<polygon display="inline" fill="#F8941E" points="548.61,319.72 548.61,323.83 548.11,327.94 546.56,331.79 544.51,335.65 
		541.94,338.73 538.86,341.56 535.26,343.87 531.15,345.41 527.039,346.17 522.92,346.17 527.039,297.37 531.15,298.39 535,299.69 
		538.6,301.99 541.68,304.56 544.51,307.9 546.56,311.5 547.85,315.61 	"/>
</g>
<g>
	<g>
		<polygon fill="#F8941E" stroke="#F8941E" stroke-width="0" stroke-linecap="square" stroke-miterlimit="10" points="
			407.77,155.73 407.45,159.12 406.22,162.21 404.37,164.98 402.21,167.46 399.12,169.31 396.04,170.54 392.64,170.85 
			378.75,171.47 365.16,172.7 351.57,174.86 337.99,177.95 324.72,181.96 312.05,186.9 299.4,192.77 287.05,199.25 275.31,206.35 
			264.2,214.37 253.7,223.33 243.51,232.58 233.95,242.77 225.3,253.58 217.27,264.68 209.86,276.41 203.37,288.46 197.82,301.1 
			192.88,314.07 188.86,327.35 185.78,340.61 183.62,354.19 182.07,368.08 181.76,381.98 181.46,385.37 180.22,388.46 
			178.37,391.23 175.9,393.71 173.12,395.56 170.03,396.79 166.64,397.1 163.24,396.79 159.85,395.56 157.07,393.71 154.59,391.23 
			152.74,388.46 151.81,385.37 151.2,381.98 151.81,367.17 153.05,352.66 155.21,338.45 158.3,323.95 162.31,310.06 166.94,296.17 
			172.51,282.9 178.98,269.62 186.09,256.97 194.12,244.62 202.76,232.89 212.02,221.78 221.9,211.28 232.7,201.1 243.83,191.84 
			255.56,183.2 267.9,175.17 280.56,168.07 293.53,161.59 307.12,156.03 320.7,151.4 334.9,147.39 349.1,144.31 363.61,142.14 
			378.12,140.91 392.64,140.29 396.04,140.91 399.12,141.84 402.21,143.69 404.37,146.16 406.22,148.94 407.45,152.33 		"/>
	</g>
	<g>
		<path fill="#F8941E" stroke="#F8941E" stroke-width="0" stroke-linecap="square" stroke-miterlimit="10" d="M949.92,827.38
			l-1.24-5.56l-2.16-5.25l-3.079-4.63l-3.71-4.32L772.39,640.019l-4.319-3.699l-4.63-2.78l-5.25-2.16l-5.551-1.55l-5.56-0.3
			l-5.561,0.3l-5.56,1.55l-5.25,2.16l-4.94,2.78l-4.319,3.699l-14.2,14.2l-80.9-80.87l12.98-16.67h-38.6l-10.5,11.73l-11.11,11.109
			l-12.04,10.801l-12.35,9.88l-12.971,8.95l-13.58,8.33l-13.89,7.72l-14.52,6.49l-14.82,5.859l-15.13,4.94l-15.12,4.01l-15.75,3.39
			l-15.75,2.17l-15.75,1.23l-16.05,0.62l-15.74-0.62l-15.75-1.55l-15.75-2.15l-15.43-3.39l-15.44-4.33l-15.13-4.94l-14.82-5.859
			l-14.2-7.101l-13.9-7.41l-13.58-8.64l-12.97-8.95l-12.34-10.189l-11.74-10.49l-11.12-11.43L183,554.83l-9.88-12.35l-8.95-13.271
			l-8.03-13.59l-7.41-14.19l-6.8-14.2l-5.55-14.81l-4.94-15.44l-4.02-15.13l-3.09-15.74l-1.85-15.74l-1.23-15.74l-0.31-16.05
			l0.62-15.74l1.54-16.05l2.48-15.75l3.39-15.42l4.32-15.13l5.25-15.12l6.17-14.82l6.8-14.2l7.72-13.89l8.64-13.27l9.26-12.97
			l10.19-12.34l10.5-11.73l11.42-11.11l12.05-10.19l12.66-9.88l13.27-8.95L260.8,144l14.21-7.1l14.51-6.48l14.82-5.87l15.12-4.63
			l15.44-3.7l15.75-3.09l15.74-1.85l15.75-1.24h16.06l15.74,0.62l15.75,1.85l15.74,2.78l15.44,3.4l15.44,4.32l14.82,5.55l14.51,6.18
			l14.51,7.1l13.58,7.71h52.18l-12.96-10.18l-13.28-9.57l-13.89-8.65l-14.521-8.02l-14.82-7.1l-15.13-6.17l-15.74-5.56l-15.75-4.63
			l-16.05-4.01l-16.06-2.78l-16.36-1.85l-16.36-1.24l-16.37-0.3l-16.67,0.61l-16.36,1.55l-16.05,2.47l-16.37,3.39l-15.74,4.32
			l-15.75,4.94l-15.44,6.18l-14.82,6.48l-14.82,7.71l-14.2,8.34l-13.59,8.95l-13.27,9.88l-12.66,10.49l-12.04,11.42l-11.43,11.73
			L158.6,190.6l-9.87,12.97l-9.57,13.58l-8.34,13.89l-8.02,14.5l-6.8,14.83l-6.48,15.42l-5.25,15.44l-4.33,16.05l-3.69,16.05
			l-2.78,16.05l-1.86,16.36l-0.92,16.67l-0.31,16.36l0.92,16.35l1.85,16.36l2.48,16.36l3.39,16.06l4.63,16.04l4.94,15.44l6.18,15.43
			l6.79,14.81l7.71,14.83l8.65,13.88l9.27,13.59l9.88,13.26l10.49,12.66l11.42,11.74l12.05,11.41l12.34,10.81l13.28,9.88l13.59,9.25
			l14.2,8.34l14.51,7.721l14.82,6.79l15.44,6.17l15.44,5.24l16.05,4.329l16.06,3.391l16.05,2.78l16.36,1.54l16.67,0.93h16.37
			l16.36-0.93l16.36-1.851l16.37-2.78l16.05-3.699l15.75-4.641l15.43-5.24l15.44-6.17l14.83-7.109l14.5-7.7l13.9-8.65l13.58-9.26
			l13.279-10.18l80.58,80.87l-14.199,14.189l-3.391,4.32l-3.1,4.939l-2.16,5.25l-1.23,5.551l-0.619,5.56l0.619,5.561l1.23,5.55
			l2.16,5.25l3.1,4.63l3.391,4.32l167.649,167.6l4.32,3.71l4.63,2.78l5.25,2.16l5.56,1.54l5.561,0.31l5.55-0.31l5.56-1.54l5.24-2.16
			l4.95-2.78l4.32-3.71l70.7-70.99l3.71-4.319l3.079-4.931l2.16-5.26l1.24-5.24l0.62-5.87L949.92,827.38z M919.67,835.09l-1.24,1.86
			l-71.01,70.99l-1.85,1.229l-2.16,0.62l-2.17-0.62l-1.851-1.229L672.05,740.639l-1.229-1.85l-0.311-2.16l0.311-2.17l1.229-1.84
			l71.01-71l1.86-1.23l2.16-0.31l2.16,0.31l1.85,1.23l167.34,167.61l1.24,1.55l0.3,2.149L919.67,835.09z"/>
	</g>
	<g>
		<path fill="#F8941E" stroke="#F8941E" stroke-width="0" stroke-linecap="square" stroke-miterlimit="10" d="M927.071,228.57
			l-1.54-7.1l-2.471-7.1l-3.09-6.48l-4.01-6.18l-4.94-5.24l-5.56-4.94l-5.87-4.01l-6.47-3.4l-7.11-2.16l-7.1-1.54l-7.101-0.31H539.6
			L386.47,310.68l-5.26,4.94l-4.62,5.86l-3.71,6.48l-3.09,6.79l-1.85,7.1l-0.93,7.41v7.41l0.93,7.4l1.85,7.11l3.09,7.09l3.71,6.17
			l4.62,5.87l5.26,5.25L539.6,526.12H871.81l7.101-0.61l7.1-1.24l7.11-2.47l6.47-3.09l5.87-4.01l5.56-4.94l4.94-5.56l4.01-6.17
			l3.09-6.47l2.471-6.8l1.54-7.1l0.319-7.4V235.98L927.071,228.57z M897.13,470.26l-0.62,4.94l-1.55,4.93l-2.16,4.32l-3.08,3.71
			l-4.02,3.08l-4.32,2.47l-4.63,1.54l-4.94,0.32H551.02L406.22,372.41l-3.4-3.4l-2.77-4.32l-1.85-4.32l-0.93-4.94v-4.94l0.93-4.62
			l1.85-4.64l2.77-4.01l3.4-3.4L551.02,210.36h320.79l4.94,0.62l4.63,1.54l4.32,2.16l4.02,3.09l3.08,4.01l2.16,4.32l1.55,4.94
			l0.62,4.94V470.26z"/>
	</g>
	<g>
		<polygon fill="#F8941E" stroke="#F8941E" stroke-width="0" stroke-linecap="square" stroke-miterlimit="10" points="
			477.54,352.96 477.24,357.9 475.69,362.84 473.53,367.17 470.13,370.86 466.43,374.26 462.1,376.42 457.16,377.97 452.22,378.27 
			447.28,377.97 442.65,376.42 438.33,374.26 434.32,370.86 431.23,367.17 428.76,362.84 427.53,357.9 426.91,352.96 427.53,348.03 
			428.76,343.39 431.23,339.08 434.32,335.06 438.33,331.97 442.65,329.51 447.28,328.27 452.22,327.65 457.16,328.27 462.1,329.51 
			466.43,331.97 470.13,335.06 473.53,339.08 475.69,343.39 477.24,348.03 		"/>
	</g>
	<g>
		<path fill="#F8941E" d="M735.855,480.038v-24.145c-12.076-1.521-21.894-4.225-29.451-8.115
			c-7.56-3.89-14.088-10.171-19.589-18.846c-5.501-8.672-8.7-19.27-9.593-31.79l24.284-4.561
			c1.879,12.967,5.187,22.491,9.929,28.571c6.797,8.585,14.938,13.37,24.42,14.353v-76.86c-9.929-1.878-20.082-5.722-30.457-11.536
			c-7.694-4.292-13.618-10.238-17.778-17.84c-4.159-7.6-6.238-16.23-6.238-25.889c0-17.169,6.081-31.073,18.247-41.716
			c8.139-7.153,20.214-11.536,36.227-13.146v-11.536h14.222v11.536c14.042,1.341,25.178,5.456,33.408,12.34
			c10.554,8.765,16.906,20.791,19.053,36.083l-24.956,3.756c-1.432-9.478-4.406-16.744-8.922-21.797
			c-4.518-5.051-10.713-8.384-18.583-9.993v69.617c12.163,3.041,20.214,5.411,24.15,7.109c7.514,3.31,13.64,7.333,18.382,12.072
			c4.74,4.741,8.386,10.375,10.935,16.901c2.55,6.528,3.824,13.594,3.824,21.193c0,16.723-5.322,30.673-15.966,41.85
			c-10.646,11.18-24.42,17.169-41.325,17.975v24.413H735.855z M735.855,268.639c-9.393,1.432-16.795,5.188-22.206,11.268
			c-5.413,6.082-8.117,13.279-8.117,21.596c0,8.229,2.302,15.114,6.91,20.657c4.605,5.545,12.41,9.972,23.413,13.279V268.639z
			 M750.076,435.505c9.392-1.161,17.151-5.231,23.278-12.207c6.126-6.975,9.191-15.604,9.191-25.888
			c0-8.763-2.17-15.805-6.508-21.126c-4.339-5.319-12.993-10.081-25.962-14.285V435.505z"/>
	</g>
</g>
</svg>
