<?xml version="1.0" encoding="utf-8"?>
<!-- Generator: Adobe Illustrator 16.0.0, SVG Export Plug-In . SVG Version: 6.00 Build 0)  -->
<!DOCTYPE svg PUBLIC "-//W3C//DTD SVG 1.1//EN" "http://www.w3.org/Graphics/SVG/1.1/DTD/svg11.dtd">
<svg version="1.1" id="Capa_1" xmlns="http://www.w3.org/2000/svg" xmlns:xlink="http://www.w3.org/1999/xlink" x="0px" y="0px"
	 width="1080px" height="1080px" viewBox="0 0 1080 1080" enable-background="new 0 0 1080 1080" xml:space="preserve">
<g id="Capa_2" display="none">
	<polygon display="inline" fill="#F8941E" points="567.119,752.301 566.86,757.18 565.579,761.801 563.78,766.171 561.46,770.28 
		558.38,773.87 554.78,776.961 550.67,779.52 546.31,781.32 541.68,782.35 536.8,782.61 532.17,782.35 527.55,781.32 523.18,779.52 
		519.07,776.961 515.47,773.87 512.39,770.28 509.82,766.171 508.02,761.801 506.99,757.18 506.48,752.301 506.99,747.671 
		508.02,743.051 509.82,738.68 512.39,734.57 515.47,730.98 519.07,727.89 523.18,725.33 527.55,723.53 532.17,722.5 536.8,721.98 
		541.68,722.5 546.31,723.53 550.67,725.33 554.78,727.89 558.38,730.98 561.46,734.57 563.78,738.68 565.579,743.051 
		566.86,747.671 	"/>
	<path display="inline" fill="#F8941E" d="M886.75,520.591l-1.021-16.688l-2.062-16.7l-2.569-16.439l-3.34-16.181l-4.106-16.18
		l-4.62-15.933l-5.65-15.92l-6.17-15.421l-6.938-15.159l-7.448-14.9l-8.229-14.38l-8.979-14.12l-9.264-13.62l-10.276-13.36
		l-10.53-12.84l-11.3-12.33L772.422,268.6l-12.341-11.04l-12.59-10.8l-13.359-10.011l-13.62-9.51l-14.13-8.979l-14.641-8.221
		l-14.649-7.46l-15.16-6.93l-15.67-6.17l-15.681-5.65l-15.93-4.62L598.47,175.1l-16.188-3.34l-16.45-2.57l-16.699-2.061
		l-16.438-1.02l-16.7-0.26l-16.7,0.26l-16.71,1.02l-16.438,2.061l-16.438,2.57l-16.45,3.34l-16.188,4.109l-15.934,4.62l-15.67,5.65
		l-15.42,6.17l-15.16,6.93l-14.896,7.46l-14.393,8.221l-14.131,8.979l-13.619,9.51l-13.36,10.011l-12.85,10.8L259.3,268.6
		l-11.56,11.82l-11.31,12.33l-10.79,12.84l-10.02,13.36l-9.511,13.62l-8.729,14.12l-8.22,14.38l-7.71,14.9l-6.94,15.159l-6.17,15.42
		l-5.39,15.921l-4.881,15.933l-4.119,16.18l-3.341,16.181l-2.56,16.439l-1.8,16.7l-1.03,16.688l-0.52,16.699l0.52,16.438
		l1.03,16.699l1.8,16.689l2.56,16.438l3.341,16.189l4.119,16.188l4.881,15.922l5.39,15.931l6.17,15.409l6.94,15.147l7.71,14.899
		l8.22,14.391l8.729,14.13l9.511,13.87l10.02,13.103l10.79,12.841l11.31,12.33l11.561,11.817l12.33,11.302l12.85,10.527
		l13.36,10.021l13.619,9.511l14.131,8.989l14.393,8.21l14.897,7.449l15.159,6.938l15.42,6.16l15.671,5.659l15.93,4.881l16.19,3.851
		l16.449,3.342l16.438,2.817l16.439,1.801l16.71,1.029l16.7,0.511l16.698-0.511l16.439-1.029l16.699-1.801l16.449-2.817
		l16.188-3.342l16.182-3.851l15.932-4.881l15.681-5.659l15.67-6.16l15.16-6.938l14.649-7.449l14.641-8.21l14.13-8.989l13.62-9.511
		l13.359-10.021l12.59-10.527l12.341-11.302l11.819-11.817l11.3-12.33l10.53-12.841l10.276-13.103l9.262-13.87l8.979-14.13
		l8.229-14.391l7.447-14.899l6.939-15.147l6.17-15.409l5.647-15.931l4.62-15.922l4.109-16.188l3.34-16.189l2.569-16.438
		l2.062-16.689l1.021-16.698l0.26-16.438L886.75,520.591z M842.3,553.22l-1.021,15.934l-2.063,15.92L836.65,601l-3.604,15.66
		l-4.37,15.42l-4.87,15.41L817.9,662.39l-6.434,14.644l-7.188,14.391l-7.974,13.869l-8.479,13.62l-9.25,13.101l-10.01,12.58
		l-10.54,12.33l-11.051,11.563l-11.562,11.038l-12.08,10.539l-12.591,9.762l-13.109,9.238l-13.606,8.738l-14.144,7.96l-14.12,7.189
		l-14.646,6.431l-15.159,5.909l-15.16,4.881l-15.42,4.369l-15.67,3.591l-15.931,2.569l-15.934,2.05l-15.938,1.03l-15.92,0.511
		l-16.189-0.511l-15.93-1.03l-15.931-2.05l-15.671-2.569l-15.682-3.591l-15.67-4.369l-15.16-4.881l-14.897-5.909l-14.649-6.431
		l-14.391-7.189l-13.88-7.96l-13.61-8.738l-13.108-9.238l-12.591-9.762l-12.33-10.539l-11.56-11.039l-11.051-11.563l-10.529-12.33
		l-9.771-12.58l-9.25-13.101l-8.479-13.619l-7.96-13.87l-7.2-14.391l-6.68-14.644l-5.65-14.896l-5.14-15.41l-4.11-15.42l-3.6-15.659
		l-2.82-15.931l-1.8-15.92l-1.29-15.934l-0.25-15.93l0.25-16.181l1.29-15.933l1.8-15.92l2.82-15.93l3.6-15.671l4.11-15.409
		l5.14-15.148l5.65-15.159l6.68-14.643l7.2-14.391l7.96-13.87l8.479-13.62l9.25-13.1l9.771-12.58l10.529-12.33l11.051-11.56
		l11.56-11.05l12.33-10.53l12.591-9.76l13.108-9.25l13.61-8.729l13.88-7.71l14.391-7.45l14.649-6.42l14.897-5.649l15.16-5.141
		l15.67-4.359l15.682-3.341l15.671-2.829l15.931-2.061l15.93-1.02l16.189-0.511l15.92,0.511l15.938,1.02l15.934,2.061l15.931,2.829
		l15.67,3.341l15.42,4.359l15.16,5.141l15.159,5.649l14.647,6.42l14.119,7.45l14.144,7.71l13.606,8.729l13.11,9.25l12.59,9.76
		l12.08,10.53l11.563,11.05l11.051,11.56l10.54,12.33l10.01,12.58l9.25,13.1l8.479,13.62l7.973,13.87l7.188,14.391l6.434,14.643
		l5.908,15.159l4.868,15.148l4.37,15.409l3.604,15.671l2.566,15.93l2.063,15.92l1.021,15.933l0.521,16.181L842.3,553.22z"/>
	<polygon display="inline" fill="#F8941E" points="567.119,752.301 566.86,757.18 565.579,761.801 563.78,766.171 561.46,770.28 
		558.38,773.87 554.78,776.961 550.67,779.52 546.31,781.32 541.68,782.35 536.8,782.61 532.17,782.35 527.55,781.32 523.18,779.52 
		519.07,776.961 515.47,773.87 512.39,770.28 509.82,766.171 508.02,761.801 506.99,757.18 506.48,752.301 506.99,747.671 
		508.02,743.051 509.82,738.68 512.39,734.57 515.47,730.98 519.07,727.89 523.18,725.33 527.55,723.53 532.17,722.5 536.8,721.98 
		541.68,722.5 546.31,723.53 550.67,725.33 554.78,727.89 558.38,730.98 561.46,734.57 563.78,738.68 565.579,743.051 
		566.86,747.671 	"/>
	<polygon display="inline" fill="#F8941E" points="567.119,752.301 566.86,757.18 565.579,761.801 563.78,766.171 561.46,770.28 
		558.38,773.87 554.78,776.961 550.67,779.52 546.31,781.32 541.68,782.35 536.8,782.61 532.17,782.35 527.55,781.32 523.18,779.52 
		519.07,776.961 515.47,773.87 512.39,770.28 509.82,766.171 508.02,761.801 506.99,757.18 506.48,752.301 506.99,747.671 
		508.02,743.051 509.82,738.68 512.39,734.57 515.47,730.98 519.07,727.89 523.18,725.33 527.55,723.53 532.17,722.5 536.8,721.98 
		541.68,722.5 546.31,723.53 550.67,725.33 554.78,727.89 558.38,730.98 561.46,734.57 563.78,738.68 565.579,743.051 
		566.86,747.671 	"/>
	<polygon display="inline" fill="#F8941E" points="766.25,569.15 765.22,559.64 763.68,550.4 761.11,541.14 757.77,532.16 
		753.92,523.68 749.289,515.461 744.15,507.49 738.24,500.04 731.56,493.11 724.619,486.94 716.909,481.04 708.949,476.15 
		700.73,471.53 691.99,467.94 682.99,464.85 673.75,462.801 663.22,461.25 652.68,460.75 642.15,460.75 631.61,461.25 
		621.329,462.801 610.8,464.85 600.78,467.43 590.76,470.76 580.99,474.881 550.409,490.03 520.1,505.69 490.039,522.14 
		460.49,539.091 430.94,556.56 424.51,560.16 417.579,562.98 412.709,564.43 410.64,565.04 403.44,566.58 395.99,567.35 
		388.539,567.091 381.09,566.32 373.9,564.78 366.959,562.47 360.28,559.381 353.85,555.53 347.69,551.171 342.289,546.28 
		337.409,540.89 333.039,534.72 329.19,528.56 326.1,521.62 323.789,514.69 321.99,507.49 321.84,506.02 321.22,500.04 
		320.97,492.591 321.74,485.4 323.02,477.95 325.34,471.02 330.22,459.97 335.869,449.19 342.039,438.65 348.97,428.64 
		356.43,419.13 364.39,410.14 372.869,401.4 381.86,393.19 391.11,385.48 401.13,378.55 411.15,371.87 421.94,365.96 432.23,361.07 
		443.01,356.71 454.06,353.12 465.369,350.29 476.67,347.97 488.24,346.43 499.8,345.67 511.36,345.67 522.92,346.17 
		527.039,346.17 531.15,345.41 535.26,343.87 538.86,341.56 541.94,338.73 544.51,335.65 546.56,331.79 548.11,327.94 
		548.61,323.83 548.61,319.72 547.85,315.61 546.56,311.5 544.51,307.9 541.68,304.56 538.6,301.99 535,299.69 531.15,298.39 
		527.039,297.37 512.39,296.34 497.74,295.83 483.1,296.34 468.449,297.37 457.15,299.17 446.1,301.48 435.05,304.56 424.26,308.42 
		413.98,313.04 403.699,318.44 394.199,324.34 381.86,331.54 370.039,339.24 358.74,347.72 347.69,356.71 337.409,366.22 
		327.65,376.49 318.14,387.02 309.659,398.32 301.44,409.88 293.99,421.95 287.31,434.291 281.4,447.131 276,460.23 271.38,473.591 
		269.84,482.841 269.06,492.08 268.81,501.33 269.58,510.58 270.86,519.57 272.92,528.56 275.49,537.551 279.08,546.03 
		282.94,554.51 287.82,562.47 292.96,569.921 298.869,577.11 305.289,583.79 312.23,589.95 319.68,595.61 327.39,600.49 
		335.61,604.85 344.09,608.7 352.829,611.79 361.56,614.1 370.81,615.9 380.06,616.921 389.31,617.19 398.56,616.66 407.56,615.39 
		416.8,613.591 425.539,611.01 434.28,607.671 442.5,603.56 450.72,599.2 458.43,593.81 486.949,577.11 516.25,560.921 
		545.789,545.26 575.6,530.62 605.909,516.48 644.46,506.211 651.65,506.73 658.59,507.75 665.52,509.81 672.21,512.12 
		678.89,515.461 684.789,519.31 690.71,523.421 695.84,528.56 700.47,533.961 704.84,539.61 708.44,545.77 711.26,552.45 
		713.84,559.131 715.369,566.32 716.4,573.26 716.659,581.99 716.4,590.461 715.11,598.95 713.32,607.421 710.75,615.64 
		707.659,623.6 703.81,631.31 699.19,638.5 733.869,678.58 740.039,669.841 745.699,660.85 750.579,651.35 754.68,641.591 
		758.539,631.82 761.369,621.551 763.68,611.27 765.48,600.74 766.25,590.211 766.77,579.671 	"/>
	<polygon display="inline" fill="#F8941E" points="468.449,297.37 394.199,324.34 403.699,318.44 413.98,313.04 424.26,308.42 
		435.05,304.56 446.1,301.48 457.15,299.17 	"/>
	<polygon display="inline" fill="#F8941E" points="527.039,297.37 468.449,297.37 483.1,296.34 497.74,295.83 512.39,296.34 	"/>
	<polygon display="inline" fill="#F8941E" points="548.61,319.72 548.61,323.83 548.11,327.94 546.56,331.79 544.51,335.65 
		541.94,338.73 538.86,341.56 535.26,343.87 531.15,345.41 527.039,346.17 522.92,346.17 527.039,297.37 531.15,298.39 535,299.69 
		538.6,301.99 541.68,304.56 544.51,307.9 546.56,311.5 547.85,315.61 	"/>
</g>
<g>
	<g id="XMLID_1_">
		<g>
			<polygon fill="#F8941E" points="965.27,615.01 965.27,625.63 964.39,635.96 962.62,646.29 960.55,656.62 957.31,666.66 
				953.76,676.99 949.04,687.02 944.02,696.76 938.12,706.79 931.62,716.24 924.24,725.69 916.27,735.13 907.71,743.98 
				898.55,752.83 888.51,761.39 878.18,769.95 867.26,777.92 855.45,785.59 843.34,793.27 830.65,800.35 817.66,807.14 
				804.08,813.63 789.91,819.83 775.44,825.74 760.38,831.04 745.04,836.06 729.39,840.79 713.45,845.21 697.21,849.05 
				680.68,852.29 663.85,855.54 647.02,858.2 629.89,860.26 612.77,862.03 595.36,863.21 577.94,864.1 560.52,864.69 542.81,864.69 
				525.38,864.1 507.96,863.21 490.55,862.03 473.42,860.26 456.3,858.2 439.18,855.54 422.64,852.29 406.11,849.05 389.87,845.21 
				373.64,840.79 358.28,836.06 342.93,831.04 327.88,825.74 313.42,819.83 299.24,813.63 285.66,807.14 272.38,800.35 
				259.97,793.27 247.58,785.59 236.06,777.92 225.14,769.95 214.51,761.39 204.76,752.83 195.62,743.98 187.05,735.13 
				179.08,725.69 171.7,716.24 165.21,706.5 159.31,696.76 153.99,687.02 149.56,676.99 146.01,666.66 142.77,656.62 140.7,646.29 
				138.93,635.96 138.04,625.33 138.04,615.01 138.64,604.68 140.11,594.34 142.18,584.02 143.95,586.38 145.72,588.74 
				147.49,591.1 149.27,593.46 151.33,595.82 153.1,598.19 155.17,600.55 156.94,602.61 159.01,604.97 161.07,607.34 163.14,609.7 
				165.21,611.76 167.27,614.12 169.63,616.19 171.7,618.55 174.06,620.62 176.13,622.68 178.49,624.75 180.85,627.11 
				183.21,629.18 185.58,631.24 187.94,633.31 190.3,635.37 192.66,637.44 195.32,639.5 197.68,641.27 200.34,643.34 202.7,645.41 
				205.36,647.47 208.02,649.25 210.67,651.31 213.33,653.08 215.98,655.15 218.64,656.92 221.6,658.69 224.25,660.46 226.9,662.52 
				229.86,664.3 232.52,666.07 235.47,667.84 238.42,669.61 241.37,671.38 244.33,672.86 247.28,674.63 250.23,676.4 253.19,677.87 
				256.14,679.64 259.09,681.41 262.34,682.89 265.29,684.37 268.53,686.14 271.49,687.61 274.74,689.08 277.98,690.56 
				281.23,692.04 284.18,693.51 287.43,694.99 290.68,696.47 293.93,697.94 297.47,699.42 300.72,700.89 303.97,702.08 
				307.21,703.54 310.76,704.73 314,706.21 317.55,707.39 320.79,708.56 324.33,710.04 327.88,711.22 331.12,712.4 334.67,713.58 
				338.21,714.77 341.75,715.94 345.29,717.12 348.83,718.31 352.38,719.19 355.93,720.37 359.47,721.25 363.3,722.44 
				366.85,723.32 370.39,724.5 373.93,725.38 377.77,726.27 381.31,727.16 385.16,728.04 388.7,728.93 392.53,729.82 396.37,730.7 
				399.91,731.59 403.75,732.47 407.58,733.06 411.13,733.95 414.97,734.83 418.81,735.42 422.64,736.01 426.48,736.9 
				430.33,737.49 434.16,738.08 438,738.67 441.83,739.26 445.67,739.85 449.51,740.44 453.35,741.03 457.19,741.62 461.03,741.92 
				464.86,742.51 469,743.09 472.83,743.39 476.67,743.98 480.52,744.28 484.65,744.57 488.48,744.87 492.32,745.16 496.16,745.45 
				500.29,745.75 504.13,746.05 507.96,746.34 512.1,746.64 515.94,746.93 520.07,746.93 523.91,747.23 527.75,747.23 
				531.88,747.53 535.72,747.53 539.85,747.53 543.69,747.82 547.53,747.82 551.66,747.82 555.5,747.82 559.63,747.82 
				563.47,747.53 567.31,747.53 571.44,747.53 575.28,747.53 579.42,747.23 583.25,747.23 587.09,746.93 591.22,746.64 
				595.06,746.64 599.19,746.34 603.03,746.05 606.87,745.75 610.71,745.45 614.84,745.16 618.68,744.87 622.51,744.28 
				626.65,743.98 630.49,743.68 634.32,743.09 638.17,742.8 642,742.21 646.14,741.62 649.97,741.32 653.81,740.74 657.65,740.14 
				661.48,739.55 665.32,738.96 669.16,738.38 673,737.78 676.84,736.9 680.68,736.3 684.22,735.72 688.05,734.83 691.9,733.95 
				695.73,733.36 699.57,732.47 703.11,731.59 706.95,730.99 710.49,730.11 714.33,729.23 718.17,728.34 721.71,727.46 
				725.25,726.27 729.09,725.38 732.63,724.5 736.18,723.32 740.02,722.44 743.56,721.25 747.1,720.37 750.65,719.19 754.19,718.01 
				757.73,717.12 761.27,715.94 764.81,714.77 768.36,713.58 771.9,712.4 775.15,711.22 778.69,710.04 782.24,708.56 785.48,707.39 
				789.02,706.21 792.27,704.73 795.82,703.54 799.06,702.08 802.31,700.6 805.55,699.42 808.81,697.94 812.35,696.47 
				815.59,694.99 818.54,693.51 821.8,692.04 825.04,690.56 828.29,689.08 831.54,687.61 834.49,686.14 837.74,684.37 
				840.69,682.89 843.94,681.12 846.89,679.64 849.84,677.87 852.79,676.4 855.74,674.63 858.7,672.86 861.65,671.09 864.6,669.61 
				867.56,667.84 870.51,666.07 873.16,664.3 876.12,662.23 878.77,660.46 881.72,658.69 884.38,656.92 887.04,654.85 889.7,653.08 
				892.35,651.31 895.01,649.25 897.67,647.17 900.32,645.41 902.69,643.34 905.34,641.27 907.71,639.5 910.36,637.44 
				912.73,635.37 915.09,633.31 917.75,631.24 920.1,629.18 922.18,627.11 924.53,624.75 926.89,622.68 929.26,620.62 
				931.32,618.26 933.68,616.19 935.76,614.12 937.82,611.76 939.89,609.7 941.95,607.34 944.02,604.97 946.08,602.61 
				948.15,600.55 949.92,598.19 951.99,595.82 953.76,593.46 955.53,591.1 957.6,588.74 959.37,586.38 961.14,584.02 963.21,594.34 
				964.68,604.68 			"/>
			<path fill="#F8941E" d="M964.98,455.63l0.289,10.34l-0.289,10.33l-1.181,10.32l-1.77,10.33l-2.66,10.34l-3.25,10.03l-4.13,10.04
				l-4.721,10.03l-5.319,9.74l-6.19,9.74l-6.8,9.729l-7.38,9.15l-8.271,9.15l-8.56,9.149l-9.45,8.561l-10.03,8.56l-10.63,8.26
				l-11.22,7.98l-11.81,7.67l-12.101,7.38l-12.689,6.79l-13.29,6.78l-13.88,6.489l-14.17,5.91l-14.461,5.601l-15.06,5.319
				l-15.35,5.021l-15.65,4.42l-15.94,4.43l-16.239,3.54L676.25,700l-16.83,2.96l-16.83,2.66l-17.12,2.06l-17.42,1.471l-17.12,1.18
				l-17.42,0.89l-17.42,0.3h-17.42l-17.42-0.6l-17.42-1.17l-17.41-1.19l-17.13-2.06l-16.82-2.07l-16.84-2.66l-16.82-3.239
				l-16.24-3.54l-16.24-3.83l-15.94-4.44l-15.35-4.71l-15.05-5.02l-15.06-5.61l-14.17-5.899l-14.18-6.2l-13.28-6.49L270.31,646
				l-12.7-7.38l-12.1-7.38l-11.22-7.971l-10.93-7.97l-10.32-8.26l-9.75-8.85l-9.15-8.561l-8.27-9.149l-7.96-9.44l-7.1-9.46
				l-6.48-9.44l-5.91-9.729l-5.02-10.04l-4.13-10.03l-3.84-10.04l-2.96-10.33l-2.06-10.03l-1.48-10.33l-0.89-10.33v-10.63
				l0.89-10.33l1.48-10.32l2.06-10.04l2.96-10.33l3.84-10.04l4.13-10.03l5.02-10.03l5.91-9.74l6.48-9.45l7.1-9.44l7.96-9.45
				l8.27-9.15l9.15-8.55l9.75-8.86l10.32-8.26l10.93-7.97l11.22-7.97l12.1-7.38l12.7-7.38l12.99-6.78l13.28-6.5l14.18-6.19
				l14.17-5.91l15.06-5.61l15.05-5.01l15.35-4.72l15.94-4.43l16.24-3.84l16.24-3.54l16.82-3.25l16.84-2.65l16.82-2.07l17.13-2.06
				l17.41-1.19l17.42-1.18l17.42-0.59h17.42l17.42,0.3l17.42,0.89l17.12,1.18l17.42,1.47l17.12,2.07l16.83,2.65l16.83,2.95
				l16.53,3.25l16.239,3.54l15.94,4.43l15.65,4.43l15.35,5.01l15.06,5.32l14.461,5.6l14.17,5.91l13.88,6.49l13.29,6.79l12.689,6.79
				l12.101,7.37l11.81,7.68l11.22,7.97l10.63,8.26l10.03,8.56l9.45,8.56l8.56,9.15l8.271,9.14l7.38,9.16l6.8,9.73l6.19,9.74
				l5.319,9.74l4.721,10.04l4.13,10.03l3.25,10.03l2.66,10.34l1.77,10.33L964.98,455.63z M765.4,465.67L753.89,323.12l-147.02-48.7
				l53.729,64.64l-63.77,45.45l48.71,59.91l65.84-43.97L765.4,465.67z M681.56,548.01l66.721-53.71L598.6,511.71L551.07,653.38
				l67.609-54.6l50.78,58.729l61.7-50.77L681.56,548.01z M501.77,408.71l45.46-140.78l-66.71,54.01l-51.08-60.5l-61.71,52.53
				L417.92,373l-68.49,55.48L501.77,408.71z M497.34,537.98L446.56,476l-64.36,43.98l-54.03-66.41l12.1,142.85l145.26,51.05
				l-53.44-65.51L497.34,537.98z"/>
		</g>
		<g>
		</g>
	</g>
</g>
</svg>
