<?xml version="1.0" encoding="utf-8"?>
<!-- Generator: Adobe Illustrator 16.0.0, SVG Export Plug-In . SVG Version: 6.00 Build 0)  -->
<!DOCTYPE svg PUBLIC "-//W3C//DTD SVG 1.1//EN" "http://www.w3.org/Graphics/SVG/1.1/DTD/svg11.dtd">
<svg version="1.1" id="Capa_1" xmlns="http://www.w3.org/2000/svg" xmlns:xlink="http://www.w3.org/1999/xlink" x="0px" y="0px"
	 width="1080px" height="1080px" viewBox="0 0 1080 1080" enable-background="new 0 0 1080 1080" xml:space="preserve">
<g id="Capa_2" display="none">
	<polygon display="inline" fill="#F8941E" points="567.119,752.301 566.86,757.18 565.579,761.801 563.78,766.171 561.46,770.28 
		558.38,773.87 554.78,776.961 550.67,779.52 546.31,781.32 541.68,782.35 536.8,782.61 532.17,782.35 527.55,781.32 523.18,779.52 
		519.07,776.961 515.47,773.87 512.39,770.28 509.82,766.171 508.02,761.801 506.99,757.18 506.48,752.301 506.99,747.671 
		508.02,743.051 509.82,738.68 512.39,734.57 515.47,730.98 519.07,727.89 523.18,725.33 527.55,723.53 532.17,722.5 536.8,721.98 
		541.68,722.5 546.31,723.53 550.67,725.33 554.78,727.89 558.38,730.98 561.46,734.57 563.78,738.68 565.579,743.051 
		566.86,747.671 	"/>
	<path display="inline" fill="#F8941E" d="M886.75,520.591l-1.021-16.688l-2.062-16.7l-2.569-16.439l-3.34-16.181l-4.106-16.18
		l-4.62-15.933l-5.65-15.92l-6.17-15.421l-6.938-15.159l-7.448-14.9l-8.229-14.38l-8.979-14.12l-9.264-13.62l-10.276-13.36
		l-10.53-12.84l-11.3-12.33L772.422,268.6l-12.341-11.04l-12.59-10.8l-13.359-10.011l-13.62-9.51l-14.13-8.979l-14.641-8.221
		l-14.649-7.46l-15.16-6.93l-15.67-6.17l-15.681-5.65l-15.93-4.62L598.47,175.1l-16.188-3.34l-16.45-2.57l-16.699-2.061
		l-16.438-1.02l-16.7-0.26l-16.7,0.26l-16.71,1.02l-16.438,2.061l-16.438,2.57l-16.45,3.34l-16.188,4.109l-15.934,4.62l-15.67,5.65
		l-15.42,6.17l-15.16,6.93l-14.896,7.46l-14.393,8.221l-14.131,8.979l-13.619,9.51l-13.36,10.011l-12.85,10.8L259.3,268.6
		l-11.56,11.82l-11.31,12.33l-10.79,12.84l-10.02,13.36l-9.511,13.62l-8.729,14.12l-8.22,14.38l-7.71,14.9l-6.94,15.159l-6.17,15.42
		l-5.39,15.921l-4.881,15.933l-4.119,16.18l-3.341,16.181l-2.56,16.439l-1.8,16.7l-1.03,16.688l-0.52,16.699l0.52,16.438
		l1.03,16.699l1.8,16.689l2.56,16.438l3.341,16.189l4.119,16.188l4.881,15.922l5.39,15.931l6.17,15.409l6.94,15.147l7.71,14.899
		l8.22,14.391l8.729,14.13l9.511,13.87l10.02,13.103l10.79,12.841l11.31,12.33l11.561,11.817l12.33,11.302l12.85,10.527
		l13.36,10.021l13.619,9.511l14.131,8.989l14.393,8.21l14.897,7.449l15.159,6.938l15.42,6.16l15.671,5.659l15.93,4.881l16.19,3.851
		l16.449,3.342l16.438,2.817l16.439,1.801l16.71,1.029l16.7,0.511l16.698-0.511l16.439-1.029l16.699-1.801l16.449-2.817
		l16.188-3.342l16.182-3.851l15.932-4.881l15.681-5.659l15.67-6.16l15.16-6.938l14.649-7.449l14.641-8.21l14.13-8.989l13.62-9.511
		l13.359-10.021l12.59-10.527l12.341-11.302l11.819-11.817l11.3-12.33l10.53-12.841l10.276-13.103l9.262-13.87l8.979-14.13
		l8.229-14.391l7.447-14.899l6.939-15.147l6.17-15.409l5.647-15.931l4.62-15.922l4.109-16.188l3.34-16.189l2.569-16.438
		l2.062-16.689l1.021-16.698l0.26-16.438L886.75,520.591z M842.3,553.22l-1.021,15.934l-2.063,15.92L836.65,601l-3.604,15.66
		l-4.37,15.42l-4.87,15.41L817.9,662.39l-6.434,14.644l-7.188,14.391l-7.974,13.869l-8.479,13.62l-9.25,13.101l-10.01,12.58
		l-10.54,12.33l-11.051,11.563l-11.562,11.038l-12.08,10.539l-12.591,9.762l-13.109,9.238l-13.606,8.738l-14.144,7.96l-14.12,7.189
		l-14.646,6.431l-15.159,5.909l-15.16,4.881l-15.42,4.369l-15.67,3.591l-15.931,2.569l-15.934,2.05l-15.938,1.03l-15.92,0.511
		l-16.189-0.511l-15.93-1.03l-15.931-2.05l-15.671-2.569l-15.682-3.591l-15.67-4.369l-15.16-4.881l-14.897-5.909l-14.649-6.431
		l-14.391-7.189l-13.88-7.96l-13.61-8.738l-13.108-9.238l-12.591-9.762l-12.33-10.539l-11.56-11.039l-11.051-11.563l-10.529-12.33
		l-9.771-12.58l-9.25-13.101l-8.479-13.619l-7.96-13.87l-7.2-14.391l-6.68-14.644l-5.65-14.896l-5.14-15.41l-4.11-15.42l-3.6-15.659
		l-2.82-15.931l-1.8-15.92l-1.29-15.934l-0.25-15.93l0.25-16.181l1.29-15.933l1.8-15.92l2.82-15.93l3.6-15.671l4.11-15.409
		l5.14-15.148l5.65-15.159l6.68-14.643l7.2-14.391l7.96-13.87l8.479-13.62l9.25-13.1l9.771-12.58l10.529-12.33l11.051-11.56
		l11.56-11.05l12.33-10.53l12.591-9.76l13.108-9.25l13.61-8.729l13.88-7.71l14.391-7.45l14.649-6.42l14.897-5.649l15.16-5.141
		l15.67-4.359l15.682-3.341l15.671-2.829l15.931-2.061l15.93-1.02l16.189-0.511l15.92,0.511l15.938,1.02l15.934,2.061l15.931,2.829
		l15.67,3.341l15.42,4.359l15.16,5.141l15.159,5.649l14.647,6.42l14.119,7.45l14.144,7.71l13.606,8.729l13.11,9.25l12.59,9.76
		l12.08,10.53l11.563,11.05l11.051,11.56l10.54,12.33l10.01,12.58l9.25,13.1l8.479,13.62l7.973,13.87l7.188,14.391l6.434,14.643
		l5.908,15.159l4.868,15.148l4.37,15.409l3.604,15.671l2.566,15.93l2.063,15.92l1.021,15.933l0.521,16.181L842.3,553.22z"/>
	<polygon display="inline" fill="#F8941E" points="567.119,752.301 566.86,757.18 565.579,761.801 563.78,766.171 561.46,770.28 
		558.38,773.87 554.78,776.961 550.67,779.52 546.31,781.32 541.68,782.35 536.8,782.61 532.17,782.35 527.55,781.32 523.18,779.52 
		519.07,776.961 515.47,773.87 512.39,770.28 509.82,766.171 508.02,761.801 506.99,757.18 506.48,752.301 506.99,747.671 
		508.02,743.051 509.82,738.68 512.39,734.57 515.47,730.98 519.07,727.89 523.18,725.33 527.55,723.53 532.17,722.5 536.8,721.98 
		541.68,722.5 546.31,723.53 550.67,725.33 554.78,727.89 558.38,730.98 561.46,734.57 563.78,738.68 565.579,743.051 
		566.86,747.671 	"/>
	<polygon display="inline" fill="#F8941E" points="567.119,752.301 566.86,757.18 565.579,761.801 563.78,766.171 561.46,770.28 
		558.38,773.87 554.78,776.961 550.67,779.52 546.31,781.32 541.68,782.35 536.8,782.61 532.17,782.35 527.55,781.32 523.18,779.52 
		519.07,776.961 515.47,773.87 512.39,770.28 509.82,766.171 508.02,761.801 506.99,757.18 506.48,752.301 506.99,747.671 
		508.02,743.051 509.82,738.68 512.39,734.57 515.47,730.98 519.07,727.89 523.18,725.33 527.55,723.53 532.17,722.5 536.8,721.98 
		541.68,722.5 546.31,723.53 550.67,725.33 554.78,727.89 558.38,730.98 561.46,734.57 563.78,738.68 565.579,743.051 
		566.86,747.671 	"/>
	<polygon display="inline" fill="#F8941E" points="766.25,569.15 765.22,559.64 763.68,550.4 761.11,541.14 757.77,532.16 
		753.92,523.68 749.289,515.461 744.15,507.49 738.24,500.04 731.56,493.11 724.619,486.94 716.909,481.04 708.949,476.15 
		700.73,471.53 691.99,467.94 682.99,464.85 673.75,462.801 663.22,461.25 652.68,460.75 642.15,460.75 631.61,461.25 
		621.329,462.801 610.8,464.85 600.78,467.43 590.76,470.76 580.99,474.881 550.409,490.03 520.1,505.69 490.039,522.14 
		460.49,539.091 430.94,556.56 424.51,560.16 417.579,562.98 412.709,564.43 410.64,565.04 403.44,566.58 395.99,567.35 
		388.539,567.091 381.09,566.32 373.9,564.78 366.959,562.47 360.28,559.381 353.85,555.53 347.69,551.171 342.289,546.28 
		337.409,540.89 333.039,534.72 329.19,528.56 326.1,521.62 323.789,514.69 321.99,507.49 321.84,506.02 321.22,500.04 
		320.97,492.591 321.74,485.4 323.02,477.95 325.34,471.02 330.22,459.97 335.869,449.19 342.039,438.65 348.97,428.64 
		356.43,419.13 364.39,410.14 372.869,401.4 381.86,393.19 391.11,385.48 401.13,378.55 411.15,371.87 421.94,365.96 432.23,361.07 
		443.01,356.71 454.06,353.12 465.369,350.29 476.67,347.97 488.24,346.43 499.8,345.67 511.36,345.67 522.92,346.17 
		527.039,346.17 531.15,345.41 535.26,343.87 538.86,341.56 541.94,338.73 544.51,335.65 546.56,331.79 548.11,327.94 
		548.61,323.83 548.61,319.72 547.85,315.61 546.56,311.5 544.51,307.9 541.68,304.56 538.6,301.99 535,299.69 531.15,298.39 
		527.039,297.37 512.39,296.34 497.74,295.83 483.1,296.34 468.449,297.37 457.15,299.17 446.1,301.48 435.05,304.56 424.26,308.42 
		413.98,313.04 403.699,318.44 394.199,324.34 381.86,331.54 370.039,339.24 358.74,347.72 347.69,356.71 337.409,366.22 
		327.65,376.49 318.14,387.02 309.659,398.32 301.44,409.88 293.99,421.95 287.31,434.291 281.4,447.131 276,460.23 271.38,473.591 
		269.84,482.841 269.06,492.08 268.81,501.33 269.58,510.58 270.86,519.57 272.92,528.56 275.49,537.551 279.08,546.03 
		282.94,554.51 287.82,562.47 292.96,569.921 298.869,577.11 305.289,583.79 312.23,589.95 319.68,595.61 327.39,600.49 
		335.61,604.85 344.09,608.7 352.829,611.79 361.56,614.1 370.81,615.9 380.06,616.921 389.31,617.19 398.56,616.66 407.56,615.39 
		416.8,613.591 425.539,611.01 434.28,607.671 442.5,603.56 450.72,599.2 458.43,593.81 486.949,577.11 516.25,560.921 
		545.789,545.26 575.6,530.62 605.909,516.48 644.46,506.211 651.65,506.73 658.59,507.75 665.52,509.81 672.21,512.12 
		678.89,515.461 684.789,519.31 690.71,523.421 695.84,528.56 700.47,533.961 704.84,539.61 708.44,545.77 711.26,552.45 
		713.84,559.131 715.369,566.32 716.4,573.26 716.659,581.99 716.4,590.461 715.11,598.95 713.32,607.421 710.75,615.64 
		707.659,623.6 703.81,631.31 699.19,638.5 733.869,678.58 740.039,669.841 745.699,660.85 750.579,651.35 754.68,641.591 
		758.539,631.82 761.369,621.551 763.68,611.27 765.48,600.74 766.25,590.211 766.77,579.671 	"/>
	<polygon display="inline" fill="#F8941E" points="468.449,297.37 394.199,324.34 403.699,318.44 413.98,313.04 424.26,308.42 
		435.05,304.56 446.1,301.48 457.15,299.17 	"/>
	<polygon display="inline" fill="#F8941E" points="527.039,297.37 468.449,297.37 483.1,296.34 497.74,295.83 512.39,296.34 	"/>
	<polygon display="inline" fill="#F8941E" points="548.61,319.72 548.61,323.83 548.11,327.94 546.56,331.79 544.51,335.65 
		541.94,338.73 538.86,341.56 535.26,343.87 531.15,345.41 527.039,346.17 522.92,346.17 527.039,297.37 531.15,298.39 535,299.69 
		538.6,301.99 541.68,304.56 544.51,307.9 546.56,311.5 547.85,315.61 	"/>
</g>
<g>
	<polygon fill="#848484" points="956.75,552.31 957.23,573.42 956.75,594.99 954.41,616.11 951.6,637.22 946.9,658.34 
		941.74,678.97 934.71,699.14 927.19,719.31 917.8,738.55 907.95,757.32 896.69,775.61 884.49,792.97 871.34,809.86 857.28,826.28 
		842.25,841.29 826.3,855.84 809.87,868.98 792.04,881.63 774.21,892.89 755.44,903.21 736.2,912.6 768.36,956.69 513.76,956.69 
		602.93,730.57 635.77,775.61 636.24,775.61 651.26,771.4 666.27,765.76 680.36,759.66 694.43,752.16 707.57,743.25 720.25,733.85 
		731.97,723.54 742.76,712.28 753.09,700.08 762,687.42 770.46,673.82 777.5,659.74 783.59,645.2 788.28,630.19 792.04,615.17 
		794.86,599.69 796.26,583.74 796.74,568.26 795.79,552.31 793.91,536.82 790.63,521.35 787.03,509.81 784.53,501.17 777.02,480.53 
		768.11,460.83 758.25,441.13 747.46,422.36 735.55,404.5 736.2,404.07 747.93,374.51 747.93,374.05 752.16,364.19 758.25,355.28 
		764.83,347.3 772.81,339.79 781.24,333.23 790.63,328.07 800.49,324.31 800.96,324.79 815.04,321.03 829.58,319.16 844.6,318.68 
		859.15,320.56 859.38,320.36 873.23,336.51 886.36,353.4 898.1,370.76 909.36,389.05 919.21,408.29 928.13,427.53 935.64,447.7 
		942.21,467.87 947.84,488.51 952.06,509.62 954.88,530.74 	"/>
</g>
<g>
	<polygon fill="#848484" points="791.56,297.58 779.84,301.79 769.05,307.9 758.72,314.93 749.33,322.9 740.42,331.82 
		732.92,341.67 726.34,352 721.18,363.25 721.66,363.72 658.77,519.94 597.3,676.16 596.82,676.16 587.91,695.86 578.06,715.1 
		567.26,733.85 554.58,751.69 540.98,768.11 526.87,783.58 506.72,774.68 487.48,764.83 468.71,753.57 450.87,740.9 433.52,726.82 
		417.56,712.28 402.55,696.33 388.47,679.44 388.09,679.26 406.77,640.51 424.59,600.62 441.03,560.76 456.5,519.94 470.59,479.13 
		483.73,437.85 495.46,396.09 496.39,396.09 500.15,382.96 505.32,370.76 511.41,359.03 518.92,347.77 526.9,337.45 535.82,327.6 
		545.67,318.68 555.06,312.12 565.39,306.02 575.71,300.86 586.83,297.16 586.97,297.58 	"/>
</g>
<g>
	<polygon fill="#848484" points="456.57,313.15 456.05,313.53 441.03,317.75 426.01,323.38 411.93,329.48 397.86,336.99 
		384.71,345.9 372.04,355.28 360.31,365.59 349.51,376.85 339.19,389.05 330.27,401.72 321.83,415.33 314.8,429.39 308.69,443.94 
		303.99,458.96 300.24,473.97 297.43,489.45 296.02,505.4 295.55,520.88 296.49,536.82 298.36,552.31 301.37,566.45 301.65,566.39 
		307.75,586.08 314.32,605.8 322.3,624.56 331.69,643.32 341.53,661.14 352.79,678.51 365,695.4 378.14,711.35 391.75,726.36 
		406.77,740.9 422.25,754.5 438.68,767.17 455.57,778.9 473.41,789.22 491.71,799.07 491.71,799.55 264.58,799.55 264.58,799.07 
		249.08,785 234.54,770.45 220.93,754.5 208.26,738.08 196.07,721.19 185.26,703.37 175.42,685.07 166.5,666.31 158.53,647.08 
		151.95,627.37 146.32,607.2 141.63,587.03 138.34,566.39 136,545.74 135.05,524.63 135.05,503.99 136.46,483.35 138.81,462.71 
		142.57,442.07 147.27,421.9 153.35,401.72 160.4,382.02 168.37,362.79 177.29,344.02 187.61,326.19 198.87,308.36 210.61,291.48 
		223.75,275.06 237.83,259.58 252.38,245.04 267.87,231.43 284.29,218.3 301.18,206.1 319.01,195.3 337.32,185.45 355.84,176.2 
		323.57,131.98 578.52,131.98 489.36,358.09 	"/>
</g>
<g>
	<polygon fill="#F8941E" points="264.956,806.84 245.189,788.888 230.356,774.021 216.576,757.86 203.8,741.299 191.367,724.043 
		180.416,705.975 170.453,687.432 161.419,668.415 153.313,648.821 146.653,628.849 140.963,608.446 136.198,587.896 
		132.875,567.009 130.505,545.987 129.55,524.63 129.563,503.615 130.995,482.728 133.399,461.724 137.213,440.822 142.004,420.313 
		148.172,399.867 155.319,379.914 163.402,360.429 172.53,341.265 182.959,323.253 194.355,305.22 206.315,288.043 219.681,271.359 
		233.942,255.689 248.75,240.908 264.435,227.135 281.07,213.841 298.331,201.396 316.404,190.456 334.862,180.53 353.547,171.193 
		358.423,168.65 363.51,178.403 358.383,181.077 339.853,190.333 321.738,200.077 304.22,210.689 287.62,222.679 271.404,235.646 
		256.143,249.055 241.812,263.377 227.936,278.632 215.02,294.772 203.455,311.401 192.316,329.039 182.162,346.582 
		173.397,365.025 165.532,384.002 158.576,403.442 152.586,423.319 147.957,443.186 144.254,463.515 141.939,483.848 
		140.55,504.178 140.55,524.506 141.486,545.307 143.791,565.647 147.031,585.973 151.65,605.838 157.21,625.759 163.686,645.154 
		171.527,664.073 180.329,682.586 190.037,700.641 200.659,718.15 212.668,734.79 225.202,751.033 238.583,766.715 252.876,781.018 
		272.349,798.694 	"/>
</g>
<g>
	<rect x="259.08" y="794.05" fill="#F8941E" width="238.13" height="11"/>
</g>
<g>
	<polygon fill="#F8941E" points="302.73,589.689 296.266,568.914 295.986,567.574 292.899,552.969 291,537.144 290.045,520.958 
		290.542,504.916 292.019,488.468 294.904,472.637 298.741,457.317 303.619,441.811 309.88,426.93 317.156,412.432 325.772,398.554 
		334.991,385.498 345.541,373.043 356.679,361.459 368.768,350.859 381.625,341.347 395.27,332.138 409.744,324.433 424.08,318.23 
		439.542,312.455 459.857,306.747 462.833,317.337 442.742,322.982 428.07,328.481 414.322,334.438 400.705,341.706 
		387.891,350.389 375.498,359.563 364.117,369.566 353.598,380.533 343.547,392.416 334.86,404.755 326.637,418.015 
		319.801,431.687 313.862,445.83 309.287,460.449 305.62,475.129 302.887,490.185 301.513,505.726 301.055,520.801 301.971,536.328 
		303.791,551.406 306.979,566.404 313.23,586.409 	"/>
</g>
<g>
	<polygon fill="#F8941E" points="493.946,806.521 470.656,793.98 452.432,783.418 435.322,771.525 418.62,758.632 402.945,744.853 
		387.675,730.055 373.895,714.847 360.542,698.622 348.175,681.502 336.715,663.799 326.771,645.782 317.239,626.713 
		309.102,607.538 302.497,587.708 294.769,562.764 305.276,559.509 312.986,584.396 319.468,603.852 327.294,622.25 
		336.559,640.759 346.25,658.311 357.329,675.4 369.355,692.037 382.302,707.752 395.704,722.533 410.5,736.856 425.748,750.252 
		441.93,762.73 458.521,774.253 476.092,784.417 499.16,796.834 	"/>
</g>
<g>
	<polygon fill="#F8941E" points="354.918,184.229 351.41,179.459 318.772,134.731 315.551,130.274 324.466,123.831 328.027,128.758 
		360.52,173.281 363.779,177.711 	"/>
</g>
<g>
	
		<rect x="528.44" y="118.008" transform="matrix(0.9303 0.3668 -0.3668 0.9303 127.1059 -178.7811)" fill="#F8941E" width="11" height="254.054"/>
</g>
<g>
	<rect x="316.8" y="126.48" fill="#F8941E" width="267.22" height="11"/>
</g>
<g>
	<polygon fill="#F8941E" points="488.159,365.775 451.989,316.196 448.842,311.686 457.864,305.392 461.047,309.956 
		497.045,359.291 	"/>
</g>
<g>
	<polygon fill="#F8941E" points="530.413,790.529 524.648,788.611 504.214,779.575 484.651,769.547 465.525,758.055 
		447.404,745.171 429.816,730.886 413.555,716.05 398.325,699.852 380.724,678.737 389.173,671.694 406.668,692.682 421.42,708.356 
		437.108,722.648 454.199,736.519 471.722,748.963 490.151,760.019 509.086,769.712 528.843,778.438 533.81,780.067 	"/>
</g>
<g>
	<polygon fill="#F8941E" points="526.765,791.83 518.659,784.394 522.817,779.861 536.829,764.501 550.215,748.339 562.625,730.877 
		573.226,712.473 582.954,693.472 594.075,668.883 604.098,673.415 592.806,698.367 582.825,717.845 571.743,737.036 
		558.815,755.198 545.044,771.816 	"/>
</g>
<g>
	<polygon fill="#F8941E" points="600.404,683.292 590.168,679.265 653.651,517.926 718.612,356.564 728.816,360.672 
		663.872,521.994 	"/>
</g>
<g>
	<polygon fill="#F8941E" points="723.886,370.542 713.888,365.956 721.498,349.364 728.544,338.338 736.528,327.933 
		745.771,318.707 755.625,310.383 766.34,303.114 777.538,296.772 794.876,290.544 798.595,300.897 782.142,306.808 
		771.957,312.574 762.056,319.313 753.062,326.947 744.572,335.446 737.436,344.819 731.182,354.636 	"/>
</g>
<g>
	<rect x="581.47" y="292.08" fill="#F8941E" width="215.59" height="11"/>
</g>
<g>
	<polygon fill="#F8941E" points="544.312,326.339 538.011,317.321 552.263,307.384 562.93,301.101 573.602,295.765 585.106,291.935 
		590.281,290.072 594.008,300.421 588.566,302.379 577.818,305.955 568.021,310.854 558.037,316.749 	"/>
</g>
<g>
	<polygon fill="#F8941E" points="500.164,402.892 489.588,399.863 495.086,380.814 500.438,368.226 506.834,355.978 
		514.569,344.406 522.823,333.758 532.128,323.523 546.055,310.912 553.438,319.065 539.714,331.494 531.12,340.983 
		523.389,350.982 516.153,361.831 510.3,373.104 505.345,384.797 	"/>
</g>
<g>
	<polygon fill="#F8941E" points="390.476,686.814 380.626,681.916 383.165,676.811 401.781,638.193 419.536,598.448 
		435.915,558.737 451.328,518.068 465.369,477.397 478.46,436.272 491.652,389.308 502.242,392.282 488.971,439.519 
		475.789,480.925 461.643,521.889 446.114,562.856 429.611,602.863 411.725,642.898 392.925,681.89 	"/>
</g>
<g>
	<polygon fill="#F8941E" points="733.67,919.955 728.845,910.069 752.908,898.326 771.414,888.15 788.979,877.059 806.559,864.587 
		822.725,851.656 838.451,837.311 853.242,822.54 867.078,806.382 880.067,789.698 892.095,772.585 903.168,754.598 
		912.893,736.064 922.131,717.138 929.535,697.274 936.465,677.395 941.548,657.075 946.18,636.258 948.95,615.447 951.257,594.626 
		951.729,573.421 951.255,552.609 949.411,531.342 946.631,510.523 942.484,489.775 936.939,469.447 930.445,449.513 
		923.051,429.65 914.265,410.7 904.563,391.749 893.478,373.743 881.906,356.632 868.97,339.99 855.028,323.742 851.387,319.62 
		859.631,312.337 863.502,316.718 877.572,333.134 890.916,350.319 902.783,367.876 914.256,386.543 924.2,405.977 933.284,425.611 
		940.869,445.997 947.517,466.423 953.233,487.432 957.511,508.892 960.359,530.265 962.249,552.185 962.731,573.419 
		962.729,573.542 962.217,595.596 959.862,616.836 956.969,638.414 952.236,659.675 946.934,680.78 939.863,701.061 
		932.133,721.722 922.67,741.105 912.634,760.204 901.19,778.772 888.83,796.349 875.518,813.438 861.167,830.172 845.957,845.354 
		829.735,860.135 813.053,873.466 794.977,886.28 776.86,897.709 757.853,908.152 	"/>
</g>
<g>
	<polygon fill="#F8941E" points="632.429,782.391 629.46,771.799 649.547,766.169 664.208,760.659 677.971,754.701 691.585,747.444 
		704.388,738.763 716.789,729.568 728.161,719.565 738.671,708.598 748.733,696.714 757.412,684.382 765.655,671.132 
		772.498,657.445 778.417,643.313 782.983,628.701 786.661,614.008 789.403,598.956 790.768,583.414 791.235,568.338 
		790.31,552.806 788.479,537.724 785.303,522.743 779.048,502.725 789.545,499.438 796.01,520.209 799.37,536.157 801.28,551.982 
		802.245,568.182 801.738,584.221 800.271,600.677 797.375,616.506 793.53,631.831 788.663,647.325 782.419,662.2 775.13,676.726 
		766.498,690.585 757.287,703.634 746.73,716.086 735.603,727.67 723.525,738.268 710.657,747.802 697.017,757.014 682.545,764.708 
		668.204,770.908 652.744,776.696 	"/>
</g>
<g>
	<polygon fill="#F8941E" points="786.871,529.089 779.299,502.876 771.922,482.606 763.144,463.195 753.402,443.733 
		742.782,425.259 727.625,402.584 736.745,396.435 740.11,401.425 752.229,419.619 763.168,438.668 773.122,458.563 
		782.188,478.649 789.813,499.641 797.439,526.039 	"/>
</g>
<g>
	<polygon fill="#F8941E" points="767.87,965.318 763.927,959.944 728.516,911.397 737.402,904.915 776.738,958.81 	"/>
</g>
<g>
	
		<rect x="552.845" y="716.597" transform="matrix(0.9303 0.3668 -0.3668 0.9303 348.403 -146.0087)" fill="#F8941E" width="11" height="254.067"/>
</g>
<g>
	<rect x="508.26" y="951.19" fill="#F8941E" width="267.221" height="11"/>
</g>
<g>
	
		<rect x="585.979" y="747.59" transform="matrix(0.5891 0.808 -0.808 0.5891 862.9797 -191.0406)" fill="#F8941E" width="66.741" height="11"/>
</g>
<g>
	
		<rect x="736.565" y="367.889" transform="matrix(0.9295 0.3688 -0.3688 0.9295 195.8965 -246.2469)" fill="#F8941E" width="11" height="42.802"/>
</g>
<g>
	<polygon fill="#F8941E" points="750.815,381.273 740.707,376.936 747.317,361.529 754.007,351.781 761.061,343.294 
		769.432,335.449 778.208,328.621 788.314,323.066 803.67,317.211 807.589,327.49 792.945,333.073 784.272,337.839 776.391,343.972 
		768.853,351.067 762.651,358.587 757.003,366.851 	"/>
</g>
<g>
	<polygon fill="#F8941E" points="797.065,331.523 794.228,320.896 814.339,315.575 829.404,313.663 844.866,313.169 865.31,315.81 
		863.9,326.719 844.333,324.191 830.02,324.649 816.105,326.438 	"/>
</g>
</svg>
