<?xml version="1.0" encoding="utf-8"?>
<!-- Generator: Adobe Illustrator 16.0.0, SVG Export Plug-In . SVG Version: 6.00 Build 0)  -->
<!DOCTYPE svg PUBLIC "-//W3C//DTD SVG 1.1//EN" "http://www.w3.org/Graphics/SVG/1.1/DTD/svg11.dtd">
<svg version="1.1" id="Capa_1" xmlns="http://www.w3.org/2000/svg" xmlns:xlink="http://www.w3.org/1999/xlink" x="0px" y="0px"
	 width="1080px" height="1080px" viewBox="0 0 1080 1080" enable-background="new 0 0 1080 1080" xml:space="preserve">
<g id="Capa_2" display="none">
	<polygon display="inline" fill="#F8941E" points="567.119,752.301 566.86,757.18 565.579,761.801 563.78,766.171 561.46,770.28 
		558.38,773.87 554.78,776.961 550.67,779.52 546.31,781.32 541.68,782.35 536.8,782.61 532.17,782.35 527.55,781.32 523.18,779.52 
		519.07,776.961 515.47,773.87 512.39,770.28 509.82,766.171 508.02,761.801 506.99,757.18 506.48,752.301 506.99,747.671 
		508.02,743.051 509.82,738.68 512.39,734.57 515.47,730.98 519.07,727.89 523.18,725.33 527.55,723.53 532.17,722.5 536.8,721.98 
		541.68,722.5 546.31,723.53 550.67,725.33 554.78,727.89 558.38,730.98 561.46,734.57 563.78,738.68 565.579,743.051 
		566.86,747.671 	"/>
	<path display="inline" fill="#F8941E" d="M886.75,520.591l-1.021-16.69l-2.062-16.7l-2.569-16.439l-3.34-16.181l-4.109-16.18
		l-4.62-15.93l-5.65-15.92l-6.17-15.421l-6.939-15.159l-7.449-14.9l-8.229-14.38l-8.979-14.12l-9.261-13.62l-10.279-13.36
		l-10.53-12.84l-11.3-12.33L772.422,268.6l-12.341-11.04l-12.59-10.8l-13.359-10.011l-13.62-9.51l-14.13-8.979l-14.641-8.221
		l-14.649-7.46l-15.16-6.93l-15.67-6.17l-15.681-5.65l-15.93-4.62l-16.181-4.109l-16.189-3.34l-16.45-2.57l-16.699-2.061
		l-16.44-1.02l-16.7-0.26l-16.7,0.26l-16.71,1.02l-16.439,2.061l-16.44,2.57l-16.45,3.34l-16.189,4.109l-15.931,4.62l-15.67,5.65
		l-15.42,6.17l-15.16,6.93l-14.899,7.46l-14.39,8.221l-14.131,8.979l-13.619,9.51l-13.36,10.011l-12.85,10.8L259.3,268.6
		L247.74,280.42l-11.31,12.33l-10.79,12.84l-10.02,13.36l-9.511,13.62l-8.729,14.12l-8.22,14.38l-7.71,14.9l-6.94,15.159
		l-6.17,15.42l-5.39,15.921l-4.881,15.93l-4.119,16.18l-3.341,16.181l-2.56,16.439l-1.8,16.7l-1.03,16.69l-0.52,16.699l0.52,16.44
		l1.03,16.699l1.8,16.689l2.56,16.439l3.341,16.189l4.119,16.19l4.881,15.92l5.39,15.93l6.17,15.41l6.94,15.149l7.71,14.899
		l8.22,14.391l8.729,14.13l9.511,13.87l10.02,13.101l10.79,12.84l11.31,12.33l11.561,11.82l12.33,11.3l12.85,10.529l13.36,10.021
		l13.619,9.511l14.131,8.989l14.39,8.21l14.9,7.45l15.159,6.939l15.42,6.16l15.671,5.659l15.93,4.881l16.19,3.851l16.449,3.34
		l16.44,2.819l16.439,1.801l16.71,1.029l16.7,0.511l16.7-0.511l16.44-1.029l16.699-1.801l16.45-2.819l16.189-3.34l16.181-3.851
		l15.93-4.881l15.681-5.659l15.67-6.16l15.16-6.939l14.649-7.45l14.641-8.21l14.13-8.989l13.62-9.511l13.359-10.021l12.59-10.529
		l12.341-11.3l11.819-11.82l11.3-12.33l10.53-12.84l10.279-13.101l9.261-13.87l8.979-14.13l8.229-14.391l7.449-14.899l6.939-15.149
		l6.17-15.41l5.65-15.93l4.62-15.92l4.109-16.19l3.34-16.189l2.569-16.439l2.062-16.689l1.021-16.699l0.26-16.44L886.75,520.591z
		 M842.3,553.22l-1.021,15.931l-2.061,15.92L836.65,601l-3.601,15.66l-4.37,15.42l-4.87,15.41l-5.909,14.9l-6.431,14.641
		l-7.189,14.391l-7.971,13.869l-8.479,13.62l-9.25,13.101l-10.01,12.58l-10.54,12.33l-11.05,11.561l-11.56,11.038l-12.08,10.54
		l-12.591,9.761l-13.109,9.239l-13.609,8.74l-14.141,7.96l-14.12,7.189l-14.649,6.431l-15.159,5.909l-15.16,4.881l-15.42,4.369
		l-15.67,3.591l-15.931,2.569l-15.931,2.05l-15.939,1.03l-15.92,0.511l-16.189-0.511l-15.93-1.03l-15.931-2.05l-15.67-2.569
		l-15.68-3.591l-15.67-4.369l-15.16-4.881l-14.9-5.909l-14.649-6.431l-14.391-7.189l-13.88-7.96l-13.61-8.74l-13.109-9.239
		l-12.59-9.761l-12.33-10.54l-11.56-11.039l-11.051-11.561l-10.529-12.33l-9.771-12.58l-9.25-13.101l-8.479-13.619l-7.96-13.87
		l-7.2-14.391l-6.68-14.641l-5.65-14.899l-5.14-15.41l-4.11-15.42l-3.6-15.659l-2.82-15.931l-1.8-15.92l-1.29-15.931l-0.25-15.93
		l0.25-16.181l1.29-15.93l1.8-15.92l2.82-15.93l3.6-15.671l4.11-15.409l5.14-15.15l5.65-15.16l6.68-14.64l7.2-14.391l7.96-13.87
		l8.479-13.62l9.25-13.1l9.771-12.58l10.529-12.33l11.051-11.56l11.56-11.05l12.33-10.53l12.59-9.76l13.109-9.25l13.61-8.73
		l13.88-7.71l14.391-7.45l14.649-6.42l14.9-5.649l15.16-5.141l15.67-4.359l15.68-3.341l15.67-2.829l15.931-2.061l15.93-1.02
		l16.189-0.511l15.92,0.511l15.939,1.02l15.931,2.061l15.931,2.829l15.67,3.341l15.42,4.359l15.16,5.141l15.159,5.649l14.649,6.42
		l14.12,7.45l14.141,7.71l13.609,8.73l13.11,9.25l12.59,9.76l12.08,10.53l11.561,11.05l11.05,11.56l10.54,12.33l10.01,12.58
		l9.25,13.1l8.479,13.62l7.971,13.87l7.189,14.391l6.431,14.64l5.909,15.16l4.87,15.15l4.37,15.409l3.601,15.671l2.569,15.93
		l2.061,15.92l1.021,15.93l0.521,16.181L842.3,553.22z"/>
	<polygon display="inline" fill="#F8941E" points="567.119,752.301 566.86,757.18 565.579,761.801 563.78,766.171 561.46,770.28 
		558.38,773.87 554.78,776.961 550.67,779.52 546.31,781.32 541.68,782.35 536.8,782.61 532.17,782.35 527.55,781.32 523.18,779.52 
		519.07,776.961 515.47,773.87 512.39,770.28 509.82,766.171 508.02,761.801 506.99,757.18 506.48,752.301 506.99,747.671 
		508.02,743.051 509.82,738.68 512.39,734.57 515.47,730.98 519.07,727.89 523.18,725.33 527.55,723.53 532.17,722.5 536.8,721.98 
		541.68,722.5 546.31,723.53 550.67,725.33 554.78,727.89 558.38,730.98 561.46,734.57 563.78,738.68 565.579,743.051 
		566.86,747.671 	"/>
	<polygon display="inline" fill="#F8941E" points="567.119,752.301 566.86,757.18 565.579,761.801 563.78,766.171 561.46,770.28 
		558.38,773.87 554.78,776.961 550.67,779.52 546.31,781.32 541.68,782.35 536.8,782.61 532.17,782.35 527.55,781.32 523.18,779.52 
		519.07,776.961 515.47,773.87 512.39,770.28 509.82,766.171 508.02,761.801 506.99,757.18 506.48,752.301 506.99,747.671 
		508.02,743.051 509.82,738.68 512.39,734.57 515.47,730.98 519.07,727.89 523.18,725.33 527.55,723.53 532.17,722.5 536.8,721.98 
		541.68,722.5 546.31,723.53 550.67,725.33 554.78,727.89 558.38,730.98 561.46,734.57 563.78,738.68 565.579,743.051 
		566.86,747.671 	"/>
	<polygon display="inline" fill="#F8941E" points="766.25,569.15 765.22,559.64 763.68,550.4 761.11,541.14 757.77,532.16 
		753.92,523.68 749.289,515.461 744.15,507.49 738.24,500.04 731.56,493.11 724.619,486.94 716.909,481.04 708.949,476.15 
		700.73,471.53 691.99,467.94 682.99,464.85 673.75,462.801 663.22,461.25 652.68,460.75 642.15,460.75 631.61,461.25 
		621.329,462.801 610.8,464.85 600.78,467.43 590.76,470.76 580.99,474.881 550.409,490.03 520.1,505.69 490.039,522.14 
		460.49,539.091 430.94,556.56 424.51,560.16 417.579,562.98 412.709,564.43 410.64,565.04 403.44,566.58 395.99,567.35 
		388.539,567.091 381.09,566.32 373.9,564.78 366.959,562.47 360.28,559.381 353.85,555.53 347.69,551.171 342.289,546.28 
		337.409,540.89 333.039,534.72 329.19,528.56 326.1,521.62 323.789,514.69 321.99,507.49 321.84,506.02 321.22,500.04 
		320.97,492.591 321.74,485.4 323.02,477.95 325.34,471.02 330.22,459.97 335.869,449.19 342.039,438.65 348.97,428.64 
		356.43,419.13 364.39,410.14 372.869,401.4 381.86,393.19 391.11,385.48 401.13,378.55 411.15,371.87 421.94,365.96 432.23,361.07 
		443.01,356.71 454.06,353.12 465.369,350.29 476.67,347.97 488.24,346.43 499.8,345.67 511.36,345.67 522.92,346.17 
		527.039,346.17 531.15,345.41 535.26,343.87 538.86,341.56 541.94,338.73 544.51,335.65 546.56,331.79 548.11,327.94 
		548.61,323.83 548.61,319.72 547.85,315.61 546.56,311.5 544.51,307.9 541.68,304.56 538.6,301.99 535,299.69 531.15,298.39 
		527.039,297.37 512.39,296.34 497.74,295.83 483.1,296.34 468.449,297.37 457.15,299.17 446.1,301.48 435.05,304.56 424.26,308.42 
		413.98,313.04 403.699,318.44 394.199,324.34 381.86,331.54 370.039,339.24 358.74,347.72 347.69,356.71 337.409,366.22 
		327.65,376.49 318.14,387.02 309.659,398.32 301.44,409.88 293.99,421.95 287.31,434.291 281.4,447.131 276,460.23 271.38,473.591 
		269.84,482.841 269.06,492.08 268.81,501.33 269.58,510.58 270.86,519.57 272.92,528.56 275.49,537.551 279.08,546.03 
		282.94,554.51 287.82,562.47 292.96,569.921 298.869,577.11 305.289,583.79 312.23,589.95 319.68,595.61 327.39,600.49 
		335.61,604.85 344.09,608.7 352.829,611.79 361.56,614.1 370.81,615.9 380.06,616.921 389.31,617.19 398.56,616.66 407.56,615.39 
		416.8,613.591 425.539,611.01 434.28,607.671 442.5,603.56 450.72,599.2 458.43,593.81 486.949,577.11 516.25,560.921 
		545.789,545.26 575.6,530.62 605.909,516.48 644.46,506.211 651.65,506.73 658.59,507.75 665.52,509.81 672.21,512.12 
		678.89,515.461 684.789,519.31 690.71,523.421 695.84,528.56 700.47,533.961 704.84,539.61 708.44,545.77 711.26,552.45 
		713.84,559.131 715.369,566.32 716.4,573.26 716.659,581.99 716.4,590.461 715.11,598.95 713.32,607.421 710.75,615.64 
		707.659,623.6 703.81,631.31 699.19,638.5 733.869,678.58 740.039,669.841 745.699,660.85 750.579,651.35 754.68,641.591 
		758.539,631.82 761.369,621.551 763.68,611.27 765.48,600.74 766.25,590.211 766.77,579.671 	"/>
	<polygon display="inline" fill="#F8941E" points="468.449,297.37 394.199,324.34 403.699,318.44 413.98,313.04 424.26,308.42 
		435.05,304.56 446.1,301.48 457.15,299.17 	"/>
	<polygon display="inline" fill="#F8941E" points="527.039,297.37 468.449,297.37 483.1,296.34 497.74,295.83 512.39,296.34 	"/>
	<polygon display="inline" fill="#F8941E" points="548.61,319.72 548.61,323.83 548.11,327.94 546.56,331.79 544.51,335.65 
		541.94,338.73 538.86,341.56 535.26,343.87 531.15,345.41 527.039,346.17 522.92,346.17 527.039,297.37 531.15,298.39 535,299.69 
		538.6,301.99 541.68,304.56 544.51,307.9 546.56,311.5 547.85,315.61 	"/>
</g>
<g>
	<polygon fill="#F8941E" points="496.974,950.08 860.608,792.488 860.608,648.883 556.71,778.214 496.974,688.79 496.974,950.08 	
		"/>
	<polygon fill="#F8941E" points="461.723,628.202 461.723,943.672 220.174,771.223 220.174,635.192 283.983,688.79 461.723,628.202 
			"/>
	<polygon fill="#F8941E" points="499.597,613.05 576.81,744.428 905.184,602.275 878.095,468.865 499.597,613.05 	"/>
	<polygon fill="#F8941E" points="430.831,606.354 292.431,659.659 83.811,488.088 186.669,401.278 430.831,606.354 	"/>
	<polygon fill="#F8941E" points="395.579,541.391 545.632,479.344 650.525,527.412 463.174,607.224 	"/>
	<line fill="none" x1="463.174" y1="607.224" x2="395.579" y2="541.391"/>
	<polygon fill="#F8941E" points="534.56,407.98 534.56,463.62 381.01,527.7 381.01,473.52 	"/>
	<polygon fill="#F8941E" points="360.32,464.782 360.32,518.381 217.839,397.492 217.839,363.993 360.32,464.782 	"/>
	<polygon fill="#F8941E" points="219.88,339.817 373.727,454.008 517.664,393.125 350.414,286.509 219.88,339.817 	"/>
	<polygon fill="#F8941E" points="564.282,409.145 564.282,468.865 680.246,517.219 680.246,455.459 564.282,409.145 	"/>
	<polygon fill="#F8941E" points="694.816,452.55 694.816,517.801 852.448,453.713 852.448,375.932 694.816,452.55 	"/>
	<polygon fill="#F8941E" points="564.864,387.297 685.786,439.734 839.05,365.747 730.363,302.241 564.864,387.297 	"/>
	<polygon fill="#F8941E" points="555.252,300.492 555.252,372.156 704.141,291.753 704.141,229.415 555.252,300.492 	"/>
	<polygon fill="#F8941E" points="533.979,301.074 533.979,377.4 419.473,307.773 419.473,242.236 533.979,301.074 	"/>
	<polygon fill="#F8941E" points="398.489,293.213 398.489,215.728 522.033,152.803 162.479,296.998 197.739,384.676 
		197.739,327.001 350.707,262.622 398.489,293.213 	"/>
	<polygon fill="#F8941E" points="566.617,161.251 434.331,222.135 545.344,285.635 690.734,214.56 566.617,161.251 	"/>
	<polygon fill="#F8941E" points="729.78,213.978 729.78,271.943 881.299,361.662 881.299,393.125 950.352,322.047 729.78,213.978 	
		"/>
</g>
</svg>
