<?xml version="1.0" encoding="utf-8"?>
<!-- Generator: Adobe Illustrator 16.0.0, SVG Export Plug-In . SVG Version: 6.00 Build 0)  -->
<!DOCTYPE svg PUBLIC "-//W3C//DTD SVG 1.1//EN" "http://www.w3.org/Graphics/SVG/1.1/DTD/svg11.dtd">
<svg version="1.1" id="Capa_1" xmlns="http://www.w3.org/2000/svg" xmlns:xlink="http://www.w3.org/1999/xlink" x="0px" y="0px"
	 width="1080px" height="1080px" viewBox="0 0 1080 1080" enable-background="new 0 0 1080 1080" xml:space="preserve">
<g id="Capa_2" display="none">
	<polygon display="inline" fill="#F8941E" points="567.119,752.301 566.86,757.18 565.579,761.801 563.78,766.171 561.46,770.28 
		558.38,773.87 554.78,776.961 550.67,779.52 546.31,781.32 541.68,782.35 536.8,782.61 532.17,782.35 527.55,781.32 523.18,779.52 
		519.07,776.961 515.47,773.87 512.39,770.28 509.82,766.171 508.02,761.801 506.99,757.18 506.48,752.301 506.99,747.671 
		508.02,743.051 509.82,738.68 512.39,734.57 515.47,730.98 519.07,727.89 523.18,725.33 527.55,723.53 532.17,722.5 536.8,721.98 
		541.68,722.5 546.31,723.53 550.67,725.33 554.78,727.89 558.38,730.98 561.46,734.57 563.78,738.68 565.579,743.051 
		566.86,747.671 	"/>
	<path display="inline" fill="#F8941E" d="M886.75,520.591l-1.021-16.688l-2.062-16.7l-2.569-16.439l-3.34-16.181l-4.106-16.18
		l-4.62-15.933l-5.65-15.92l-6.17-15.421l-6.938-15.159l-7.448-14.9l-8.229-14.38l-8.979-14.12l-9.264-13.62l-10.276-13.36
		l-10.53-12.84l-11.3-12.33L772.422,268.6l-12.341-11.04l-12.59-10.8l-13.359-10.011l-13.62-9.51l-14.13-8.979l-14.641-8.221
		l-14.649-7.46l-15.16-6.93l-15.67-6.17l-15.681-5.65l-15.93-4.62L598.47,175.1l-16.188-3.34l-16.45-2.57l-16.699-2.061
		l-16.438-1.02l-16.7-0.26l-16.7,0.26l-16.71,1.02l-16.438,2.061l-16.438,2.57l-16.45,3.34l-16.188,4.109l-15.934,4.62l-15.67,5.65
		l-15.42,6.17l-15.16,6.93l-14.896,7.46l-14.393,8.221l-14.131,8.979l-13.619,9.51l-13.36,10.011l-12.85,10.8L259.3,268.6
		l-11.56,11.82l-11.31,12.33l-10.79,12.84l-10.02,13.36l-9.511,13.62l-8.729,14.12l-8.22,14.38l-7.71,14.9l-6.94,15.159l-6.17,15.42
		l-5.39,15.921l-4.881,15.933l-4.119,16.18l-3.341,16.181l-2.56,16.439l-1.8,16.7l-1.03,16.688l-0.52,16.699l0.52,16.438
		l1.03,16.699l1.8,16.689l2.56,16.438l3.341,16.189l4.119,16.188l4.881,15.922l5.39,15.931l6.17,15.409l6.94,15.147l7.71,14.899
		l8.22,14.391l8.729,14.13l9.511,13.87l10.02,13.103l10.79,12.841l11.31,12.33l11.561,11.817l12.33,11.302l12.85,10.527
		l13.36,10.021l13.619,9.511l14.131,8.989l14.393,8.21l14.897,7.449l15.159,6.938l15.42,6.16l15.671,5.659l15.93,4.881l16.19,3.851
		l16.449,3.342l16.438,2.817l16.439,1.801l16.71,1.029l16.7,0.511l16.698-0.511l16.439-1.029l16.699-1.801l16.449-2.817
		l16.188-3.342l16.182-3.851l15.932-4.881l15.681-5.659l15.67-6.16l15.16-6.938l14.649-7.449l14.641-8.21l14.13-8.989l13.62-9.511
		l13.359-10.021l12.59-10.527l12.341-11.302l11.819-11.817l11.3-12.33l10.53-12.841l10.276-13.103l9.262-13.87l8.979-14.13
		l8.229-14.391l7.447-14.899l6.939-15.147l6.17-15.409l5.647-15.931l4.62-15.922l4.109-16.188l3.34-16.189l2.569-16.438
		l2.062-16.689l1.021-16.698l0.26-16.438L886.75,520.591z M842.3,553.22l-1.021,15.934l-2.063,15.92L836.65,601l-3.604,15.66
		l-4.37,15.42l-4.87,15.41L817.9,662.39l-6.434,14.644l-7.188,14.391l-7.974,13.869l-8.479,13.62l-9.25,13.101l-10.01,12.58
		l-10.54,12.33l-11.051,11.563l-11.562,11.038l-12.08,10.539l-12.591,9.762l-13.109,9.238l-13.606,8.738l-14.144,7.96l-14.12,7.189
		l-14.646,6.431l-15.159,5.909l-15.16,4.881l-15.42,4.369l-15.67,3.591l-15.931,2.569l-15.934,2.05l-15.938,1.03l-15.92,0.511
		l-16.189-0.511l-15.93-1.03l-15.931-2.05l-15.671-2.569l-15.682-3.591l-15.67-4.369l-15.16-4.881l-14.897-5.909l-14.649-6.431
		l-14.391-7.189l-13.88-7.96l-13.61-8.738l-13.108-9.238l-12.591-9.762l-12.33-10.539l-11.56-11.039l-11.051-11.563l-10.529-12.33
		l-9.771-12.58l-9.25-13.101l-8.479-13.619l-7.96-13.87l-7.2-14.391l-6.68-14.644l-5.65-14.896l-5.14-15.41l-4.11-15.42l-3.6-15.659
		l-2.82-15.931l-1.8-15.92l-1.29-15.934l-0.25-15.93l0.25-16.181l1.29-15.933l1.8-15.92l2.82-15.93l3.6-15.671l4.11-15.409
		l5.14-15.148l5.65-15.159l6.68-14.643l7.2-14.391l7.96-13.87l8.479-13.62l9.25-13.1l9.771-12.58l10.529-12.33l11.051-11.56
		l11.56-11.05l12.33-10.53l12.591-9.76l13.108-9.25l13.61-8.729l13.88-7.71l14.391-7.45l14.649-6.42l14.897-5.649l15.16-5.141
		l15.67-4.359l15.682-3.341l15.671-2.829l15.931-2.061l15.93-1.02l16.189-0.511l15.92,0.511l15.938,1.02l15.934,2.061l15.931,2.829
		l15.67,3.341l15.42,4.359l15.16,5.141l15.159,5.649l14.647,6.42l14.119,7.45l14.144,7.71l13.606,8.729l13.11,9.25l12.59,9.76
		l12.08,10.53l11.563,11.05l11.051,11.56l10.54,12.33l10.01,12.58l9.25,13.1l8.479,13.62l7.973,13.87l7.188,14.391l6.434,14.643
		l5.908,15.159l4.868,15.148l4.37,15.409l3.604,15.671l2.566,15.93l2.063,15.92l1.021,15.933l0.521,16.181L842.3,553.22z"/>
	<polygon display="inline" fill="#F8941E" points="567.119,752.301 566.86,757.18 565.579,761.801 563.78,766.171 561.46,770.28 
		558.38,773.87 554.78,776.961 550.67,779.52 546.31,781.32 541.68,782.35 536.8,782.61 532.17,782.35 527.55,781.32 523.18,779.52 
		519.07,776.961 515.47,773.87 512.39,770.28 509.82,766.171 508.02,761.801 506.99,757.18 506.48,752.301 506.99,747.671 
		508.02,743.051 509.82,738.68 512.39,734.57 515.47,730.98 519.07,727.89 523.18,725.33 527.55,723.53 532.17,722.5 536.8,721.98 
		541.68,722.5 546.31,723.53 550.67,725.33 554.78,727.89 558.38,730.98 561.46,734.57 563.78,738.68 565.579,743.051 
		566.86,747.671 	"/>
	<polygon display="inline" fill="#F8941E" points="567.119,752.301 566.86,757.18 565.579,761.801 563.78,766.171 561.46,770.28 
		558.38,773.87 554.78,776.961 550.67,779.52 546.31,781.32 541.68,782.35 536.8,782.61 532.17,782.35 527.55,781.32 523.18,779.52 
		519.07,776.961 515.47,773.87 512.39,770.28 509.82,766.171 508.02,761.801 506.99,757.18 506.48,752.301 506.99,747.671 
		508.02,743.051 509.82,738.68 512.39,734.57 515.47,730.98 519.07,727.89 523.18,725.33 527.55,723.53 532.17,722.5 536.8,721.98 
		541.68,722.5 546.31,723.53 550.67,725.33 554.78,727.89 558.38,730.98 561.46,734.57 563.78,738.68 565.579,743.051 
		566.86,747.671 	"/>
	<polygon display="inline" fill="#F8941E" points="766.25,569.15 765.22,559.64 763.68,550.4 761.11,541.14 757.77,532.16 
		753.92,523.68 749.289,515.461 744.15,507.49 738.24,500.04 731.56,493.11 724.619,486.94 716.909,481.04 708.949,476.15 
		700.73,471.53 691.99,467.94 682.99,464.85 673.75,462.801 663.22,461.25 652.68,460.75 642.15,460.75 631.61,461.25 
		621.329,462.801 610.8,464.85 600.78,467.43 590.76,470.76 580.99,474.881 550.409,490.03 520.1,505.69 490.039,522.14 
		460.49,539.091 430.94,556.56 424.51,560.16 417.579,562.98 412.709,564.43 410.64,565.04 403.44,566.58 395.99,567.35 
		388.539,567.091 381.09,566.32 373.9,564.78 366.959,562.47 360.28,559.381 353.85,555.53 347.69,551.171 342.289,546.28 
		337.409,540.89 333.039,534.72 329.19,528.56 326.1,521.62 323.789,514.69 321.99,507.49 321.84,506.02 321.22,500.04 
		320.97,492.591 321.74,485.4 323.02,477.95 325.34,471.02 330.22,459.97 335.869,449.19 342.039,438.65 348.97,428.64 
		356.43,419.13 364.39,410.14 372.869,401.4 381.86,393.19 391.11,385.48 401.13,378.55 411.15,371.87 421.94,365.96 432.23,361.07 
		443.01,356.71 454.06,353.12 465.369,350.29 476.67,347.97 488.24,346.43 499.8,345.67 511.36,345.67 522.92,346.17 
		527.039,346.17 531.15,345.41 535.26,343.87 538.86,341.56 541.94,338.73 544.51,335.65 546.56,331.79 548.11,327.94 
		548.61,323.83 548.61,319.72 547.85,315.61 546.56,311.5 544.51,307.9 541.68,304.56 538.6,301.99 535,299.69 531.15,298.39 
		527.039,297.37 512.39,296.34 497.74,295.83 483.1,296.34 468.449,297.37 457.15,299.17 446.1,301.48 435.05,304.56 424.26,308.42 
		413.98,313.04 403.699,318.44 394.199,324.34 381.86,331.54 370.039,339.24 358.74,347.72 347.69,356.71 337.409,366.22 
		327.65,376.49 318.14,387.02 309.659,398.32 301.44,409.88 293.99,421.95 287.31,434.291 281.4,447.131 276,460.23 271.38,473.591 
		269.84,482.841 269.06,492.08 268.81,501.33 269.58,510.58 270.86,519.57 272.92,528.56 275.49,537.551 279.08,546.03 
		282.94,554.51 287.82,562.47 292.96,569.921 298.869,577.11 305.289,583.79 312.23,589.95 319.68,595.61 327.39,600.49 
		335.61,604.85 344.09,608.7 352.829,611.79 361.56,614.1 370.81,615.9 380.06,616.921 389.31,617.19 398.56,616.66 407.56,615.39 
		416.8,613.591 425.539,611.01 434.28,607.671 442.5,603.56 450.72,599.2 458.43,593.81 486.949,577.11 516.25,560.921 
		545.789,545.26 575.6,530.62 605.909,516.48 644.46,506.211 651.65,506.73 658.59,507.75 665.52,509.81 672.21,512.12 
		678.89,515.461 684.789,519.31 690.71,523.421 695.84,528.56 700.47,533.961 704.84,539.61 708.44,545.77 711.26,552.45 
		713.84,559.131 715.369,566.32 716.4,573.26 716.659,581.99 716.4,590.461 715.11,598.95 713.32,607.421 710.75,615.64 
		707.659,623.6 703.81,631.31 699.19,638.5 733.869,678.58 740.039,669.841 745.699,660.85 750.579,651.35 754.68,641.591 
		758.539,631.82 761.369,621.551 763.68,611.27 765.48,600.74 766.25,590.211 766.77,579.671 	"/>
	<polygon display="inline" fill="#F8941E" points="468.449,297.37 394.199,324.34 403.699,318.44 413.98,313.04 424.26,308.42 
		435.05,304.56 446.1,301.48 457.15,299.17 	"/>
	<polygon display="inline" fill="#F8941E" points="527.039,297.37 468.449,297.37 483.1,296.34 497.74,295.83 512.39,296.34 	"/>
	<polygon display="inline" fill="#F8941E" points="548.61,319.72 548.61,323.83 548.11,327.94 546.56,331.79 544.51,335.65 
		541.94,338.73 538.86,341.56 535.26,343.87 531.15,345.41 527.039,346.17 522.92,346.17 527.039,297.37 531.15,298.39 535,299.69 
		538.6,301.99 541.68,304.56 544.51,307.9 546.56,311.5 547.85,315.61 	"/>
</g>
<g>
	<g id="XMLID_1_">
		<g>
			<polygon fill="#F8941E" points="827.83,699.32 814.89,721.5 704.32,657.55 717.08,635.37 			"/>
			<polygon fill="#F8941E" points="644.05,717.99 707.84,828.7 685.65,841.46 621.68,730.74 			"/>
			<rect x="513.51" y="752.92" fill="#F8941E" width="25.89" height="127.72"/>
			<polygon fill="#F8941E" points="431.24,730.74 367.27,841.46 345.08,828.7 408.87,717.99 			"/>
			<polygon fill="#F8941E" points="335.84,635.37 348.6,657.55 238.03,721.5 225.09,699.32 			"/>
			<polygon fill="#F8941E" points="682.13,462.37 648.12,462.37 642.2,462.55 636.1,463.3 630.18,464.59 624.45,466.25 
				618.9,468.28 613.54,470.87 608.36,474.01 603.37,477.34 598.75,481.22 594.32,485.48 526.46,485.48 458.6,485.48 454.17,481.22 
				449.54,477.34 444.55,474.01 439.38,470.87 434.02,468.28 428.47,466.25 422.74,464.59 416.82,463.3 410.72,462.55 404.8,462.37 
				370.78,462.37 376.33,457.57 381.88,453.31 387.98,449.43 394.08,446.11 400.55,442.96 407.21,440.38 414.04,438.34 
				420.89,436.68 427.91,435.39 435.12,434.65 442.15,434.46 526.46,434.46 610.77,434.46 617.79,434.65 625,435.39 632.03,436.68 
				638.87,438.34 645.71,440.38 652.37,442.96 658.84,446.11 664.94,449.43 671.04,453.31 676.59,457.57 			"/>
			<polygon fill="#F8941E" points="404.8,552.94 407.58,552.75 410.35,552.01 413.12,550.72 415.34,549.06 417.38,547.02 
				419.04,544.62 420.33,542.03 421.07,539.26 421.25,536.49 421.07,533.72 420.33,530.94 419.04,528.17 417.38,525.95 
				415.34,523.92 413.12,522.26 410.35,520.96 407.58,520.22 404.8,520.04 391.31,520.04 389.82,524.84 388.53,529.83 
				387.79,534.82 387.61,539.82 387.79,544.81 388.53,549.79 389.64,554.79 391.31,559.59 393.34,564.21 395.74,568.65 
				398.52,572.71 401.84,576.59 405.35,580.29 409.24,583.43 413.31,586.39 417.74,588.79 422.37,590.83 427.17,592.49 
				432.17,593.6 437.16,594.34 442.15,594.52 442.15,594.71 526.46,594.71 610.77,594.71 610.77,594.52 615.76,594.34 620.75,593.6 
				625.75,592.49 630.55,590.83 635.18,588.79 639.61,586.39 643.68,583.43 647.56,580.29 651.08,576.59 654.4,572.71 
				657.18,568.65 659.58,564.21 661.61,559.59 663.28,554.79 664.38,549.79 665.12,544.81 665.31,539.82 665.12,534.82 
				664.38,529.83 663.09,524.84 661.61,520.04 648.12,520.04 645.34,520.22 642.57,520.96 639.98,522.26 637.58,523.92 
				635.54,525.95 633.88,528.17 632.59,530.94 631.84,533.72 631.66,536.49 631.84,539.26 632.59,542.03 633.88,544.62 
				635.54,547.02 637.58,549.06 639.98,550.72 642.57,552.01 645.34,552.75 648.12,552.94 649.41,552.94 647.56,557.19 
				645.53,561.26 642.76,564.95 639.79,568.46 636.29,571.61 632.59,574.38 628.52,576.59 624.26,578.26 619.83,579.55 
				615.39,580.48 610.77,580.66 610.77,580.85 607.26,580.85 607.26,580.66 603.37,576.96 600.04,572.9 597.09,568.46 
				594.32,563.84 592.09,558.85 590.43,553.86 589.14,548.69 588.21,543.33 587.84,538.15 588.03,532.79 588.58,527.43 
				589.51,522.26 590.98,517.08 593.02,512.09 595.42,507.28 598.19,502.66 601.34,498.41 604.85,494.53 608.92,490.83 
				612.99,487.51 617.61,484.55 622.23,482.15 627.22,479.93 632.22,478.27 637.39,477.16 642.76,476.42 648.12,476.23 
				896.24,476.23 901.42,476.42 906.78,477.16 911.77,478.27 916.76,479.93 921.75,481.96 926.37,484.37 930.81,487.14 
				935.06,490.28 938.94,493.79 942.46,497.67 945.6,501.93 948.37,506.36 950.78,510.98 952.81,515.97 954.48,520.96 
				955.58,525.95 956.33,531.31 956.51,536.49 956.33,541.66 955.58,547.02 954.48,552.01 952.81,557 950.78,562 948.37,566.62 
				945.6,571.05 942.46,575.3 938.94,579.18 935.06,582.7 930.81,585.84 926.37,588.61 921.75,591.01 916.76,593.04 911.77,594.71 
				906.78,595.82 901.42,596.56 896.24,596.74 715.78,596.74 719.12,589.9 722.07,582.7 724.66,575.49 726.69,568.1 728.17,560.52 
				729.28,552.94 729.47,552.94 896.24,552.94 899.01,552.75 901.78,552.01 904.56,550.72 906.78,549.06 908.81,547.02 
				910.47,544.62 911.77,542.03 912.51,539.26 912.69,536.49 912.51,533.72 911.77,530.94 910.47,528.17 908.81,525.95 
				906.78,523.92 904.56,522.26 901.78,520.96 899.01,520.22 896.24,520.04 714.31,520.04 715.41,527.06 715.97,534.27 
				716.16,541.29 715.78,548.5 715.05,555.53 713.75,562.55 711.9,569.57 709.68,576.41 707.09,582.88 703.95,589.35 700.44,595.63 
				696.37,601.55 692.12,607.28 687.31,612.45 682.32,617.63 676.77,622.25 671.04,626.5 665.12,630.38 658.84,633.89 
				652.37,636.85 645.71,639.62 639.05,641.66 632.03,643.32 625,644.61 617.98,645.35 610.77,645.54 526.46,645.54 442.15,645.54 
				434.94,645.35 427.91,644.61 420.89,643.32 413.86,641.66 407.21,639.62 400.55,636.85 394.08,633.89 387.79,630.38 
				381.88,626.5 376.15,622.25 370.6,617.63 365.6,612.45 360.8,607.28 356.54,601.55 352.48,595.63 348.96,589.35 345.82,582.88 
				343.23,576.41 341.02,569.57 339.17,562.55 337.87,555.53 337.13,548.5 336.76,541.29 336.95,534.27 337.5,527.06 338.61,520.04 
				156.68,520.04 153.91,520.22 151.14,520.96 148.55,522.26 146.14,523.92 144.11,525.95 142.44,528.17 141.15,530.94 
				140.41,533.72 140.23,536.49 140.41,539.26 141.15,542.03 142.44,544.62 144.11,547.02 146.14,549.06 148.55,550.72 
				151.14,552.01 153.91,552.75 156.68,552.94 323.45,552.94 323.63,552.94 324.74,560.52 326.23,568.1 328.26,575.49 330.85,582.7 
				333.8,589.9 337.13,596.74 156.68,596.74 151.5,596.56 146.14,595.82 141.15,594.71 136.16,593.04 131.16,591.01 126.54,588.61 
				122.11,585.84 117.86,582.7 113.97,579.18 110.46,575.3 107.31,571.05 104.54,566.62 102.14,562 100.11,557 98.44,552.01 
				97.33,547.02 96.59,541.66 96.41,536.49 96.59,531.31 97.33,525.95 98.44,520.96 100.11,515.97 102.14,510.98 104.54,506.36 
				107.31,501.93 110.46,497.67 113.97,493.79 117.86,490.28 122.11,487.14 126.54,484.37 131.16,481.96 136.16,479.93 
				141.15,478.27 146.14,477.16 151.5,476.42 156.68,476.23 404.8,476.23 410.16,476.42 415.53,477.16 420.7,478.27 425.69,479.93 
				430.68,482.15 435.31,484.55 439.93,487.51 444,490.83 448.07,494.53 451.58,498.41 454.72,502.66 457.5,507.28 459.9,512.09 
				461.93,517.08 463.41,522.26 464.33,527.43 464.89,532.79 465.08,538.15 464.71,543.33 463.78,548.69 462.48,553.86 
				460.82,558.85 458.6,563.84 455.83,568.46 452.88,572.9 449.54,576.96 445.66,580.66 445.66,580.85 442.15,580.85 442.15,580.66 
				437.53,580.48 433.09,579.55 428.66,578.26 424.4,576.59 420.33,574.38 416.63,571.61 413.12,568.46 410.16,564.95 
				407.39,561.26 405.35,557.19 403.51,552.94 			"/>
			<polygon fill="#F8941E" points="814.89,358.5 827.83,380.86 717.08,444.81 704.32,422.45 			"/>
			<polygon fill="#F8941E" points="707.84,251.48 644.05,362.19 621.68,349.26 685.65,238.54 			"/>
			<rect x="513.51" y="199.36" fill="#F8941E" width="25.89" height="127.9"/>
			<polygon fill="#F8941E" points="367.27,238.54 431.24,349.26 408.87,362.19 345.08,251.48 			"/>
			<polygon fill="#F8941E" points="348.6,422.45 335.84,444.81 225.09,380.86 238.03,358.5 			"/>
		</g>
		<g>
		</g>
	</g>
</g>
</svg>
