<?xml version="1.0" encoding="utf-8"?>
<!-- Generator: Adobe Illustrator 16.0.0, SVG Export Plug-In . SVG Version: 6.00 Build 0)  -->
<!DOCTYPE svg PUBLIC "-//W3C//DTD SVG 1.1//EN" "http://www.w3.org/Graphics/SVG/1.1/DTD/svg11.dtd">
<svg version="1.1" id="Capa_1" xmlns="http://www.w3.org/2000/svg" xmlns:xlink="http://www.w3.org/1999/xlink" x="0px" y="0px"
	 width="446.854px" height="446.854px" viewBox="0 0 446.854 446.854" enable-background="new 0 0 446.854 446.854"
	 xml:space="preserve">
<g>
	<g id="XMLID_1_">
		<g>
			<rect x="157.186" y="334.526" fill="#848484" width="75.141" height="25.17"/>
			<polygon fill="#848484" points="232.486,200.567 232.486,208.237 209.427,208.237 193.067,237.757 179.656,199.487 
				167.217,221.766 155.686,174.647 135.846,236.896 124.147,189.237 112.777,208.567 81.507,208.567 81.507,200.837 
				108.377,200.837 127.156,169.116 136.806,208.567 156.706,146.246 170.056,200.936 181.266,180.817 194.677,219.027 
				204.917,200.567 			"/>
			<polygon fill="#848484" points="350.316,110.717 350.316,213.607 345.436,209.906 340.287,206.576 334.927,203.627 
				334.927,110.717 334.717,108.786 334.177,106.906 333.266,105.186 332.026,103.686 330.476,102.456 328.757,101.536 
				326.886,100.947 324.957,100.737 64.567,100.737 62.636,100.947 60.757,101.536 59.036,102.456 57.487,103.686 56.246,105.186 
				55.337,106.906 54.806,108.786 54.587,110.717 54.587,293.736 54.806,295.667 55.337,297.547 56.246,299.266 57.487,300.827 
				59.036,302.056 60.757,302.967 62.636,303.556 64.567,303.717 227.177,303.717 229.537,309.037 232.327,314.186 235.436,319.127 
				64.567,319.127 61.237,318.917 58.016,318.266 54.857,317.196 51.906,315.747 49.116,313.867 46.647,311.667 44.447,309.196 
				42.627,306.457 41.127,303.457 40.056,300.287 39.406,297.066 39.197,293.736 39.197,110.717 39.406,107.447 40.056,104.167 
				41.127,101.007 42.627,98.056 44.447,95.257 46.647,92.797 49.116,90.596 51.906,88.766 54.857,87.266 58.016,86.246 
				61.237,85.547 64.567,85.326 324.957,85.326 328.276,85.547 331.497,86.246 334.657,87.266 337.606,88.766 340.396,90.596 
				342.867,92.797 345.066,95.257 346.886,98.056 348.386,101.007 349.467,104.167 350.106,107.447 			"/>
			<path fill="#F8941E" d="M422.566,361.146l-8.689,11.17l-62.431-48.85l-4.02,3.92l-4.29,3.55l-4.62,3.221l-4.82,2.84l-5.039,2.47
				l-5.261,2.04l-5.359,1.66l-5.471,1.18l-5.529,0.75l-5.63,0.33l-5.58-0.11l-5.58-0.59l-5.521-0.97l-5.42-1.45l-5.31-1.87
				l-5.09-2.26l-4.94-2.68l-4.72-3.061l-4.45-3.439l-4.18-3.75l-3.86-4.08l-3.49-4.351l-3.16-4.62l-2.84-4.88l-2.37-5.1l-2.029-5.2
				l-1.561-5.42l-1.13-5.479l-0.75-5.58l-0.21-5.58l0.16-5.641l0.59-5.58l1.07-5.529l1.51-5.42l1.87-5.261l2.31-5.1l2.73-4.94
				l3.109-4.659l3.44-4.46l3.8-4.131l4.08-3.81l4.4-3.49l4.659-3.11l4.881-2.8l5.1-2.36l5.26-1.93l5.41-1.5l5.47-1.13l5.58-0.64
				l5.58-0.22l5.63,0.22l5.58,0.69l5.471,1.08l5.42,1.55l5.25,1.99l5.04,2.36l4.88,2.74l4.67,3.16l4.399,3.49l4.07,3.82l3.81,4.18
				l3.44,4.4l3.05,4.72l2.74,4.891l2.3,5.149l1.88,5.26l1.5,5.421l1.021,5.529l0.59,5.58l0.16,5.59l-0.271,5.63l-0.689,5.58
				l-1.181,5.48l-1.56,5.36l-2.04,5.26l-2.41,5.1l-2.79,4.83L422.566,361.146z M355.787,274.367l-0.21-4.891l-0.641-4.83l-1.02-4.72
				l-1.5-4.62l-1.83-4.5l-2.25-4.3l-2.63-4.13l-2.95-3.811l-3.271-3.6l-3.59-3.271l-3.81-2.949l-4.13-2.63l-4.29-2.26l-4.45-1.88
				l-4.67-1.45l-4.72-1.02l-4.83-0.64l-4.82-0.21l-4.83,0.21l-4.83,0.64l-4.72,1.02l-4.66,1.45l-4.45,1.88l-4.3,2.26l-4.13,2.63
				l-3.8,2.949l-3.601,3.271l-3.27,3.6l-2.95,3.811l-2.63,4.13l-2.25,4.3l-1.82,4.5l-1.5,4.62l-1.02,4.72l-0.65,4.83l-0.21,4.891
				l0.21,4.829l0.65,4.83l1.02,4.721l1.5,4.67l1.82,4.45l2.25,4.35l2.63,4.08l2.95,3.87l3.27,3.54l3.601,3.33l3.8,2.949l4.13,2.57
				l4.3,2.26l4.45,1.88l4.66,1.45l4.72,1.07l4.83,0.59l4.83,0.21l4.82-0.21l4.83-0.59l4.72-1.07l4.67-1.45l4.45-1.88l4.29-2.26
				l4.13-2.57l3.81-2.949l3.59-3.33l3.271-3.54l2.95-3.87l2.63-4.08l2.25-4.35l1.83-4.45l1.5-4.67l1.02-4.721l0.641-4.83
				L355.787,274.367z"/>
		</g>
		<g>
		</g>
	</g>
</g>
</svg>
