<?xml version="1.0" encoding="utf-8"?>
<!-- Generator: Adobe Illustrator 16.0.0, SVG Export Plug-In . SVG Version: 6.00 Build 0)  -->
<!DOCTYPE svg PUBLIC "-//W3C//DTD SVG 1.1//EN" "http://www.w3.org/Graphics/SVG/1.1/DTD/svg11.dtd">
<svg version="1.1" id="Capa_1" xmlns="http://www.w3.org/2000/svg" xmlns:xlink="http://www.w3.org/1999/xlink" x="0px" y="0px"
	 width="446.854px" height="446.854px" viewBox="0 0 446.854 446.854" enable-background="new 0 0 446.854 446.854"
	 xml:space="preserve">
<path fill="#F8941E" d="M389.482,91.698l-0.43-3.27l-0.721-3.26l-1.029-3.14l-1.271-3.1l-1.51-2.89l-1.75-2.84l-2.06-2.61
	l-2.24-2.47l-2.41-2.24l-2.66-2l-2.78-1.75l-2.96-1.58l-3.02-1.26l-3.21-0.97l-3.2-0.74l-3.26-0.41l-3.33-0.18H223.452l-6.891,0.18
	l-6.83,0.41l-6.891,0.67l-6.77,1.04l-6.77,1.26l-6.65,1.58l-6.64,1.8l-6.53,2.07l-6.47,2.42l-6.341,2.59l-6.229,2.91l-6.101,3.15
	l-5.989,3.39l-5.8,3.62l-5.68,3.93l-5.5,4.12l-5.32,4.29l-5.2,4.59l-4.95,4.73l-4.72,4.96l-4.591,5.19l-4.289,5.32l-4.11,5.5
	l-3.87,5.7l-3.619,5.87l-3.451,5.92l-3.14,6.17l-2.84,6.22l-2.66,6.36l-2.36,6.47l-2.119,6.54l-1.811,6.65l-1.51,6.71l-1.27,6.72
	l-1.03,6.83l-0.72,6.84l-0.42,6.88l-0.131,6.83l0.131,6.91l0.42,6.88l0.72,6.84l1.03,6.78l1.27,6.779l1.51,6.711l1.811,6.641
	l2.119,6.529l2.36,6.48l2.66,6.35l2.84,6.23l3.14,6.109l3.451,5.98l3.619,5.809l3.87,5.682l4.11,5.568l4.289,5.32l4.591,5.141
	l4.72,4.959l4.95,4.781l5.2,4.539l5.32,4.35l5.5,4.111l5.68,3.869l5.8,3.631l5.989,3.449l6.101,3.15l6.229,2.84l6.341,2.66
	l6.47,2.359l6.53,2.121l6.64,1.809l6.65,1.57l6.77,1.271l6.77,0.969l6.891,0.73l6.83,0.42l6.891,0.119l6.83-0.119l6.899-0.42
	l6.83-0.73l6.76-0.969l6.78-1.271l6.71-1.57l6.58-1.809l6.52-2.121l6.48-2.359l6.35-2.66l6.22-2.84l6.101-3.15l5.99-3.449l5.8-3.631
	l5.68-3.869l5.5-4.111l5.38-4.35l5.141-4.539l4.949-4.781l4.78-4.959l4.53-5.141l4.29-5.32l4.109-5.568l3.87-5.682l3.69-5.809
	l3.38-5.98l3.14-6.109l2.91-6.23l2.59-6.35l2.36-6.48l2.12-6.529l1.81-6.641l1.57-6.711l1.27-6.779l0.971-6.78l0.72-6.84l0.43-6.88
	l0.12-6.91V95.027L389.482,91.698z M322.642,280.138l-0.41,5.1l-1.34,4.859l-2.15,4.631l-2.88,4.139l-3.58,3.58l-4.22,2.951
	l-4.54,2.16l-4.95,1.27l-5.01,0.49v14.49l-0.56,5.199l-1.521,5.02l-2.38,4.531l-3.35,4.08l-3.98,3.26l-4.61,2.469l-4.949,1.512
	l-5.181,0.488h-44.43l-2.399-0.488l-2.07-1.361l-1.28-1.98l-0.479-2.389l0.479-2.4l1.28-1.99l2.07-1.359l2.399-0.471h44.43
	l3.67-0.469l3.351-1.441l2.95-2.24l2.229-2.859l1.35-3.43l0.48-3.68v-14.49h-16.65v-78.6h38.71v-34.841l-0.55-8.92l-1.439-8.85
	l-2.561-8.61l-3.33-8.21l-4.39-7.89l-5.18-7.25l-5.891-6.7l-6.7-5.98l-7.239-5.18l-7.891-4.3l-8.21-3.44l-8.59-2.46l-8.76-1.52
	l-8.93-0.47l-8.92,0.47l-8.84,1.52l-8.591,2.46l-8.21,3.44l-7.811,4.3l-7.319,5.18l-6.7,5.98l-5.89,6.7l-5.181,7.25l-4.299,7.89
	l-3.42,8.21l-2.48,8.61l-1.52,8.85l-0.471,8.92v34.841h38.641v78.6h-29.07l-5.1-0.49l-4.861-1.27l-4.619-2.16l-4.15-2.951
	l-3.58-3.58l-2.939-4.139l-2.16-4.631l-1.27-4.859l-0.49-5.1v-84.261l0.49-9.72l1.439-9.65l2.38-9.47l3.271-9.18l4.14-8.84
	l5.021-8.37l5.81-7.81l6.521-7.25l7.18-6.54l7.89-5.83l8.28-5.02l8.84-4.13l9.16-3.27l9.47-2.4l9.649-1.44l9.711-0.47l9.72,0.47
	l9.64,1.44l9.4,2.4l9.16,3.27l8.84,4.13l8.37,5.02l7.8,5.83l7.17,6.54l6.53,7.25l5.819,7.81l5.011,8.37l4.149,8.84l3.26,9.18
	l2.4,9.47l1.43,9.65l0.48,9.72V280.138z"/>
</svg>
