<?xml version="1.0" encoding="utf-8"?>
<!-- Generator: Adobe Illustrator 16.0.0, SVG Export Plug-In . SVG Version: 6.00 Build 0)  -->
<!DOCTYPE svg PUBLIC "-//W3C//DTD SVG 1.1//EN" "http://www.w3.org/Graphics/SVG/1.1/DTD/svg11.dtd">
<svg version="1.1" id="Capa_1" xmlns="http://www.w3.org/2000/svg" xmlns:xlink="http://www.w3.org/1999/xlink" x="0px" y="0px"
	 width="446.854px" height="446.854px" viewBox="0 0 446.854 446.854" enable-background="new 0 0 446.854 446.854"
	 xml:space="preserve">
<g>
	<g id="XMLID_1_">
		<g>
			<path fill="#848484" d="M169.677,148.886l0.01-0.17l0.64-4.18l0.99-4.13l1.34-4l1.72-3.88l2.02-3.74l2.36-3.49l2.63-3.31
				l2.97-3.06l3.18-2.75l-5.16-8.09l-3.01,1.07l-3.1,0.73l-3.18,0.39h-3.19l-3.14-0.34l-3.14-0.69l-3.01-1.04l-2.88-1.37l-2.71-1.68
				l-2.49-1.94l-2.28-2.24l-1.98-2.49l-1.72-2.72l-1.42-2.84l-1.08-3.01l-0.73-3.1l-0.39-3.18v-3.19l0.31-3.19l0.68-3.09l1.04-3.02
				l1.37-2.88l1.68-2.71l1.94-2.54l2.23-2.28l2.5-1.98l2.66-1.73l2.84-1.42l3.01-1.07l3.1-0.78l3.18-0.38h3.19l3.14,0.3l3.14,0.69
				l3.01,1.03l2.88,1.33l2.71,1.68l2.54,1.94l2.23,2.24l2.03,2.45l1.76,2.71l1.38,2.84l1.11,3.02l0.74,3.1l0.38,3.14l0.05,3.23
				l-0.3,3.14l-0.69,3.14l-0.99,3.01l-1.34,2.89l-1.67,2.75l-1.94,2.5l-2.24,2.28l5.17,8.09l3.74-1.72l3.87-1.38l3.96-1.03
				l4.04-0.69l4.08-0.34h4.13l4.09,0.34l4.04,0.73l3.96,1.04l3.87,1.37l3.75,1.73l3.569,2.02l3.351,2.32l3.18,2.59l22.28-20.36
				l-1.59-2.8l-1.24-2.93l-0.91-3.05l-0.56-3.15l-0.171-3.18l0.131-3.19l0.52-3.14l0.86-3.1l1.2-2.97l1.51-2.8l1.8-2.62l2.11-2.37
				l2.369-2.15l2.58-1.9l2.75-1.55l2.971-1.24l3.05-0.91l3.1-0.56l3.181-0.21l3.189,0.13l3.18,0.51l3.051,0.82l2.97,1.21l2.8,1.5
				l2.62,1.81l2.41,2.11l2.149,2.37l1.851,2.58l1.59,2.75l1.25,2.93l0.9,3.06l0.6,3.14l0.22,3.18l-0.17,3.19l-0.479,3.19l-0.86,3.05
				l-1.16,2.97l-1.5,2.8l-1.81,2.63l-2.11,2.41l-2.32,2.15l-2.579,1.89l-2.761,1.59l-2.92,1.25l-3.05,0.95l-3.14,0.56l-3.19,0.26
				l-3.18-0.13l-3.141-0.52l-3.1-0.82l-2.92-1.16l-2.84-1.5l-2.62-1.81l-22.24,20.36l2.45,3.66l2.06,3.83l1.771,4l1.37,4.13
				l0.99,4.26l0.609,4.35l0.21,4.39l-0.21,4.35l39.521,7.66l1.3-2.88l1.63-2.76l1.89-2.58l2.2-2.28l2.45-2.07l2.62-1.8l2.84-1.47
				l2.97-1.12l3.101-0.82l3.14-0.47l3.18-0.09l3.181,0.26l3.1,0.65l3.05,0.95l2.931,1.29l2.75,1.59l2.54,1.94l2.319,2.19l2.07,2.41
				l1.76,2.63l1.51,2.84l1.11,2.97l0.82,3.1l0.47,3.14l0.09,3.19l-0.26,3.18l-0.601,3.14l-0.949,3.06l-1.29,2.93l-1.59,2.75
				l-1.891,2.54l-2.189,2.33l-2.41,2.11l-2.63,1.76l-2.84,1.51l-2.971,1.16l-3.09,0.82l-3.14,0.43l-3.181,0.13l-3.189-0.26
				l-3.09-0.6l-3.061-0.95l-2.92-1.25l-2.76-1.64l-2.58-1.89l-2.32-2.15l-2.069-2.41l-1.801-2.67l-1.46-2.8l-1.17-2.97l-0.859-3.1
				l-0.471-3.14l-0.08-3.19l-39.529-7.66l-1.34,3.88l-1.721,3.78l-1.979,3.62l-2.32,3.4l-2.58,3.23l-2.88,2.97l-3.1,2.71v-13.82
				l2.189-3.1l1.851-3.27l1.55-3.44l1.21-3.62l0.81-3.7l0.48-3.74l0.08-3.79l-0.26-3.79l-0.681-3.7l-0.99-3.66l-1.38-3.53
				l-1.72-3.36l-2.02-3.23l-2.37-2.97l-2.62-2.71l-2.88-2.45l-3.101-2.15l-3.31-1.85l-3.48-1.51l-3.58-1.12l-3.7-0.82l-3.78-0.39
				l-3.79-0.08l-3.74,0.34l-3.74,0.69l-3.61,1.08l-3.49,1.42l-3.35,1.76l-3.18,2.07l-2.93,2.37l-2.71,2.67l-2.41,2.92l-2.11,3.14
				l-1.8,3.32l-1.46,3.49l-1.08,3.61l-0.78,3.75l-0.38,3.74v3.79l0.38,3.79l0.74,3.7l1.12,3.61l1.46,3.49l1.76,3.36l2.15,3.14
				l2.41,2.89l-48.86,34.43l1.16,2.97l0.86,3.1l0.51,3.14l0.18,3.19l-0.22,3.18l-0.56,3.15l-0.9,3.05l-1.25,2.93l-1.55,2.8
				l-1.85,2.58l-2.15,2.37l-2.41,2.11l-2.58,1.8l-2.79,1.55l-2.97,1.21l-3.05,0.86l-3.14,0.52l-3.19,0.17l-3.18-0.22l-3.14-0.56
				l-3.05-0.9l-2.97-1.21l-2.76-1.55l-2.62-1.89l-2.37-2.11l-2.1-2.41l-1.81-2.58l-1.55-2.8l-1.2-2.97l-0.86-3.061l-0.52-3.14
				l-0.17-3.18l0.17-3.19l0.56-3.14l0.86-3.1l1.25-2.93l1.55-2.79l1.85-2.59l2.1-2.37l2.41-2.15l2.58-1.85l2.8-1.5l2.92-1.25
				l3.1-0.86l3.14-0.52l3.18-0.17l3.19,0.17l3.14,0.52l3.05,0.9l2.93,1.21l2.79,1.55l2.58,1.85l2.41,2.1l40.82-28.75l-1.93-3.79
				l-1.55-3.91l-1.21-4.05l-0.86-4.18l-0.3-2.71l-0.17-1.5l-0.13-4.22L169.677,148.886z M350.047,175.877l-0.18-2.45l-0.471-2.37
				l-0.77-2.33l-1.08-2.19l-1.38-2.02l-1.59-1.85l-1.851-1.64l-2.02-1.33l-2.19-1.08l-2.33-0.77l-2.359-0.52l-2.45-0.13l-2.45,0.13
				l-2.37,0.52l-2.32,0.77l-2.199,1.08l-2.021,1.33l-1.85,1.64l-1.59,1.85l-1.381,2.02l-1.069,2.19l-0.78,2.33l-0.47,2.37
				l-0.17,2.45l0.17,2.45l0.47,2.41l0.78,2.29l1.069,2.19l1.381,2.07l1.59,1.81l1.85,1.63l2.021,1.34l2.199,1.07l2.32,0.82
				l2.37,0.47l2.45,0.13l2.45-0.13l2.359-0.47l2.33-0.82l2.19-1.07l2.02-1.34l1.851-1.63l1.59-1.81l1.38-2.07l1.08-2.19l0.77-2.29
				l0.471-2.41L350.047,175.877z M314.297,82.167l-0.17-2.45l-0.48-2.41l-0.77-2.33l-1.07-2.19l-1.38-2.02l-1.59-1.81l-1.851-1.64
				l-2.02-1.38l-2.2-1.07l-2.32-0.78l-2.359-0.47l-2.46-0.17l-2.41,0.17l-2.41,0.47l-2.32,0.78l-2.189,1.07l-2.021,1.38l-1.85,1.64
				l-1.59,1.81l-1.38,2.02l-1.07,2.19l-0.78,2.33l-0.47,2.41l-0.18,2.45l0.18,2.41l0.47,2.41l0.78,2.33l1.07,2.19l1.38,2.03
				l1.59,1.85l1.85,1.59l2.021,1.38l2.189,1.07l2.32,0.78l2.41,0.47l2.41,0.17l2.46-0.17l2.359-0.47l2.32-0.78l2.2-1.07l2.02-1.38
				l1.851-1.59l1.59-1.85l1.38-2.03l1.07-2.19l0.77-2.33l0.48-2.41L314.297,82.167z M189.987,81.826l-0.13-2.46l-0.47-2.36
				l-0.82-2.33l-1.07-2.19l-1.34-2.03l-1.63-1.85l-1.81-1.63l-2.06-1.34l-2.15-1.07l-2.33-0.82l-2.4-0.47l-2.46-0.13l-2.41,0.13
				l-2.4,0.47l-2.33,0.82l-2.19,1.07l-2.02,1.34l-1.81,1.63l-1.63,1.85l-1.34,2.03l-1.07,2.19l-0.82,2.33l-0.47,2.36l-0.18,2.46
				l0.18,2.45l0.47,2.37l0.82,2.32l1.07,2.2l1.34,2.02l1.63,1.85l1.81,1.64l2.02,1.33l2.19,1.08l2.33,0.82l2.4,0.47l2.41,0.13
				l2.46-0.13l2.4-0.47l2.33-0.82l2.15-1.08l2.06-1.33l1.81-1.64l1.63-1.85l1.34-2.02l1.07-2.2l0.82-2.32l0.47-2.37L189.987,81.826z
				 M133.297,226.236l-0.17-2.45l-0.48-2.41l-0.77-2.33l-1.08-2.19l-1.37-2.02l-1.59-1.85l-1.85-1.6l-2.02-1.38l-2.2-1.07
				l-2.32-0.78l-2.37-0.47l-2.45-0.17l-2.41,0.17l-2.41,0.47l-2.32,0.78l-2.19,1.07l-2.02,1.38l-1.85,1.6l-1.6,1.85l-1.37,2.02
				l-1.08,2.19l-0.77,2.33l-0.47,2.41l-0.18,2.45l0.18,2.41l0.47,2.41l0.77,2.33l1.08,2.19l1.37,2.029l1.6,1.851l1.85,1.59
				l2.02,1.38l2.19,1.07l2.32,0.779l2.41,0.471l2.41,0.17l2.45-0.17l2.37-0.471l2.32-0.779l2.2-1.07l2.02-1.38l1.85-1.59l1.59-1.851
				l1.37-2.029l1.08-2.19l0.77-2.33l0.48-2.41L133.297,226.236z"/>
			<path fill="#848484" d="M169.686,158.656h-27.01l-0.73,3.15l-1.08,3.01l-1.38,2.84l-1.72,2.71l-1.98,2.5l-2.28,2.24l-2.49,1.98
				l-2.71,1.67l-2.88,1.38l-3.01,1.04l-3.1,0.73l-3.14,0.34h-3.18l-3.19-0.39l-3.09-0.73l-3.01-1.03l-2.89-1.38l-2.66-1.72
				l-2.5-1.98l-2.28-2.28l-1.98-2.5l-1.67-2.71l-1.38-2.84l-1.08-3.01l-0.68-3.15l-0.35-3.14v-3.18l0.35-3.19l0.68-3.1l1.08-3.01
				l1.38-2.89l1.67-2.71l1.98-2.49l2.28-2.29l2.5-1.98l2.66-1.67l2.89-1.42l3.01-1.04l3.09-0.73l3.19-0.34l3.18-0.05l3.14,0.39
				l3.1,0.69l3.01,1.03l2.88,1.38l2.71,1.68l2.49,1.98l2.28,2.28l1.98,2.45l1.72,2.71l1.38,2.89l1.08,3.01l0.73,3.1h27l-0.25,4.05
				l0.13,4.22l0.17,1.5H169.686z M133.297,153.797l-0.17-2.45l-0.48-2.42l-0.77-2.32l-1.08-2.2l-1.37-2.02l-1.59-1.85l-1.85-1.59
				l-2.02-1.38l-2.2-1.08l-2.32-0.77l-2.37-0.47l-2.45-0.18l-2.41,0.18l-2.41,0.47l-2.32,0.77l-2.19,1.08l-2.02,1.38l-1.85,1.59
				l-1.6,1.85l-1.37,2.02l-1.08,2.2l-0.77,2.32l-0.47,2.42l-0.18,2.45l0.18,2.41l0.47,2.41l0.77,2.32l1.08,2.2l1.37,2.02l1.6,1.85
				l1.85,1.6l2.02,1.37l2.19,1.08l2.32,0.77l2.41,0.48l2.41,0.17l2.45-0.17l2.37-0.48l2.32-0.77l2.2-1.08l2.02-1.37l1.85-1.6
				l1.59-1.85l1.37-2.02l1.08-2.2l0.77-2.32l0.48-2.41L133.297,153.797z"/>
			<path fill="#F8941E" d="M190.467,283.276l-1.47-2.54l-1.8-2.279l-2.11-2.07l-2.41-1.72l-2.54-1.38l-2.75-1.03l-2.88-0.65
				l-2.93-0.26l-2.92,0.18l-2.89,0.511l-2.75,0.949l-2.62,1.29l-4.6,4.131l48.47,94.529l2.28,3.141l2.54,2.97l2.84,2.67l3.05,2.41
				l3.27,2.109l3.44,1.811l3.62,1.46l3.69,1.12l3.83,0.77l3.869,0.391h65.04l3.91-1.29l3.75-1.63l3.57-1.98l3.4-2.24l3.22-2.54
				l2.93-2.84l2.71-3.06l2.45-3.311l2.11-3.489l1.8-3.66l1.51-3.83l1.12-3.92l0.81-4v-95.261l-0.51-2.109l-0.859-1.98l-1.16-1.81
				l-1.511-1.59l-1.76-1.25l-1.979-0.94l-2.07-0.56l-2.15-0.221l-2.149,0.221l-2.11,0.56l-1.93,0.94l-1.76,1.29l-1.511,1.55
				l-1.199,1.81l-0.86,1.98l-0.48,2.149v13.86l-0.17,1.25l-0.47,1.21l-0.78,0.99l-1.029,0.77l-1.16,0.521l-1.29,0.17l-1.25-0.17
				l-1.16-0.521l-1.03-0.77l-0.779-0.99l-0.471-1.21l-0.17-1.25v-22.68l-0.43-2.11l-0.78-1.939l-1.11-1.851l-1.47-1.55l-1.68-1.29
				l-1.84-0.99l-2.07-0.64l-2.11-0.26l-2.1,0.13l-2.07,0.47l-1.93,0.86l-1.81,1.159l-1.511,1.511l-1.239,1.72l-0.91,1.9l-0.561,2.06
				l-0.21,2.11v22.729l-0.17,1.29l-0.479,1.16l-0.771,1.04l-1.03,0.77l-1.159,0.471l-1.301,0.18l-1.239-0.18l-1.16-0.471l-1.04-0.77
				l-0.771-1.04l-0.47-1.16l-0.18-1.29v-30.05l-0.431-1.89l-0.729-1.771l-0.99-1.67l-1.24-1.51l-1.42-1.29l-1.64-1.04l-1.76-0.811
				l-1.851-0.52l-1.939-0.21l-1.931,0.08l-1.89,0.35l-1.81,0.681l-1.721,0.909l-1.55,1.16l-1.33,1.42l-1.12,1.591l-0.859,1.729
				l-0.561,1.85l-0.3,1.891v32.5l-0.17,1.29l-0.48,1.16l-0.77,1.04l-1.03,0.77l-1.17,0.47l-1.29,0.181l-1.24-0.181l-1.21-0.47
				l-0.989-0.77l-0.771-1.04l-0.52-1.16l-0.13-1.29v-49.54v-13.95v-39.34l-0.21-2.07l-0.521-2.02l-0.9-1.9l-1.159-1.68l-1.471-1.46
				l-1.72-1.2l-1.85-0.87l-2.021-0.56l-2.06-0.17l-2.07,0.17l-2.02,0.56l-1.85,0.87l-1.72,1.2l-1.46,1.46l-1.21,1.68l-0.85,1.9
				l-0.52,2.02l-0.22,2.07v104.34v13.73l-0.17,1.329l-0.51,1.29l-0.78,1.16l-1.03,0.91l-1.21,0.64l-1.29,0.391l-1.37,0.05
				l-1.38-0.26l-1.25-0.61l-1.07-0.859l-0.86-1.07L190.467,283.276z M344.797,258.346v96.34l-0.78,4.391l-1.109,4.3l-1.471,4.18
				l-1.76,4.04l-2.11,3.92l-2.409,3.75l-2.66,3.53l-2.971,3.31l-3.18,3.101l-3.45,2.8l-3.649,2.54l-3.83,2.24l-4,1.93l-4.13,1.59
				l-4.21,1.3h-66.631l-4.09-0.39l-4-0.69l-3.96-0.989l-3.83-1.33l-3.74-1.641l-3.61-1.89l-3.44-2.2l-3.23-2.5l-3.05-2.71
				l-2.84-2.92l-2.54-3.189l-2.32-3.36l-52.14-101.58l10.85-9.82l2.83-1.59l3.01-1.29l3.15-0.99l3.18-0.649l3.27-0.3l3.27,0.05
				l3.22,0.38l3.18,0.689l3.1,1.03l2.97,1.38l2.84,1.681l2.62,1.939l2.41,2.19l2.15,2.46l1.89,2.67l1.64,2.84v-104.34l0.17-2.85
				l0.56-2.79l0.9-2.67l1.25-2.58l1.59-2.33l1.85-2.15l2.15-1.89l2.37-1.55l2.54-1.25l2.66-0.95l2.8-0.56l2.84-0.17l2.84,0.17
				l2.75,0.56l2.71,0.95l2.54,1.25l2.36,1.55l2.109,1.89l1.891,2.15l1.6,2.33l1.24,2.58l0.91,2.67l0.56,2.79l0.17,2.85v53.29
				l2.28-1.47l2.41-1.2l2.58-0.82l2.659-0.56l2.67-0.17l2.711,0.17l2.67,0.52l2.529,0.86l2.46,1.16l2.28,1.46l2.061,1.77l1.81,2.021
				l1.54,2.189l1.25,2.41l2.03-1.89l2.189-1.591l2.45-1.289l2.54-0.95l2.67-0.65l2.71-0.25l2.75,0.08l2.71,0.43l2.58,0.78l2.49,1.12
				l2.37,1.46l2.109,1.72l1.891,1.98l1.59,2.2l1.33,2.409l0.99,2.58l2.149-1.76l2.37-1.42l2.5-1.08l2.66-0.78l2.71-0.38l2.75-0.05
				l2.76,0.311l2.67,0.68l2.57,1.04l2.41,1.37l2.2,1.64l1.93,1.94l1.72,2.189l1.38,2.41l1.03,2.54l0.729,2.67L344.797,258.346z"/>
		</g>
		<g>
		</g>
	</g>
</g>
</svg>
