<?xml version="1.0" encoding="utf-8"?>
<!-- Generator: Adobe Illustrator 16.0.0, SVG Export Plug-In . SVG Version: 6.00 Build 0)  -->
<!DOCTYPE svg PUBLIC "-//W3C//DTD SVG 1.1//EN" "http://www.w3.org/Graphics/SVG/1.1/DTD/svg11.dtd">
<svg version="1.1" id="Capa_1" xmlns="http://www.w3.org/2000/svg" xmlns:xlink="http://www.w3.org/1999/xlink" x="0px" y="0px"
	 width="1080px" height="1080px" viewBox="0 0 1080 1080" enable-background="new 0 0 1080 1080" xml:space="preserve">
<g id="Capa_2" display="none">
	<polygon display="inline" fill="#F8941E" points="567.119,752.301 566.86,757.18 565.579,761.801 563.78,766.171 561.46,770.28 
		558.38,773.87 554.78,776.961 550.67,779.52 546.31,781.32 541.68,782.35 536.8,782.61 532.17,782.35 527.55,781.32 523.18,779.52 
		519.07,776.961 515.47,773.87 512.39,770.28 509.82,766.171 508.02,761.801 506.99,757.18 506.48,752.301 506.99,747.671 
		508.02,743.051 509.82,738.68 512.39,734.57 515.47,730.98 519.07,727.89 523.18,725.33 527.55,723.53 532.17,722.5 536.8,721.98 
		541.68,722.5 546.31,723.53 550.67,725.33 554.78,727.89 558.38,730.98 561.46,734.57 563.78,738.68 565.579,743.051 
		566.86,747.671 	"/>
	<path display="inline" fill="#F8941E" d="M886.75,520.591l-1.021-16.69l-2.062-16.7l-2.569-16.439l-3.34-16.181l-4.109-16.18
		l-4.62-15.93l-5.65-15.92l-6.17-15.421l-6.939-15.159l-7.449-14.9l-8.229-14.38l-8.979-14.12l-9.261-13.62l-10.279-13.36
		l-10.53-12.84l-11.3-12.33L772.422,268.6l-12.341-11.04l-12.59-10.8l-13.359-10.011l-13.62-9.51l-14.13-8.979l-14.641-8.221
		l-14.649-7.46l-15.16-6.93l-15.67-6.17l-15.681-5.65l-15.93-4.62l-16.181-4.109l-16.189-3.34l-16.45-2.57l-16.699-2.061
		l-16.44-1.02l-16.7-0.26l-16.7,0.26l-16.71,1.02l-16.439,2.061l-16.44,2.57l-16.45,3.34l-16.189,4.109l-15.931,4.62l-15.67,5.65
		l-15.42,6.17l-15.16,6.93l-14.899,7.46l-14.39,8.221l-14.131,8.979l-13.619,9.51l-13.36,10.011l-12.85,10.8L259.3,268.6
		L247.74,280.42l-11.31,12.33l-10.79,12.84l-10.02,13.36l-9.511,13.62l-8.729,14.12l-8.22,14.38l-7.71,14.9l-6.94,15.159
		l-6.17,15.42l-5.39,15.921l-4.881,15.93l-4.119,16.18l-3.341,16.181l-2.56,16.439l-1.8,16.7l-1.03,16.69l-0.52,16.699l0.52,16.44
		l1.03,16.699l1.8,16.689l2.56,16.439l3.341,16.189l4.119,16.19l4.881,15.92l5.39,15.93l6.17,15.41l6.94,15.149l7.71,14.899
		l8.22,14.391l8.729,14.13l9.511,13.87l10.02,13.101l10.79,12.84l11.31,12.33l11.561,11.82l12.33,11.3l12.85,10.529l13.36,10.021
		l13.619,9.511l14.131,8.989l14.39,8.21l14.9,7.45l15.159,6.939l15.42,6.16l15.671,5.659l15.93,4.881l16.19,3.851l16.449,3.34
		l16.44,2.819l16.439,1.801l16.71,1.029l16.7,0.511l16.7-0.511l16.44-1.029l16.699-1.801l16.45-2.819l16.189-3.34l16.181-3.851
		l15.93-4.881l15.681-5.659l15.67-6.16l15.16-6.939l14.649-7.45l14.641-8.21l14.13-8.989l13.62-9.511l13.359-10.021l12.59-10.529
		l12.341-11.3l11.819-11.82l11.3-12.33l10.53-12.84l10.279-13.101l9.261-13.87l8.979-14.13l8.229-14.391l7.449-14.899l6.939-15.149
		l6.17-15.41l5.65-15.93l4.62-15.92l4.109-16.19l3.34-16.189l2.569-16.439l2.062-16.689l1.021-16.699l0.26-16.44L886.75,520.591z
		 M842.3,553.22l-1.021,15.931l-2.061,15.92L836.65,601l-3.601,15.66l-4.37,15.42l-4.87,15.41l-5.909,14.9l-6.431,14.641
		l-7.189,14.391l-7.971,13.869l-8.479,13.62l-9.25,13.101l-10.01,12.58l-10.54,12.33l-11.05,11.561l-11.56,11.038l-12.08,10.54
		l-12.591,9.761l-13.109,9.239l-13.609,8.74l-14.141,7.96l-14.12,7.189l-14.649,6.431l-15.159,5.909l-15.16,4.881l-15.42,4.369
		l-15.67,3.591l-15.931,2.569l-15.931,2.05l-15.939,1.03l-15.92,0.511l-16.189-0.511l-15.93-1.03l-15.931-2.05l-15.67-2.569
		l-15.68-3.591l-15.67-4.369l-15.16-4.881l-14.9-5.909l-14.649-6.431l-14.391-7.189l-13.88-7.96l-13.61-8.74l-13.109-9.239
		l-12.59-9.761l-12.33-10.54l-11.56-11.039l-11.051-11.561l-10.529-12.33l-9.771-12.58l-9.25-13.101l-8.479-13.619l-7.96-13.87
		l-7.2-14.391l-6.68-14.641l-5.65-14.899l-5.14-15.41l-4.11-15.42l-3.6-15.659l-2.82-15.931l-1.8-15.92l-1.29-15.931l-0.25-15.93
		l0.25-16.181l1.29-15.93l1.8-15.92l2.82-15.93l3.6-15.671l4.11-15.409l5.14-15.15l5.65-15.16l6.68-14.64l7.2-14.391l7.96-13.87
		l8.479-13.62l9.25-13.1l9.771-12.58l10.529-12.33l11.051-11.56l11.56-11.05l12.33-10.53l12.59-9.76l13.109-9.25l13.61-8.73
		l13.88-7.71l14.391-7.45l14.649-6.42l14.9-5.649l15.16-5.141l15.67-4.359l15.68-3.341l15.67-2.829l15.931-2.061l15.93-1.02
		l16.189-0.511l15.92,0.511l15.939,1.02l15.931,2.061l15.931,2.829l15.67,3.341l15.42,4.359l15.16,5.141l15.159,5.649l14.649,6.42
		l14.12,7.45l14.141,7.71l13.609,8.73l13.11,9.25l12.59,9.76l12.08,10.53l11.561,11.05l11.05,11.56l10.54,12.33l10.01,12.58
		l9.25,13.1l8.479,13.62l7.971,13.87l7.189,14.391l6.431,14.64l5.909,15.16l4.87,15.15l4.37,15.409l3.601,15.671l2.569,15.93
		l2.061,15.92l1.021,15.93l0.521,16.181L842.3,553.22z"/>
	<polygon display="inline" fill="#F8941E" points="567.119,752.301 566.86,757.18 565.579,761.801 563.78,766.171 561.46,770.28 
		558.38,773.87 554.78,776.961 550.67,779.52 546.31,781.32 541.68,782.35 536.8,782.61 532.17,782.35 527.55,781.32 523.18,779.52 
		519.07,776.961 515.47,773.87 512.39,770.28 509.82,766.171 508.02,761.801 506.99,757.18 506.48,752.301 506.99,747.671 
		508.02,743.051 509.82,738.68 512.39,734.57 515.47,730.98 519.07,727.89 523.18,725.33 527.55,723.53 532.17,722.5 536.8,721.98 
		541.68,722.5 546.31,723.53 550.67,725.33 554.78,727.89 558.38,730.98 561.46,734.57 563.78,738.68 565.579,743.051 
		566.86,747.671 	"/>
	<polygon display="inline" fill="#F8941E" points="567.119,752.301 566.86,757.18 565.579,761.801 563.78,766.171 561.46,770.28 
		558.38,773.87 554.78,776.961 550.67,779.52 546.31,781.32 541.68,782.35 536.8,782.61 532.17,782.35 527.55,781.32 523.18,779.52 
		519.07,776.961 515.47,773.87 512.39,770.28 509.82,766.171 508.02,761.801 506.99,757.18 506.48,752.301 506.99,747.671 
		508.02,743.051 509.82,738.68 512.39,734.57 515.47,730.98 519.07,727.89 523.18,725.33 527.55,723.53 532.17,722.5 536.8,721.98 
		541.68,722.5 546.31,723.53 550.67,725.33 554.78,727.89 558.38,730.98 561.46,734.57 563.78,738.68 565.579,743.051 
		566.86,747.671 	"/>
	<polygon display="inline" fill="#F8941E" points="766.25,569.15 765.22,559.64 763.68,550.4 761.11,541.14 757.77,532.16 
		753.92,523.68 749.289,515.461 744.15,507.49 738.24,500.04 731.56,493.11 724.619,486.94 716.909,481.04 708.949,476.15 
		700.73,471.53 691.99,467.94 682.99,464.85 673.75,462.801 663.22,461.25 652.68,460.75 642.15,460.75 631.61,461.25 
		621.329,462.801 610.8,464.85 600.78,467.43 590.76,470.76 580.99,474.881 550.409,490.03 520.1,505.69 490.039,522.14 
		460.49,539.091 430.94,556.56 424.51,560.16 417.579,562.98 412.709,564.43 410.64,565.04 403.44,566.58 395.99,567.35 
		388.539,567.091 381.09,566.32 373.9,564.78 366.959,562.47 360.28,559.381 353.85,555.53 347.69,551.171 342.289,546.28 
		337.409,540.89 333.039,534.72 329.19,528.56 326.1,521.62 323.789,514.69 321.99,507.49 321.84,506.02 321.22,500.04 
		320.97,492.591 321.74,485.4 323.02,477.95 325.34,471.02 330.22,459.97 335.869,449.19 342.039,438.65 348.97,428.64 
		356.43,419.13 364.39,410.14 372.869,401.4 381.86,393.19 391.11,385.48 401.13,378.55 411.15,371.87 421.94,365.96 432.23,361.07 
		443.01,356.71 454.06,353.12 465.369,350.29 476.67,347.97 488.24,346.43 499.8,345.67 511.36,345.67 522.92,346.17 
		527.039,346.17 531.15,345.41 535.26,343.87 538.86,341.56 541.94,338.73 544.51,335.65 546.56,331.79 548.11,327.94 
		548.61,323.83 548.61,319.72 547.85,315.61 546.56,311.5 544.51,307.9 541.68,304.56 538.6,301.99 535,299.69 531.15,298.39 
		527.039,297.37 512.39,296.34 497.74,295.83 483.1,296.34 468.449,297.37 457.15,299.17 446.1,301.48 435.05,304.56 424.26,308.42 
		413.98,313.04 403.699,318.44 394.199,324.34 381.86,331.54 370.039,339.24 358.74,347.72 347.69,356.71 337.409,366.22 
		327.65,376.49 318.14,387.02 309.659,398.32 301.44,409.88 293.99,421.95 287.31,434.291 281.4,447.131 276,460.23 271.38,473.591 
		269.84,482.841 269.06,492.08 268.81,501.33 269.58,510.58 270.86,519.57 272.92,528.56 275.49,537.551 279.08,546.03 
		282.94,554.51 287.82,562.47 292.96,569.921 298.869,577.11 305.289,583.79 312.23,589.95 319.68,595.61 327.39,600.49 
		335.61,604.85 344.09,608.7 352.829,611.79 361.56,614.1 370.81,615.9 380.06,616.921 389.31,617.19 398.56,616.66 407.56,615.39 
		416.8,613.591 425.539,611.01 434.28,607.671 442.5,603.56 450.72,599.2 458.43,593.81 486.949,577.11 516.25,560.921 
		545.789,545.26 575.6,530.62 605.909,516.48 644.46,506.211 651.65,506.73 658.59,507.75 665.52,509.81 672.21,512.12 
		678.89,515.461 684.789,519.31 690.71,523.421 695.84,528.56 700.47,533.961 704.84,539.61 708.44,545.77 711.26,552.45 
		713.84,559.131 715.369,566.32 716.4,573.26 716.659,581.99 716.4,590.461 715.11,598.95 713.32,607.421 710.75,615.64 
		707.659,623.6 703.81,631.31 699.19,638.5 733.869,678.58 740.039,669.841 745.699,660.85 750.579,651.35 754.68,641.591 
		758.539,631.82 761.369,621.551 763.68,611.27 765.48,600.74 766.25,590.211 766.77,579.671 	"/>
	<polygon display="inline" fill="#F8941E" points="468.449,297.37 394.199,324.34 403.699,318.44 413.98,313.04 424.26,308.42 
		435.05,304.56 446.1,301.48 457.15,299.17 	"/>
	<polygon display="inline" fill="#F8941E" points="527.039,297.37 468.449,297.37 483.1,296.34 497.74,295.83 512.39,296.34 	"/>
	<polygon display="inline" fill="#F8941E" points="548.61,319.72 548.61,323.83 548.11,327.94 546.56,331.79 544.51,335.65 
		541.94,338.73 538.86,341.56 535.26,343.87 531.15,345.41 527.039,346.17 522.92,346.17 527.039,297.37 531.15,298.39 535,299.69 
		538.6,301.99 541.68,304.56 544.51,307.9 546.56,311.5 547.85,315.61 	"/>
</g>
<g>
	<g>
		<g id="XMLID_1_">
			<g>
				<path fill="#F8941E" d="M852.6,523.92l18.24,103.15l-44.01,7.779l-0.66,14.761l-1.35,14.62l-2.141,14.479l-2.96,14.35
					l-3.75,14.221l-4.43,14.09l38.78,22.26l-52.33,90.68l-38.771-22.27l-9.93,10.86l-10.47,10.199l-11,9.79l-11.4,9.12l-11.95,8.59
					L692,868.38l15.29,42.12l-98.34,35.81l-15.3-42.119l-14.49,2.01l-14.62,1.21l-14.76,0.27l-14.62-0.27l-14.63-1.21l-14.49-2.01
					l-15.29,42.119L392.4,910.5l15.3-42.12l-12.48-7.78l-11.94-8.59l-11.4-9.12l-11.01-9.79L350.41,822.9l-9.93-10.86l-38.77,22.27
					l-52.33-90.68l38.77-22.26l-4.42-14.09l-3.76-14.221l-2.95-14.35l-2.15-14.479l-1.34-14.62l-0.67-14.761l-44.01-7.779
					l18.25-103.15l44,7.78l5.51-13.54l6.3-13.28l7.11-12.88l7.65-12.47l8.32-12.21l8.99-11.53l-28.71-34.34l80.09-67.33l28.72,34.33
					l13.01-6.84l13.42-6.03l13.55-5.5l13.95-4.57l14.22-4.02l14.36-3.09v-44.79h104.521v44.79l14.35,3.09l14.22,4.02l13.96,4.57
					l13.551,5.5l13.409,6.03l13.021,6.84l28.71-34.33l80.1,67.33l-28.71,34.34l8.98,11.53l8.319,12.21l7.65,12.47l7.11,12.88
					l6.31,13.28l5.5,13.54L852.6,523.92z M766.33,630.559l-59.84-66.8h-55.82l59.84,66.8l-59.84,66.801h55.82L766.33,630.559z
					 M517.85,779.58l89.62-246.4l-39.18-14.35l-89.75,246.53L517.85,779.58z M389.18,630.559l59.84-66.8h-55.81l-59.84,66.8
					l59.84,66.801h55.81L389.18,630.559z"/>
				<path fill="#F8941E" d="M947.43,197.81l-29.029,77.59c-3.11,8.38-5.53,14.16-7.261,17.32c-2.3,4.26-4.93,7.38-7.899,9.37
					c-2.971,1.99-6.521,2.98-10.641,2.98c-2.489,0-5.27-0.52-8.34-1.58l-1.43-12.14c2.82,0.77,5.29,1.15,7.4,1.15
					c2.869,0,5.17-0.48,6.899-1.44c1.72-0.95,3.14-2.29,4.24-4.02c0.81-1.29,2.13-4.5,3.95-9.63c0.239-0.72,0.62-1.77,1.149-3.16
					l-28.96-76.44h13.94l15.88,44.18c2.06,5.61,3.91,11.5,5.54,17.68c1.479-5.94,3.25-11.74,5.32-17.39l16.31-44.47H947.43z"/>
				<path fill="#F8941E" d="M865.29,197.81v65.95c0,11.88-1.21,20.3-3.63,25.26c-2.42,4.95-6.25,8.87-11.5,11.74
					c-5.24,2.88-11.7,4.31-19.36,4.31c-9.109,0-16.46-2.04-22.069-6.14c-5.601-4.09-8.311-10.26-8.12-18.5l12.58,1.87
					c0.529,3.88,1.989,6.7,4.38,8.48c3.21,2.39,7.6,3.59,13.149,3.59c5.99,0,10.62-1.2,13.87-3.59c3.26-2.4,5.47-5.75,6.62-10.06
					c0.67-2.64,0.98-8.17,0.93-16.6c-5.649,6.66-12.699,9.99-21.13,9.99c-10.49,0-18.609-3.78-24.359-11.35
					c-5.75-7.57-8.62-16.65-8.62-27.23c0-7.28,1.31-14,3.95-20.16c2.63-6.15,6.449-10.91,11.46-14.26
					c5.01-3.35,10.89-5.03,17.64-5.03c9.01,0,16.439,3.64,22.28,10.92v-9.19H865.29z M847.18,256.54
					c4.03-4.57,6.04-11.75,6.04-21.52c0-9.34-2.069-16.38-6.22-21.12c-4.14-4.74-9.14-7.11-14.98-7.11c-5.75,0-10.64,2.33-14.659,7
					c-4.03,4.67-6.04,11.61-6.04,20.8c0,10.01,1.989,17.32,5.97,21.92c3.97,4.59,8.95,6.89,14.94,6.89
					C838.17,263.4,843.16,261.12,847.18,256.54z"/>
				<path fill="#F8941E" d="M787.821,234.88c0,9.82-1.471,17.54-4.42,23.17c-2.95,5.63-7.23,10-12.86,13.11
					c-5.63,3.12-11.78,4.67-18.44,4.67c-10.68,0-19.319-3.42-25.899-10.27c-6.59-6.85-9.891-16.72-9.891-29.6
					c0-14.13,3.931-24.6,11.79-31.4c6.561-5.65,14.561-8.48,24-8.48c10.5,0,19.07,3.44,25.73,10.31
					C784.49,213.27,787.821,222.76,787.821,234.88z M768.13,257.87c4.26-4.88,6.4-12.33,6.4-22.34c0-9.44-2.15-16.59-6.44-21.45
					s-9.62-7.29-15.99-7.29c-6.47,0-11.83,2.42-16.1,7.25c-4.26,4.84-6.39,12.15-6.39,21.92s2.13,17.09,6.39,21.95
					c4.27,4.86,9.63,7.29,16.1,7.29C758.52,265.2,763.861,262.76,768.13,257.87z"/>
				<rect x="688.14" y="168.78" fill="#F8941E" width="12.94" height="105.33"/>
				<path fill="#F8941E" d="M673.27,234.88c0,9.82-1.479,17.54-4.42,23.17c-2.949,5.63-7.239,10-12.869,13.11
					c-5.631,3.12-11.771,4.67-18.431,4.67c-10.689,0-19.319-3.42-25.91-10.27c-6.59-6.85-9.88-16.72-9.88-29.6
					c0-14.13,3.931-24.6,11.78-31.4c6.57-5.65,14.57-8.48,24.01-8.48c10.49,0,19.07,3.44,25.73,10.31
					C669.941,213.27,673.27,222.76,673.27,234.88z M653.571,257.87c4.27-4.88,6.399-12.33,6.399-22.34c0-9.44-2.14-16.59-6.43-21.45
					s-9.62-7.29-15.99-7.29c-6.47,0-11.84,2.42-16.1,7.25c-4.26,4.84-6.4,12.15-6.4,21.92s2.141,17.09,6.4,21.95
					c4.26,4.86,9.63,7.29,16.1,7.29C643.97,265.2,649.31,262.76,653.571,257.87z"/>
				<path fill="#F8941E" d="M586.74,227.19v46.92H573.8V227.7c0-5.27-0.5-9.21-1.51-11.82c-1-2.61-2.79-4.7-5.35-6.25
					c-2.561-1.56-5.57-2.34-9.021-2.34c-5.51,0-10.26,1.75-14.26,5.25c-4.01,3.49-6.01,10.13-6.01,19.9v41.67h-12.93v-76.3h11.64
					v10.85c5.61-8.39,13.7-12.58,24.291-12.58c4.6,0,8.83,0.83,12.689,2.48c3.851,1.65,6.74,3.82,8.66,6.5
					c1.91,2.69,3.25,5.87,4.02,9.56C586.5,217.01,586.74,221.21,586.74,227.19z"/>
				<path fill="#F8941E" d="M505.03,225.76v48.35h-12.94v-48.35c0-6.47-1.4-11.18-4.2-14.12c-2.81-2.95-6.77-4.42-11.9-4.42
					c-3.83,0-7.43,0.99-10.81,2.98c-3.38,1.99-5.79,4.68-7.22,8.08c-1.44,3.4-2.16,8.1-2.16,14.09v41.74h-12.94V168.78h12.94v37.79
					c6.04-6.99,13.65-10.49,22.85-10.49c5.66,0,10.57,1.12,14.74,3.34c4.16,2.23,7.15,5.31,8.94,9.24
					C504.13,212.58,505.03,218.28,505.03,225.76z"/>
				<path fill="#F8941E" d="M419.08,246.16l12.72,1.65c-1.39,8.77-4.95,15.63-10.68,20.59c-5.72,4.95-12.75,7.43-21.09,7.43
					c-10.44,0-18.84-3.41-25.19-10.24c-6.35-6.82-9.52-16.6-9.52-29.34c0-8.24,1.37-15.45,4.1-21.63
					c2.73-6.18,6.88-10.81,12.46-13.9c5.59-3.09,11.66-4.64,18.22-4.64c8.29,0,15.07,2.1,20.34,6.29s8.65,10.14,10.13,17.85
					L418,222.16c-1.2-5.12-3.32-8.98-6.36-11.56c-3.05-2.59-6.72-3.88-11.03-3.88c-6.52,0-11.82,2.33-15.89,7
					c-4.07,4.67-6.11,12.06-6.11,22.17c0,10.25,1.97,17.69,5.9,22.34c3.93,4.65,9.05,6.97,15.38,6.97c5.07,0,9.32-1.56,12.72-4.67
					C416.01,257.42,418.16,252.63,419.08,246.16z"/>
				<path fill="#F8941E" d="M353.46,235.81c0,0.77-0.02,1.92-0.07,3.45h-56.92c0.48,8.39,2.85,14.8,7.12,19.26
					c4.26,4.45,9.58,6.68,15.95,6.68c4.74,0,8.79-1.25,12.15-3.74c3.35-2.49,6.01-6.46,7.97-11.92l13.37,1.65
					c-2.11,7.81-6.01,13.87-11.71,18.18c-5.71,4.31-12.99,6.46-21.85,6.46c-11.16,0-20.02-3.43-26.56-10.31
					c-6.54-6.87-9.81-16.51-9.81-28.92c0-12.83,3.31-22.79,9.92-29.88c6.61-7.09,15.19-10.64,25.73-10.64
					c10.21,0,18.54,3.48,25.01,10.42C350.23,213.45,353.46,223.22,353.46,235.81z M297.19,228.63h42.62
					c-0.58-6.42-2.21-11.23-4.89-14.44c-4.12-4.98-9.46-7.47-16.03-7.47c-5.94,0-10.93,1.98-14.98,5.96
					C299.86,216.66,297.62,221.97,297.19,228.63z"/>
				<polygon fill="#F8941E" points="274.77,168.78 274.77,181.21 239.91,181.21 239.91,274.11 225.97,274.11 225.97,181.21 
					191.26,181.21 191.26,168.78 				"/>
			</g>
			<g>
				<polyline fill="none" stroke="#F8941E" stroke-width="0" stroke-linecap="square" stroke-miterlimit="10" points="
					334.98,455.79 325.99,467.32 317.67,479.53 310.02,492 302.91,504.88 296.61,518.16 291.1,531.7 				"/>
				
					<line fill="none" stroke="#F8941E" stroke-width="0" stroke-linecap="square" stroke-miterlimit="10" x1="228.85" y1="627.07" x2="272.86" y2="634.849"/>
				
					<line fill="none" stroke="#F8941E" stroke-width="0" stroke-linecap="square" stroke-miterlimit="10" x1="247.1" y1="523.92" x2="291.1" y2="531.7"/>
				
					<line fill="none" stroke="#F8941E" stroke-width="0" stroke-linecap="square" stroke-miterlimit="10" x1="386.36" y1="354.12" x2="415.08" y2="388.45"/>
				
					<line fill="none" stroke="#F8941E" stroke-width="0" stroke-linecap="square" stroke-miterlimit="10" x1="306.27" y1="421.45" x2="334.98" y2="455.79"/>
				
					<line fill="none" stroke="#F8941E" stroke-width="0" stroke-linecap="square" stroke-miterlimit="10" x1="497.59" y1="358.4" x2="497.59" y2="313.61"/>
				
					<line fill="none" stroke="#F8941E" stroke-width="0" stroke-linecap="square" stroke-miterlimit="10" x1="602.111" y1="358.4" x2="602.111" y2="313.61"/>
				
					<line fill="none" stroke="#F8941E" stroke-width="0" stroke-linecap="square" stroke-miterlimit="10" x1="713.33" y1="354.12" x2="684.62" y2="388.45"/>
				
					<line fill="none" stroke="#F8941E" stroke-width="0" stroke-linecap="square" stroke-miterlimit="10" x1="793.43" y1="421.45" x2="764.72" y2="455.79"/>
				
					<line fill="none" stroke="#F8941E" stroke-width="0" stroke-linecap="square" stroke-miterlimit="10" x1="808.59" y1="531.7" x2="852.6" y2="523.92"/>
				
					<line fill="none" stroke="#F8941E" stroke-width="0" stroke-linecap="square" stroke-miterlimit="10" x1="826.83" y1="634.849" x2="870.84" y2="627.07"/>
				
					<line fill="none" stroke="#F8941E" stroke-width="0" stroke-linecap="square" stroke-miterlimit="10" x1="850.321" y1="743.63" x2="811.54" y2="721.37"/>
				
					<line fill="none" stroke="#F8941E" stroke-width="0" stroke-linecap="square" stroke-miterlimit="10" x1="797.99" y1="834.309" x2="759.22" y2="812.04"/>
				
					<line fill="none" stroke="#F8941E" stroke-width="0" stroke-linecap="square" stroke-miterlimit="10" x1="593.651" y1="904.19" x2="608.95" y2="946.309"/>
				
					<line fill="none" stroke="#F8941E" stroke-width="0" stroke-linecap="square" stroke-miterlimit="10" x1="692" y1="868.38" x2="707.29" y2="910.5"/>
				
					<line fill="none" stroke="#F8941E" stroke-width="0" stroke-linecap="square" stroke-miterlimit="10" x1="490.75" y1="946.309" x2="506.04" y2="904.19"/>
				
					<line fill="none" stroke="#F8941E" stroke-width="0" stroke-linecap="square" stroke-miterlimit="10" x1="392.4" y1="910.5" x2="407.7" y2="868.38"/>
				
					<line fill="none" stroke="#F8941E" stroke-width="0" stroke-linecap="square" stroke-miterlimit="10" x1="288.15" y1="721.37" x2="249.38" y2="743.63"/>
				
					<line fill="none" stroke="#F8941E" stroke-width="0" stroke-linecap="square" stroke-miterlimit="10" x1="340.48" y1="812.04" x2="301.71" y2="834.309"/>
				
					<line fill="none" stroke="#F8941E" stroke-width="0" stroke-linecap="square" stroke-miterlimit="10" x1="249.38" y1="743.63" x2="301.71" y2="834.309"/>
				
					<line fill="none" stroke="#F8941E" stroke-width="0" stroke-linecap="square" stroke-miterlimit="10" x1="392.4" y1="910.5" x2="490.75" y2="946.309"/>
				
					<line fill="none" stroke="#F8941E" stroke-width="0" stroke-linecap="square" stroke-miterlimit="10" x1="608.95" y1="946.309" x2="707.29" y2="910.5"/>
				
					<line fill="none" stroke="#F8941E" stroke-width="0" stroke-linecap="square" stroke-miterlimit="10" x1="797.99" y1="834.309" x2="850.321" y2="743.63"/>
				
					<line fill="none" stroke="#F8941E" stroke-width="0" stroke-linecap="square" stroke-miterlimit="10" x1="870.84" y1="627.07" x2="852.6" y2="523.92"/>
				
					<line fill="none" stroke="#F8941E" stroke-width="0" stroke-linecap="square" stroke-miterlimit="10" x1="793.43" y1="421.45" x2="713.33" y2="354.12"/>
				
					<line fill="none" stroke="#F8941E" stroke-width="0" stroke-linecap="square" stroke-miterlimit="10" x1="602.111" y1="313.61" x2="497.59" y2="313.61"/>
				
					<line fill="none" stroke="#F8941E" stroke-width="0" stroke-linecap="square" stroke-miterlimit="10" x1="386.36" y1="354.12" x2="306.27" y2="421.45"/>
				
					<line fill="none" stroke="#F8941E" stroke-width="0" stroke-linecap="square" stroke-miterlimit="10" x1="247.1" y1="523.92" x2="228.85" y2="627.07"/>
				<polyline fill="none" stroke="#F8941E" stroke-width="0" stroke-linecap="square" stroke-miterlimit="10" points="
					272.86,634.849 273.53,649.61 274.87,664.23 277.02,678.71 279.97,693.059 283.73,707.28 288.15,721.37 				"/>
				<polyline fill="none" stroke="#F8941E" stroke-width="0" stroke-linecap="square" stroke-miterlimit="10" points="
					340.48,812.04 350.41,822.9 360.87,833.099 371.88,842.889 383.28,852.01 395.22,860.599 407.7,868.38 				"/>
				<polyline fill="none" stroke="#F8941E" stroke-width="0" stroke-linecap="square" stroke-miterlimit="10" points="
					506.04,904.19 520.53,906.2 535.16,907.41 549.781,907.679 564.54,907.41 579.16,906.2 593.651,904.19 				"/>
				<polyline fill="none" stroke="#F8941E" stroke-width="0" stroke-linecap="square" stroke-miterlimit="10" points="692,868.38 
					704.47,860.599 716.42,852.01 727.821,842.889 738.821,833.099 749.29,822.9 759.22,812.04 				"/>
				<polyline fill="none" stroke="#F8941E" stroke-width="0" stroke-linecap="square" stroke-miterlimit="10" points="
					811.54,721.37 815.97,707.28 819.72,693.059 822.68,678.71 824.821,664.23 826.17,649.61 826.83,634.849 				"/>
				<polyline fill="none" stroke="#F8941E" stroke-width="0" stroke-linecap="square" stroke-miterlimit="10" points="808.59,531.7 
					803.09,518.16 796.781,504.88 789.67,492 782.02,479.53 773.7,467.32 764.72,455.79 				"/>
				<polyline fill="none" stroke="#F8941E" stroke-width="0" stroke-linecap="square" stroke-miterlimit="10" points="
					684.62,388.45 671.6,381.61 658.191,375.58 644.64,370.08 630.68,365.51 616.46,361.49 602.111,358.4 				"/>
				<polyline fill="none" stroke="#F8941E" stroke-width="0" stroke-linecap="square" stroke-miterlimit="10" points="497.59,358.4 
					483.23,361.49 469.01,365.51 455.06,370.08 441.51,375.58 428.09,381.61 415.08,388.45 				"/>
				
					<line fill="none" stroke="#F8941E" stroke-width="0" stroke-linecap="square" stroke-miterlimit="10" x1="478.54" y1="765.36" x2="517.85" y2="779.58"/>
				
					<line fill="none" stroke="#F8941E" stroke-width="0" stroke-linecap="square" stroke-miterlimit="10" x1="568.29" y1="518.83" x2="607.47" y2="533.18"/>
				
					<line fill="none" stroke="#F8941E" stroke-width="0" stroke-linecap="square" stroke-miterlimit="10" x1="478.54" y1="765.36" x2="568.29" y2="518.83"/>
				
					<line fill="none" stroke="#F8941E" stroke-width="0" stroke-linecap="square" stroke-miterlimit="10" x1="517.85" y1="779.58" x2="607.47" y2="533.18"/>
				
					<line fill="none" stroke="#F8941E" stroke-width="0" stroke-linecap="square" stroke-miterlimit="10" x1="766.33" y1="630.559" x2="706.49" y2="563.76"/>
				
					<line fill="none" stroke="#F8941E" stroke-width="0" stroke-linecap="square" stroke-miterlimit="10" x1="710.51" y1="630.559" x2="650.67" y2="563.76"/>
				
					<line fill="none" stroke="#F8941E" stroke-width="0" stroke-linecap="square" stroke-miterlimit="10" x1="706.49" y1="563.76" x2="650.67" y2="563.76"/>
				
					<line fill="none" stroke="#F8941E" stroke-width="0" stroke-linecap="square" stroke-miterlimit="10" x1="766.33" y1="630.559" x2="706.49" y2="697.36"/>
				
					<line fill="none" stroke="#F8941E" stroke-width="0" stroke-linecap="square" stroke-miterlimit="10" x1="710.51" y1="630.559" x2="650.67" y2="697.36"/>
				
					<line fill="none" stroke="#F8941E" stroke-width="0" stroke-linecap="square" stroke-miterlimit="10" x1="706.49" y1="697.36" x2="650.67" y2="697.36"/>
				
					<line fill="none" stroke="#F8941E" stroke-width="0" stroke-linecap="square" stroke-miterlimit="10" x1="333.37" y1="630.559" x2="393.21" y2="563.76"/>
				
					<line fill="none" stroke="#F8941E" stroke-width="0" stroke-linecap="square" stroke-miterlimit="10" x1="389.18" y1="630.559" x2="449.02" y2="563.76"/>
				
					<line fill="none" stroke="#F8941E" stroke-width="0" stroke-linecap="square" stroke-miterlimit="10" x1="393.21" y1="563.76" x2="449.02" y2="563.76"/>
				
					<line fill="none" stroke="#F8941E" stroke-width="0" stroke-linecap="square" stroke-miterlimit="10" x1="333.37" y1="630.559" x2="393.21" y2="697.36"/>
				
					<line fill="none" stroke="#F8941E" stroke-width="0" stroke-linecap="square" stroke-miterlimit="10" x1="389.18" y1="630.559" x2="449.02" y2="697.36"/>
				
					<line fill="none" stroke="#F8941E" stroke-width="0" stroke-linecap="square" stroke-miterlimit="10" x1="393.21" y1="697.36" x2="449.02" y2="697.36"/>
			</g>
		</g>
	</g>
</g>
</svg>
